<svg xmlns="http://www.w3.org/2000/svg" xmlns:xlink="http://www.w3.org/1999/xlink" width="70" height="70" viewBox="0 0 70 70">
  <defs>
    <linearGradient id="linear-gradient" x1="0.5" x2="0.5" y2="1" gradientUnits="objectBoundingBox">
      <stop offset="0" stop-color="#e31f25"/>
      <stop offset="1" stop-color="#ff1f26"/>
    </linearGradient>
  </defs>
  <g id="Group_668" data-name="Group 668" transform="translate(-208 -4019)">
    <rect id="Area_SIZE:LARGE_STATE:DEFAULT_STYLE:STYLE2_" data-name="Area [SIZE:LARGE][STATE:DEFAULT][STYLE:STYLE2]" width="70" height="70" rx="35" transform="translate(208 4019)" fill="url(#linear-gradient)"/>
    <g id="holi" transform="translate(221 3948)">
      <path id="Path_180" data-name="Path 180" d="M4.684,115.91c2.007,1,3.226,1.691,3.226,2.776A1.318,1.318,0,0,0,9.229,120H35.771a1.318,1.318,0,0,0,1.318-1.318c0-1.084,1.219-1.772,3.226-2.776C42.4,114.866,45,113.568,45,110.775a1.318,1.318,0,0,0-1.318-1.318H41.643L27.475,93.267a6.592,6.592,0,0,0-9.947,0L3.357,109.457H1.318A1.318,1.318,0,0,0,0,110.775C0,113.568,2.6,114.866,4.684,115.91Zm34.453-2.358c-1.727.863-3.8,1.9-4.468,3.816H10.331c-.665-1.915-2.741-2.953-4.468-3.816a13.435,13.435,0,0,1-2.489-1.458H41.626a13.43,13.43,0,0,1-2.489,1.458ZM19.514,95a3.955,3.955,0,0,1,5.974,0l12.651,14.456H6.861Z" fill="#fff"/>
      <circle id="Ellipse_8" data-name="Ellipse 8" cx="1.318" cy="1.318" r="1.318" transform="translate(21.182 96.273)" fill="#fff"/>
      <circle id="Ellipse_9" data-name="Ellipse 9" cx="1.318" cy="1.318" r="1.318" transform="translate(15.908 101.547)" fill="#fff"/>
      <circle id="Ellipse_10" data-name="Ellipse 10" cx="1.318" cy="1.318" r="1.318" transform="translate(21.182 101.547)" fill="#fff"/>
    </g>
  </g>
</svg>
