<svg xmlns="http://www.w3.org/2000/svg" xmlns:xlink="http://www.w3.org/1999/xlink" width="70" height="70" viewBox="0 0 70 70">
  <defs>
    <linearGradient id="linear-gradient" x1="0.5" x2="0.5" y2="1" gradientUnits="objectBoundingBox">
      <stop offset="0" stop-color="#e31f25"/>
      <stop offset="1" stop-color="#ff1f26"/>
    </linearGradient>
  </defs>
  <g id="Group_663" data-name="Group 663" transform="translate(-780 -4019)">
    <rect id="Area_SIZE:LARGE_STATE:DEFAULT_STYLE:STYLE2_" data-name="Area [SIZE:LARGE][STATE:DEFAULT][STYLE:STYLE2]" width="70" height="70" rx="35" transform="translate(780 4019)" fill="url(#linear-gradient)"/>
    <path id="cupcake" d="M64.913,13.271A3.921,3.921,0,0,0,60.625,7.6a13.582,13.582,0,0,0-5.11-2.216A2.068,2.068,0,0,1,54,3.822a2.037,2.037,0,0,1,.66-2.04c.049-.042.072-.057.071-.057h0a.55.55,0,0,0,0-.966,6.344,6.344,0,0,0-3.865-.7,6.238,6.238,0,0,0-3.589,1.784A6.338,6.338,0,0,0,45.55,7.518a4,4,0,0,0-.688.018,3.921,3.921,0,0,0-3.017,5.736,5.05,5.05,0,0,0-2.958,4.939,5,5,0,0,0,1.507,3.234q.159.155.33.294l1.657,11.714a.55.55,0,0,0,.42.459,46.85,46.85,0,0,0,10.577,1.2,46.845,46.845,0,0,0,10.577-1.2.55.55,0,0,0,.42-.459l1.657-11.714q.171-.139.33-.294a5,5,0,0,0,1.507-3.234A5.05,5.05,0,0,0,64.913,13.271Zm-22.973,9.2a4.97,4.97,0,0,0,1.728.393q.1,0,.195,0l1.031,10.354q-.74-.139-1.475-.3Zm18.282-.354a5.025,5.025,0,0,0,1.581.638L60.742,33.422q-.773.126-1.55.224l.749-11.28C60.036,22.285,60.129,22.2,60.222,22.118ZM58.081,33.774q-.763.078-1.529.132l.323-9.743a10,10,0,0,0,1.907-.941Zm-2.632.194q-.759.034-1.52.044V24.765a10.155,10.155,0,0,0,1.834-.266Zm-2.62.044q-.76-.009-1.52-.044L51,24.5a10.155,10.155,0,0,0,1.834.266Zm-2.946-9.849.323,9.743q-.766-.053-1.529-.132l-.7-10.552A10,10,0,0,0,49.884,24.163Zm-3.066-1.8.749,11.28q-.777-.1-1.549-.224L44.956,22.756a5.026,5.026,0,0,0,1.581-.638C46.629,22.2,46.723,22.285,46.818,22.366ZM63.341,32.923q-.734.164-1.474.3L62.9,22.871q.1,0,.195,0a4.97,4.97,0,0,0,1.728-.393Zm3.433-14.789A3.919,3.919,0,0,1,60.5,20.974a.55.55,0,0,0-.722.05,9.026,9.026,0,0,1-12.789,0,.55.55,0,0,0-.722-.05,3.924,3.924,0,0,1-6.278-2.841,3.939,3.939,0,0,1,2.831-4.049.579.579,0,0,0,.315-.209.551.551,0,0,0-.016-.672,2.82,2.82,0,0,1,1.87-4.575l.027,0a2.307,2.307,0,0,1,1.461.355,13.767,13.767,0,0,0,2.736,1.3,16.676,16.676,0,0,0,5.54.925,18.393,18.393,0,0,0,3.162-.277.566.566,0,0,0,.475-.626.55.55,0,0,0-.639-.462,16.128,16.128,0,0,1-8.125-.58,12.127,12.127,0,0,1-2.851-1.4A5.2,5.2,0,0,1,53.5,1.409a3.117,3.117,0,0,0-.573,2.663,3.191,3.191,0,0,0,2.315,2.375c2.377.613,4.128,1.386,4.806,2.122a.562.562,0,0,0,.576.164,2.833,2.833,0,0,1,1.041-.116,2.878,2.878,0,0,1,2.6,2.614C64.51,13.5,59.7,18.38,49.638,16.053a.55.55,0,0,0-.663.428.564.564,0,0,0,.435.649,23.126,23.126,0,0,0,5.2.629,15.157,15.157,0,0,0,6.36-1.275,10.258,10.258,0,0,0,3.281-2.3A3.943,3.943,0,0,1,66.774,18.133Z" transform="translate(761.62 4036.443)" fill="#fff"/>
  </g>
</svg>
