<svg xmlns="http://www.w3.org/2000/svg" xmlns:xlink="http://www.w3.org/1999/xlink" width="80" height="80" viewBox="0 0 80 80">
  <defs>
    <linearGradient id="linear-gradient" x1="0.5" x2="0.5" y2="1" gradientUnits="objectBoundingBox">
      <stop offset="0" stop-color="#e31f25"/>
      <stop offset="1" stop-color="#ff1f26"/>
    </linearGradient>
  </defs>
  <g id="Group_915" data-name="Group 915" transform="translate(-261 -1653)">
    <g id="Group_867" data-name="Group 867" transform="translate(-438 -172)">
      <rect id="Area_SIZE:LARGE_STATE:DEFAULT_STYLE:STYLE2_" data-name="Area [SIZE:LARGE][STATE:DEFAULT][STYLE:STYLE2]" width="80" height="80" rx="40" transform="translate(699 1825)" fill="url(#linear-gradient)"/>
    </g>
    <g id="artificial-intelligence" transform="translate(243.319 1670.613)">
      <g id="Group_869" data-name="Group 869" transform="translate(39.51 1)">
        <g id="Group_868" data-name="Group 868" transform="translate(0 0)">
          <path id="Path_458" data-name="Path 458" d="M75.546,21.677c1.114-6.048-.7-14.362-7.328-18.324A18.406,18.406,0,0,0,54.465,1.623,17.141,17.141,0,0,0,41.843,13.945a12.2,12.2,0,0,0-.415,3.737,12.546,12.546,0,0,0,.431,2.31,9.98,9.98,0,0,1,.426,2.962,7.468,7.468,0,0,1-1.579,3.527c-.792,1.193-1.476,2.224-1.079,3.174A2.327,2.327,0,0,0,41.407,30.8a.852.852,0,0,0,.129.013.668.668,0,0,1,.747.712c0,1.481.037,2.245.649,2.6a1.3,1.3,0,0,0-.111.352,1.27,1.27,0,0,0,.4,1.124,2.165,2.165,0,0,0,1.13.577l.086.019a1.822,1.822,0,0,1,.022.321,7.673,7.673,0,0,1-.056.793c-.118,1.14-.28,2.7,2,3.447a4.7,4.7,0,0,0,1.407.171,22.322,22.322,0,0,0,6.336-1.215,8.053,8.053,0,0,1,1.041,3.355.713.713,0,0,0,.713.713H73.72a.707.707,0,0,0,.665-.493.729.729,0,0,0-.255-.8c-.737-.56-3.179-6.459-3.254-8.578.215-.489.5-1.037.845-1.675A33.488,33.488,0,0,0,75.546,21.677Zm-6.1,12.152c.018,1.7,1.555,6.208,2.875,8.519H56.556a10.207,10.207,0,0,0-1.048-3.126,11.525,11.525,0,0,0,4.757-2.992.713.713,0,0,0-1.133-.866C57.115,38,48.723,40.008,46.849,39.395c-1.187-.388-1.139-.844-1.025-1.945a8.961,8.961,0,0,0,.064-.94c0-1.2-.484-1.559-1.212-1.728a.914.914,0,0,1-.384-.148,1.978,1.978,0,0,1,.471-.334.713.713,0,0,0-.314-1.353c-.257,0-.544,0-.694-.019a11,11,0,0,1-.046-1.406,2.085,2.085,0,0,0-2.086-2.136c-.514-.108-.67-.247-.683-.28-.1-.247.583-1.281.952-1.836a8.607,8.607,0,0,0,1.817-4.279,10,10,0,0,0-.295-2.644A7.1,7.1,0,0,1,46.1,18.866a2.209,2.209,0,0,1,1.059.074.713.713,0,0,0,.379-1.374,3.6,3.6,0,0,0-1.733-.1,7.344,7.344,0,0,0-2.762,1.371,8.468,8.468,0,0,1-.2-1.262,10.551,10.551,0,0,1,.378-3.293C44.6,8.718,48.835,4.6,54.834,3A16.929,16.929,0,0,1,67.486,4.577c6.04,3.612,7.686,11.263,6.658,16.842a31.8,31.8,0,0,1-3.679,10.135c-.392.731-.73,1.362-.974,1.947A.7.7,0,0,0,69.446,33.829Z" transform="translate(-39.51 -1)" fill="#fff"/>
          <path id="Path_459" data-name="Path 459" d="M156.908,54.733a2.136,2.136,0,0,0-1.736-2.3l-1.365-1.892a2.113,2.113,0,0,0,.191-.489l1.322-.528a2.133,2.133,0,1,0,2.065-3.49L156.313,43.9a2.129,2.129,0,0,0-2.618-3.315l-1.194-.991a2.13,2.13,0,0,0-3.539-2.215l-2.113-.528a2.125,2.125,0,0,0-4.089-.025l-2.824.565a2.128,2.128,0,0,0-3.4,2.511l-1.384,1.843a2.132,2.132,0,0,0-.122,4.17l1.144,2.824a2.134,2.134,0,1,0,3.508,2.232h3.826a2.064,2.064,0,0,0,2.333,1.392l2.366,3.6a2.133,2.133,0,1,0,3.684,1.8l1.766-1.412a2.127,2.127,0,0,0,3.251-1.613Zm.009-7.326a.713.713,0,1,1-.653,1c0-.007,0-.013,0-.02l0-.007a.7.7,0,0,1-.052-.256A.714.714,0,0,1,156.917,47.407Zm-2.836-5.134a.713.713,0,1,1,.7.857.7.7,0,0,1-.257-.052l-.006,0c-.006,0-.013,0-.019,0A.712.712,0,0,1,154.081,42.273Zm-.709,1.742h0l-1.317,3.293-2.309-1.847a2.127,2.127,0,0,0,.659-1.014l2.824-.565C153.274,43.93,153.323,43.972,153.372,44.016Zm-.759,5.722a.712.712,0,1,1-.685-.905.7.7,0,0,1,.257.052l.006,0c.006,0,.013,0,.02,0A.712.712,0,0,1,152.613,49.738Zm-2.111-11.6a.713.713,0,1,1-.713.713A.713.713,0,0,1,150.5,38.142Zm-3.75.153,1.628.407c0,.051-.015.1-.015.152a2.14,2.14,0,0,0,2.138,2.138,2.115,2.115,0,0,0,1.084-.305l1.194.991a2.116,2.116,0,0,0-.14.739c0,.043.01.083.013.126l-2.321.464a2.139,2.139,0,0,0-1.639-1.27l-2.609-2.609A2.144,2.144,0,0,0,146.752,38.3Zm2.325,5.548a.713.713,0,1,1-.713-.713A.713.713,0,0,1,149.077,43.844ZM144.8,36.717a.713.713,0,1,1-.713.713A.713.713,0,0,1,144.8,36.717ZM144.942,40l2.14,2.139a2.135,2.135,0,0,0-.724.987H144.67a2.135,2.135,0,0,0-.929-1.123Zm-4.43-1.275,2.321-.464a2.143,2.143,0,0,0,.89,1l-1.294,2.156-2.236-1.435a2.119,2.119,0,0,0,.332-1.132C140.525,38.812,140.515,38.771,140.512,38.729Zm2.863,5.115a.713.713,0,1,1-.713-.713A.713.713,0,0,1,143.376,43.844Zm-4.989-5.7a.713.713,0,1,1-.713.713A.713.713,0,0,1,138.387,38.142Zm-.776,2.7a2,2,0,0,0,1.365.058l2.2,1.412a2.134,2.134,0,0,0-.521.819h-3.113a2.14,2.14,0,0,0-.842-1.076Zm-2.075,3.714a.713.713,0,1,1,.713-.713A.713.713,0,0,1,135.536,44.556Zm2.138,6.414a.713.713,0,1,1,.713-.713A.713.713,0,0,1,137.674,50.971Zm.405-2.81a2.138,2.138,0,0,0-.405-.041,2.07,2.07,0,0,0-.206.021l-.971-2.4a2.136,2.136,0,0,0,1.046-1.187h3.113a2.131,2.131,0,0,0,.644.921Zm5.428,1.384h-3.826a2.122,2.122,0,0,0-.325-.592l3.5-2.917,1.192,2.673A2.134,2.134,0,0,0,143.507,49.545Zm1.163-4.989h1.688a2.135,2.135,0,0,0,.929,1.123l-1.482,2.47a2.119,2.119,0,0,0-.291-.029c-.055,0-.107.012-.161.016l-1.223-2.744A2.135,2.135,0,0,0,144.67,44.556Zm.844,6.414a.713.713,0,1,1,.713-.713A.713.713,0,0,1,145.514,50.971Zm3.042-4.636,1.99,1.592a2.129,2.129,0,0,0-.659,1.014l-2.406.481a2.14,2.14,0,0,0-.408-.617ZM149.79,58.1a.713.713,0,1,1,.713-.713A.713.713,0,0,1,149.79,58.1Zm2.851-3.563a2.112,2.112,0,0,0,.127.7l-1.2.962a2.056,2.056,0,0,0-2.1-.914l-2.366-3.6a2.125,2.125,0,0,0,.457-.819l2.406-.481a2.135,2.135,0,0,0,2.792,1.137l.879,1.219A2.134,2.134,0,0,0,152.641,54.534Zm.694-6.586,1.36-3.4c.028,0,.055.009.084.009a2.1,2.1,0,0,0,.256-.026l.863,1.721a2.131,2.131,0,0,0-1.119,1.868c0,.029.007.056.009.084l-.958.383A2.137,2.137,0,0,0,153.335,47.948Zm1.444,7.3a.713.713,0,1,1,.713-.713A.713.713,0,0,1,154.779,55.247Z" transform="translate(-125.557 -32.428)" fill="#fff"/>
        </g>
      </g>
    </g>
  </g>
</svg>
