<svg xmlns="http://www.w3.org/2000/svg" xmlns:xlink="http://www.w3.org/1999/xlink" width="80" height="80" viewBox="0 0 80 80">
  <defs>
    <linearGradient id="linear-gradient" x1="0.5" x2="0.5" y2="1" gradientUnits="objectBoundingBox">
      <stop offset="0" stop-color="#e31f25"/>
      <stop offset="1" stop-color="#ff1f26"/>
    </linearGradient>
  </defs>
  <g id="Group_917" data-name="Group 917" transform="translate(-623 -1653)">
    <g id="Group_909" data-name="Group 909" transform="translate(-76 -172)">
      <rect id="Area_SIZE:LARGE_STATE:DEFAULT_STYLE:STYLE2_" data-name="Area [SIZE:LARGE][STATE:DEFAULT][STYLE:STYLE2]" width="80" height="80" rx="40" transform="translate(699 1825)" fill="url(#linear-gradient)"/>
    </g>
    <g id="blood" transform="translate(638 1668)">
      <g id="Group_871" data-name="Group 871" transform="translate(13.962 7.996)">
        <g id="Group_870" data-name="Group 870">
          <rect id="Rectangle_238" data-name="Rectangle 238" width="1.478" height="1.613" transform="matrix(0.428, -0.904, 0.904, 0.428, 0, 1.336)" fill="#fff"/>
        </g>
      </g>
      <g id="Group_873" data-name="Group 873" transform="translate(3.226 10.744)">
        <g id="Group_872" data-name="Group 872">
          <path id="Path_465" data-name="Path 465" d="M42.067,106.576l-8.906,18.8A12.145,12.145,0,0,0,32,130.541h1.613a10.531,10.531,0,0,1,1.006-4.476l8.906-18.8Z" transform="translate(-32 -106.576)" fill="#fff"/>
        </g>
      </g>
      <g id="Group_875" data-name="Group 875" transform="translate(0 0)">
        <g id="Group_874" data-name="Group 874" transform="translate(0 0)">
          <path id="Path_466" data-name="Path 466" d="M33.065,16.129a16.812,16.812,0,0,0-8.5,2.31L16.052.461a.807.807,0,0,0-1.458,0L1.472,28.163A15.292,15.292,0,0,0,15.354,50a15.2,15.2,0,0,0,8.623-2.668,16.927,16.927,0,1,0,9.087-31.2ZM15.291,48.387A13.679,13.679,0,0,1,2.93,28.852L15.323,2.69,23.2,19.325a16.883,16.883,0,0,0-.64,27A13.656,13.656,0,0,1,15.291,48.387Zm17.773,0A15.323,15.323,0,1,1,48.387,33.065,15.34,15.34,0,0,1,33.065,48.387Z" transform="translate(0 0)" fill="#fff"/>
        </g>
      </g>
      <g id="Group_877" data-name="Group 877" transform="translate(25.806 20.161)">
        <g id="Group_876" data-name="Group 876">
          <path id="Path_467" data-name="Path 467" d="M263.258,200c-4,0-7.258,2.533-7.258,5.645s3.256,5.645,7.258,5.645,7.258-2.533,7.258-5.645S267.26,200,263.258,200Zm0,9.677c-3.113,0-5.645-1.809-5.645-4.032s2.532-4.032,5.645-4.032,5.645,1.809,5.645,4.032S266.371,209.677,263.258,209.677Z" transform="translate(-256 -200)" fill="#fff"/>
        </g>
      </g>
      <g id="Group_879" data-name="Group 879" transform="translate(30.385 23.843)">
        <g id="Group_878" data-name="Group 878">
          <path id="Path_468" data-name="Path 468" d="M306.263,236.52a6.859,6.859,0,0,1-4.32,0l-.519,1.528a8.456,8.456,0,0,0,5.357,0Z" transform="translate(-301.424 -236.52)" fill="#fff"/>
        </g>
      </g>
      <g id="Group_881" data-name="Group 881" transform="translate(37.407 35.015)">
        <g id="Group_880" data-name="Group 880">
          <path id="Path_469" data-name="Path 469" d="M374.421,347.352a6.842,6.842,0,0,1-3.341,2.739l.567,1.51a8.447,8.447,0,0,0,4.144-3.4Z" transform="translate(-371.08 -347.352)" fill="#fff"/>
        </g>
      </g>
      <g id="Group_883" data-name="Group 883" transform="translate(33.883 31.45)">
        <g id="Group_882" data-name="Group 882">
          <path id="Path_470" data-name="Path 470" d="M348,313.774a4.715,4.715,0,0,0-3.317-1.764,7.582,7.582,0,0,0-5.613,2c-2.969,2.573-3.848,6.646-1.96,9.08a4.715,4.715,0,0,0,3.317,1.764q.29.029.584.029a7.826,7.826,0,0,0,5.029-2.033C349.01,320.281,349.889,316.207,348,313.774Zm-3.016,7.86a6.1,6.1,0,0,1-4.4,1.618,3.074,3.074,0,0,1-2.2-1.148c-1.372-1.768-.59-4.851,1.742-6.872a6.3,6.3,0,0,1,3.985-1.638c.14,0,.277.007.413.02a3.074,3.074,0,0,1,2.2,1.148C348.1,316.531,347.317,319.614,344.985,321.635Z" transform="translate(-336.116 -311.98)" fill="#fff"/>
        </g>
      </g>
      <g id="Group_885" data-name="Group 885" transform="translate(24.012 35.015)">
        <g id="Group_884" data-name="Group 884">
          <path id="Path_471" data-name="Path 471" d="M241.017,348.992a6.68,6.68,0,0,1-1.448-1.64l-1.369.852a8.441,8.441,0,0,0,4.143,3.4l.567-1.51A6.678,6.678,0,0,1,241.017,348.992Z" transform="translate(-238.2 -347.352)" fill="#fff"/>
        </g>
      </g>
      <g id="Group_887" data-name="Group 887" transform="translate(19.366 31.45)">
        <g id="Group_886" data-name="Group 886">
          <path id="Path_472" data-name="Path 472" d="M202.037,314.022a7.589,7.589,0,0,0-5.613-2,4.714,4.714,0,0,0-3.317,1.764c-1.889,2.434-1.009,6.506,1.96,9.08A7.832,7.832,0,0,0,200.1,324.9c.2,0,.391-.01.584-.029A4.714,4.714,0,0,0,204,323.1C205.886,320.668,205.006,316.594,202.037,314.022Zm.686,8.09a3.077,3.077,0,0,1-2.2,1.148,6.092,6.092,0,0,1-4.4-1.618c-2.333-2.021-3.114-5.1-1.742-6.872a3.077,3.077,0,0,1,2.2-1.148c.135-.013.273-.02.413-.02a6.3,6.3,0,0,1,3.985,1.638C203.314,317.261,204.1,320.343,202.723,322.112Z" transform="translate(-192.112 -311.988)" fill="#fff"/>
        </g>
      </g>
    </g>
  </g>
</svg>
