<svg xmlns="http://www.w3.org/2000/svg" xmlns:xlink="http://www.w3.org/1999/xlink" width="80" height="80" viewBox="0 0 80 80">
  <defs>
    <linearGradient id="linear-gradient" x1="0.5" x2="0.5" y2="1" gradientUnits="objectBoundingBox">
      <stop offset="0" stop-color="#e31f25"/>
      <stop offset="1" stop-color="#e31f25"/>
    </linearGradient>
  </defs>
  <g id="Circle_Button_" data-name="Circle Button " transform="translate(6.629 10.178)">
    <rect id="Area_SIZE:LARGE_STATE:DEFAULT_STYLE:STYLE2_" data-name="Area [SIZE:LARGE][STATE:DEFAULT][STYLE:STYLE2]" width="80" height="80" rx="40" transform="translate(-6.629 -10.178)" fill="url(#linear-gradient)"/>
    <g id="diagram" transform="translate(11.368 6.822)">
      <g id="Group_569" data-name="Group 569" transform="translate(3.753 4.5)">
        <g id="Group_568" data-name="Group 568">
          <rect id="Rectangle_247" data-name="Rectangle 247" width="9.75" height="1.5" fill="#fff"/>
        </g>
      </g>
      <g id="Group_571" data-name="Group 571" transform="translate(3.753 7.5)">
        <g id="Group_570" data-name="Group 570">
          <rect id="Rectangle_248" data-name="Rectangle 248" width="9.75" height="1.5" fill="#fff"/>
        </g>
      </g>
      <g id="Group_573" data-name="Group 573" transform="translate(3.753 10.5)">
        <g id="Group_572" data-name="Group 572">
          <rect id="Rectangle_249" data-name="Rectangle 249" width="6.75" height="1.5" fill="#fff"/>
        </g>
      </g>
      <g id="Group_575" data-name="Group 575" transform="translate(3.753 13.5)">
        <g id="Group_574" data-name="Group 574">
          <rect id="Rectangle_250" data-name="Rectangle 250" width="6.75" height="1.5" fill="#fff"/>
        </g>
      </g>
      <g id="Group_577" data-name="Group 577" transform="translate(0.003 43.5)">
        <g id="Group_576" data-name="Group 576">
          <rect id="Rectangle_251" data-name="Rectangle 251" width="45" height="1.5" fill="#fff"/>
        </g>
      </g>
      <g id="Group_579" data-name="Group 579" transform="translate(2.939 -0.001)">
        <g id="Group_578" data-name="Group 578">
          <path id="Path_246" data-name="Path 246" d="M71.808,6.415l-3-6A.75.75,0,0,0,67.8.079h0l-6,3a.75.75,0,1,0,.67,1.342L66.817,2.25,65.632,5.636A40.024,40.024,0,0,1,31.323,32.25l.128,1.5a41.524,41.524,0,0,0,35.6-27.62l1.21-3.459,2.207,4.414a.75.75,0,1,0,1.342-.67Z" transform="translate(-31.323 0.001)" fill="#fff"/>
        </g>
      </g>
      <g id="Group_581" data-name="Group 581" transform="translate(3.003 36)">
        <g id="Group_580" data-name="Group 580">
          <path id="Path_247" data-name="Path 247" d="M38,384.006h-5.25a.75.75,0,0,0-.75.75v4.5a.75.75,0,0,0,.75.75H38a.75.75,0,0,0,.75-.75v-4.5A.75.75,0,0,0,38,384.006Zm-.75,4.5H33.5v-3h3.75Z" transform="translate(-32.003 -384.006)" fill="#fff"/>
        </g>
      </g>
      <g id="Group_583" data-name="Group 583" transform="translate(11.253 33.75)">
        <g id="Group_582" data-name="Group 582">
          <path id="Path_248" data-name="Path 248" d="M126,360.006h-5.25a.75.75,0,0,0-.75.75v6.75a.75.75,0,0,0,.75.75H126a.75.75,0,0,0,.75-.75v-6.75A.75.75,0,0,0,126,360.006Zm-.75,6.75H121.5v-5.25h3.75Z" transform="translate(-120.003 -360.006)" fill="#fff"/>
        </g>
      </g>
      <g id="Group_585" data-name="Group 585" transform="translate(19.503 30)">
        <g id="Group_584" data-name="Group 584">
          <path id="Path_249" data-name="Path 249" d="M214,320.006h-5.25a.75.75,0,0,0-.75.75v10.5a.75.75,0,0,0,.75.75H214a.75.75,0,0,0,.75-.75v-10.5A.75.75,0,0,0,214,320.006Zm-.75,10.5H209.5v-9h3.75Z" transform="translate(-208.003 -320.006)" fill="#fff"/>
        </g>
      </g>
      <g id="Group_587" data-name="Group 587" transform="translate(27.753 24.75)">
        <g id="Group_586" data-name="Group 586">
          <path id="Path_250" data-name="Path 250" d="M302,264.006h-5.25a.75.75,0,0,0-.75.75v15.75a.75.75,0,0,0,.75.75H302a.75.75,0,0,0,.75-.75v-15.75A.75.75,0,0,0,302,264.006Zm-.75,15.75H297.5v-14.25h3.75Z" transform="translate(-296.003 -264.006)" fill="#fff"/>
        </g>
      </g>
      <g id="Group_589" data-name="Group 589" transform="translate(36.003 14.25)">
        <g id="Group_588" data-name="Group 588">
          <path id="Path_251" data-name="Path 251" d="M390,152.006h-5.25a.75.75,0,0,0-.75.75v26.25a.75.75,0,0,0,.75.75H390a.75.75,0,0,0,.75-.75v-26.25A.75.75,0,0,0,390,152.006Zm-.75,26.25H385.5v-24.75h3.75Z" transform="translate(-384.003 -152.006)" fill="#fff"/>
        </g>
      </g>
    </g>
  </g>
</svg>
