<svg xmlns="http://www.w3.org/2000/svg" xmlns:xlink="http://www.w3.org/1999/xlink" width="80" height="80" viewBox="0 0 80 80">
  <defs>
    <linearGradient id="linear-gradient" x1="0.5" x2="0.5" y2="1" gradientUnits="objectBoundingBox">
      <stop offset="0" stop-color="#e31f25"/>
      <stop offset="1" stop-color="#ff1f26"/>
    </linearGradient>
  </defs>
  <g id="Group_551" data-name="Group 551" transform="translate(-914 -1816)">
    <rect id="Area_SIZE:LARGE_STATE:DEFAULT_STYLE:STYLE2_" data-name="Area [SIZE:LARGE][STATE:DEFAULT][STYLE:STYLE2]" width="80" height="80" rx="40" transform="translate(914 1816)" fill="url(#linear-gradient)"/>
    <g id="Page-1" transform="translate(936.501 1831)">
      <g id="_008---PH-Level" data-name="008---PH-Level" transform="translate(0 0)">
        <path id="Shape" d="M.833,12.5a6.3,6.3,0,0,1,3.262,1.2,6.626,6.626,0,0,1,1.3,1.272C2.2,20.614.4,25.948.06,30.824A18.249,18.249,0,0,0,4.707,44.24a17.1,17.1,0,0,0,12.2,5.75c.2.007.4.01.6.01A17.5,17.5,0,0,0,35,32.5C35,17.344,20.351,2.175,18.68.493A1.667,1.667,0,0,0,17.5,0h-.012a1.637,1.637,0,0,0-1.167.5,72.006,72.006,0,0,0-5.8,6.75A13.521,13.521,0,0,1,9.166.833.833.833,0,1,0,7.5.833c0,9.807-6.383,10-6.666,10a.833.833,0,1,0,0,1.667ZM17.5,1.671C19.12,3.3,33.332,18.012,33.332,32.5A15.833,15.833,0,0,1,16.961,48.323a15.45,15.45,0,0,1-11.016-5.2A16.575,16.575,0,0,1,1.723,30.938,35.574,35.574,0,0,1,6.39,16.617,14.1,14.1,0,0,1,7.5,22.5a.833.833,0,1,0,1.667,0c0-9.819,6.4-10,6.666-10a.833.833,0,0,0,0-1.667,6.3,6.3,0,0,1-3.262-1.2,6.539,6.539,0,0,1-1.04-.966,70.811,70.811,0,0,1,5.968-7ZM8.333,6.4A10.2,10.2,0,0,0,9.728,9.1a.811.811,0,0,0,.095.127,8.314,8.314,0,0,0,2.941,2.442,8.84,8.84,0,0,0-4.431,5.263A10.275,10.275,0,0,0,7.1,14.478a.883.883,0,0,0-.083-.123A8.365,8.365,0,0,0,3.9,11.666,8.84,8.84,0,0,0,8.333,6.4Z" transform="translate(0 0)" fill="#fff"/>
        <path id="Shape-2" data-name="Shape" d="M13.416,30H8.833A.833.833,0,0,0,8,30.833v15a.833.833,0,0,0,1.667,0V39.166h3.75a4.583,4.583,0,0,0,0-9.166Zm0,7.5H9.667V31.667h3.75a2.917,2.917,0,0,1,0,5.833Z" transform="translate(-1.334 -5.001)" fill="#fff"/>
        <path id="Shape-3" data-name="Shape" d="M22.833,46.666a.833.833,0,0,0,.833-.833V39.166h6.666v6.666a.833.833,0,0,0,1.667,0v-15a.833.833,0,0,0-1.667,0V37.5H23.667V30.833a.833.833,0,0,0-1.667,0v15A.833.833,0,0,0,22.833,46.666Z" transform="translate(-3.668 -5.001)" fill="#fff"/>
      </g>
    </g>
  </g>
</svg>
