<svg xmlns="http://www.w3.org/2000/svg" xmlns:xlink="http://www.w3.org/1999/xlink" width="80" height="80" viewBox="0 0 80 80">
  <defs>
    <linearGradient id="linear-gradient" x1="0.5" x2="0.5" y2="1" gradientUnits="objectBoundingBox">
      <stop offset="0" stop-color="#e31f25"/>
      <stop offset="1" stop-color="#ff1f26"/>
    </linearGradient>
  </defs>
  <g id="Group_574" data-name="Group 574" transform="translate(-1145 -2004)">
    <g id="Circle_Button_" data-name="Circle Button " transform="translate(1145 2004)">
      <rect id="Area_SIZE:LARGE_STATE:DEFAULT_STYLE:STYLE2_" data-name="Area [SIZE:LARGE][STATE:DEFAULT][STYLE:STYLE2]" width="80" height="80" rx="40" transform="translate(0 0)" fill="url(#linear-gradient)"/>
    </g>
    <g id="test" transform="translate(1118.51 2022)">
      <g id="Group_533" data-name="Group 533" transform="translate(69.366 20.391)">
        <g id="Group_532" data-name="Group 532" transform="translate(0)">
          <path id="Path_223" data-name="Path 223" d="M286.879,232a.879.879,0,1,0,.879.879A.879.879,0,0,0,286.879,232Z" transform="translate(-286 -232)" fill="#fff"/>
        </g>
      </g>
      <g id="Group_535" data-name="Group 535" transform="translate(65.85 15.117)">
        <g id="Group_534" data-name="Group 534" transform="translate(0)">
          <path id="Path_224" data-name="Path 224" d="M246.879,172a.879.879,0,1,0,.879.879A.879.879,0,0,0,246.879,172Z" transform="translate(-246 -172)" fill="#fff"/>
        </g>
      </g>
      <g id="Group_537" data-name="Group 537" transform="translate(55.303 37.969)">
        <g id="Group_536" data-name="Group 536" transform="translate(0)">
          <path id="Path_225" data-name="Path 225" d="M126.879,432a.879.879,0,1,0,.879.879A.879.879,0,0,0,126.879,432Z" transform="translate(-126 -432)" fill="#fff"/>
        </g>
      </g>
      <g id="Group_539" data-name="Group 539" transform="translate(48.491)">
        <g id="Group_538" data-name="Group 538" transform="translate(0)">
          <path id="Path_226" data-name="Path 226" d="M84.168,35.831,72.881,15.766V5.123A2.637,2.637,0,0,0,72,0H61.455a2.637,2.637,0,0,0-.879,5.123V15.766L49.29,35.831A6.152,6.152,0,0,0,54.652,45H78.806a6.152,6.152,0,0,0,5.362-9.169Zm-21.946-19.4A.879.879,0,0,0,62.334,16V5.273h.879a.879.879,0,1,0,0-1.758H61.455a.879.879,0,0,1,0-1.758H72a.879.879,0,1,1,0,1.758H70.244a.879.879,0,0,0,0,1.758h.879V16a.878.878,0,0,0,.113.431l5.18,9.21A16.947,16.947,0,0,0,67.2,27.52a15.1,15.1,0,0,1-11.777.987ZM82.6,41.066a4.353,4.353,0,0,1-3.793,2.176H54.652a4.395,4.395,0,0,1-3.83-6.549l3.727-6.626a16.844,16.844,0,0,0,5.576.95q.421,0,.845-.021a17.064,17.064,0,0,0,7.042-1.915,15.173,15.173,0,0,1,9.473-1.545l5.151,9.157A4.353,4.353,0,0,1,82.6,41.066Z" transform="translate(-48.491)" fill="#fff"/>
        </g>
      </g>
      <g id="Group_541" data-name="Group 541" transform="translate(60.576 20.391)">
        <g id="Group_540" data-name="Group 540" transform="translate(0)">
          <path id="Path_227" data-name="Path 227" d="M188.637,232a2.637,2.637,0,1,0,2.637,2.637A2.64,2.64,0,0,0,188.637,232Zm0,3.516a.879.879,0,1,1,.879-.879A.88.88,0,0,1,188.637,235.516Z" transform="translate(-186 -232)" fill="#fff"/>
        </g>
      </g>
      <g id="Group_543" data-name="Group 543" transform="translate(58.819 37.969)">
        <g id="Group_542" data-name="Group 542">
          <path id="Path_228" data-name="Path 228" d="M184.457,432H166.879a.879.879,0,1,0,0,1.758h17.578a.879.879,0,0,0,0-1.758Z" transform="translate(-166 -432)" fill="#fff"/>
        </g>
      </g>
    </g>
  </g>
</svg>
