<svg xmlns="http://www.w3.org/2000/svg" xmlns:xlink="http://www.w3.org/1999/xlink" width="80" height="80" viewBox="0 0 80 80">
  <defs>
    <linearGradient id="linear-gradient" x1="0.5" x2="0.5" y2="1" gradientUnits="objectBoundingBox">
      <stop offset="0" stop-color="#e31f25"/>
      <stop offset="1" stop-color="#ff1f26"/>
    </linearGradient>
  </defs>
  <g id="Circle_Button_" data-name="Circle Button " transform="translate(0.16 10.179)">
    <rect id="Area_SIZE:LARGE_STATE:DEFAULT_STYLE:STYLE2_" data-name="Area [SIZE:LARGE][STATE:DEFAULT][STYLE:STYLE2]" width="80" height="80" rx="40" transform="translate(-0.16 -10.179)" fill="url(#linear-gradient)"/>
    <g id="chemistry" transform="translate(4.174 3.821)">
      <g id="Group_463" data-name="Group 463" transform="translate(10.666)">
        <g id="Group_462" data-name="Group 462" transform="translate(0)">
          <path id="Path_116" data-name="Path 116" d="M55.973,41.259V33.74L59.036,30.7l-1.068-1.081-2.89,2.871-5.626-2.8V21.539L42.191,17.9l-6.509,3.261L29.166,17.9l-6.544,3.261-5.78-2.879V11.07L22.6,8.192l5.757,2.879v4.419h1.529V10.125L23.365,6.865V0H21.836V6.865l-5.581,2.8-4.489-4.5-1.1,1.081,4.648,4.667v7.519L12.3,21.47,13.4,22.551l2.852-2.871,5.587,2.8v8.152l7.311,3.643,6.534-3.261,6.528,3.261,6.5-3.261L54.445,33.9V41.1l-5.757,2.879L42.93,41.1V36.685H41.4v5.364l6.522,3.261v6.865h1.529V45.309l5.632-2.8,4.527,4.5,1.055-1.081ZM34.879,29.691l-5.757,2.879-5.757-2.879V22.483L29.122,19.6l5.757,2.879Zm13.043,0-5.757,2.879-5.757-2.879V22.483L42.165,19.6l5.757,2.879Z" transform="translate(-10.666)" fill="#fff"/>
        </g>
      </g>
      <g id="Group_465" data-name="Group 465" transform="translate(19.39 16.406)">
        <g id="Group_464" data-name="Group 464">
          <rect id="Rectangle_187" data-name="Rectangle 187" width="1.63" height="1.529" fill="#fff"/>
        </g>
      </g>
      <g id="Group_467" data-name="Group 467" transform="translate(45.477 39.232)">
        <g id="Group_466" data-name="Group 466">
          <rect id="Rectangle_188" data-name="Rectangle 188" width="1.63" height="1.529" fill="#fff"/>
        </g>
      </g>
      <g id="Group_469" data-name="Group 469" transform="translate(51.184 34.239)">
        <g id="Group_468" data-name="Group 468">
          <rect id="Rectangle_189" data-name="Rectangle 189" width="1.529" height="6.522" fill="#fff"/>
        </g>
      </g>
      <g id="Group_471" data-name="Group 471" transform="translate(25.097 22.826)">
        <g id="Group_470" data-name="Group 470">
          <rect id="Rectangle_190" data-name="Rectangle 190" width="1.529" height="6.522" fill="#fff"/>
        </g>
      </g>
    </g>
  </g>
</svg>
