<svg xmlns="http://www.w3.org/2000/svg" xmlns:xlink="http://www.w3.org/1999/xlink" width="70" height="70" viewBox="0 0 70 70">
  <defs>
    <linearGradient id="linear-gradient" x1="0.5" x2="0.5" y2="1" gradientUnits="objectBoundingBox">
      <stop offset="0" stop-color="#e31f25"/>
      <stop offset="1" stop-color="#ff1f26"/>
    </linearGradient>
  </defs>
  <g id="Group_862" data-name="Group 862" transform="translate(-208 -4019)">
    <rect id="Area_SIZE:LARGE_STATE:DEFAULT_STYLE:STYLE2_" data-name="Area [SIZE:LARGE][STATE:DEFAULT][STYLE:STYLE2]" width="70" height="70" rx="35" transform="translate(208 4019)" fill="url(#linear-gradient)"/>
    <g id="capsule" transform="translate(226.079 4037.078)">
      <path id="Path_440" data-name="Path 440" d="M24.033,0A9.744,9.744,0,0,0,17.1,2.873L2.873,17.1A9.809,9.809,0,1,0,16.746,30.97L30.97,16.745A9.809,9.809,0,0,0,24.033,0ZM15.974,30.2A8.718,8.718,0,1,1,3.645,17.869l6.726-6.726L22.7,23.472ZM30.2,15.974,23.471,22.7,11.143,10.371l6.726-6.726A8.718,8.718,0,1,1,30.2,15.974Zm0,0" transform="translate(0 0)" fill="#fff" stroke="#fff" stroke-width="1"/>
      <path id="Path_442" data-name="Path 442" d="M58.183,368a2.183,2.183,0,1,0,2.183,2.183A2.186,2.186,0,0,0,58.183,368Zm0,3.275a1.092,1.092,0,1,1,1.092-1.092A1.093,1.093,0,0,1,58.183,371.275Zm0,0" transform="translate(-52.179 -342.891)" fill="#fff" stroke="#fff" stroke-width="1"/>
      <path id="Path_443" data-name="Path 443" d="M59.275,256a3.275,3.275,0,1,0,3.275,3.275A3.278,3.278,0,0,0,59.275,256Zm0,5.459a2.183,2.183,0,1,1,2.183-2.183A2.186,2.186,0,0,1,59.275,261.459Zm0,0" transform="translate(-51.179 -238.533)" fill="#fff" stroke="#fff" stroke-width="1"/>
    </g>
  </g>
</svg>
