<?xml version="1.0" encoding="utf-8"?>
<!-- Generator: Adobe Illustrator 25.3.1, SVG Export Plug-In . SVG Version: 6.00 Build 0)  -->
<svg version="1.1" xmlns="http://www.w3.org/2000/svg" xmlns:xlink="http://www.w3.org/1999/xlink" x="0px" y="0px"
	 viewBox="0 0 100 100" enable-background="new 0 0 100 100" xml:space="preserve">
<g>
	<g>
		<path d="M32.332,31.825c1.547,5.501-0.15,10.79-0.15,10.79s-4.206-3.629-5.753-9.13c-1.216-4.324-0.429-8.505-0.036-10.101
			L21.903,5.603l5.194,17.583C28.265,24.344,31.116,27.502,32.332,31.825z"/>
	</g>
</g>
<g>
	<g>
		<path d="M34.754,86.605c4.157,5.671,10.546,8.056,10.546,8.056s-0.352-6.81-4.509-12.482c-3.143-4.287-7.556-6.694-9.525-7.614
			c-7.937-11.857-14.298-24.712-18.904-38.244l0.032,0.102c4.266,13.667,10.311,26.698,17.961,38.77
			C30.634,77.326,31.592,82.291,34.754,86.605z"/>
	</g>
</g>
<g>
	<g>
		<path d="M30.868,68.769c3.469,5.293,9.098,7.738,9.098,7.738s0.005-6.137-3.464-11.431c-2.622-4.001-6.475-6.372-8.202-7.293
			C21.726,46.752,16.616,34.899,13.115,22.52l0.024,0.093c3.189,12.485,8.007,24.482,14.313,35.692
			C27.602,60.235,28.229,64.743,30.868,68.769z"/>
	</g>
</g>
<g>
	<g>
		<path d="M37.697,37.193c-1.379-11.494-2.785-17.534-7.104-28.296l-0.032-0.08c4.038,10.852,5.154,16.943,6.243,28.449
			c-0.765,1.586-2.303,5.356-2.08,9.656c0.294,5.688,3.56,10.143,3.56,10.143s2.789-4.768,2.495-10.456
			C40.555,42.282,38.615,38.675,37.697,37.193z"/>
	</g>
</g>
<g>
	<g>
		<path d="M26.781,50.546c2.714,5.008,7.58,7.622,7.58,7.622s0.465-5.504-2.249-10.512c-2.052-3.785-5.329-6.201-6.809-7.156
			c-5.069-10.387-7.291-16.167-9.502-27.533l0.014,0.085c1.924,11.436,3.873,17.324,8.688,27.851
			C24.492,42.647,24.717,46.736,26.781,50.546z"/>
	</g>
</g>
<g>
	<g>
		<path d="M45.654,78.561c-0.152,0.758-0.273,1.539-0.341,2.347c-0.591,7.007,2.659,13.002,2.659,13.002s4.209-5.365,4.8-12.372
			c0.083-0.986,0.09-1.951,0.041-2.883h-6.521C46.07,78.654,45.859,78.616,45.654,78.561z"/>
	</g>
</g>
<g>
	<g>
		<path d="M45.694,27.057l-0.026-0.104c2.63,11.741,3.93,23.72,3.928,35.72h0.933C50.227,50.675,48.623,38.729,45.694,27.057z"/>
	</g>
</g>
<g>
	<g>
		<path d="M46.292,62.673h0.476c-0.229-4.113-1.739-7.564-2.517-9.093c-0.462-12.854-2.605-25.604-6.391-37.92l-0.028-0.092
			c3.466,12.39,5.284,25.169,5.424,38.01c-0.994,1.686-3.046,5.717-3.198,10.499c-0.201,6.326,3.003,11.56,3.003,11.56
			s0.306-0.439,0.738-1.205v-9.266C43.799,63.791,44.917,62.673,46.292,62.673z"/>
	</g>
</g>
<g>
	<g>
		<polygon points="70.861,51.301 70.861,65.166 84.068,65.166 84.068,76.161 70.861,76.161 70.861,90.175 59.499,90.175 
			59.499,76.161 46.292,76.161 46.292,65.166 59.499,65.166 59.499,51.301 		"/>
	</g>
</g>
</svg>
