<svg xmlns="http://www.w3.org/2000/svg" xmlns:xlink="http://www.w3.org/1999/xlink" width="80" height="80" viewBox="0 0 80 80">
  <defs>
    <linearGradient id="linear-gradient" x1="0.5" x2="0.5" y2="1" gradientUnits="objectBoundingBox">
      <stop offset="0" stop-color="#e31f25"/>
      <stop offset="1" stop-color="#ff1f26"/>
    </linearGradient>
  </defs>
  <g id="Group_552" data-name="Group 552" transform="translate(-1046 -1816)">
    <rect id="Area_SIZE:LARGE_STATE:DEFAULT_STYLE:STYLE2_" data-name="Area [SIZE:LARGE][STATE:DEFAULT][STYLE:STYLE2]" width="80" height="80" rx="40" transform="translate(1046 1816)" fill="url(#linear-gradient)"/>
    <g id="stability" transform="translate(1061 1794.671)">
      <g id="Group_546" data-name="Group 546" transform="translate(0 40)">
        <path id="Path_261" data-name="Path 261" d="M47.07,53.281H44.8a7.617,7.617,0,1,0-10.173,0H29.394a.977.977,0,0,0,0,1.953H47.07a.977.977,0,1,1,0,1.953H2.93a.977.977,0,0,1,0-1.953H20.6a.977.977,0,0,0,0-1.953H15.373a7.617,7.617,0,1,0-10.173,0H2.93a2.93,2.93,0,0,0,0,5.859H23.29L10.555,80.715a.977.977,0,0,0,.841,1.473H38.6a.977.977,0,0,0,.841-1.473L26.71,59.141H47.07a2.93,2.93,0,1,0,0-5.859ZM34.05,47.617a5.664,5.664,0,1,1,5.664,5.664A5.671,5.671,0,0,1,34.05,47.617Zm-29.427,0a5.664,5.664,0,1,1,5.664,5.664A5.671,5.671,0,0,1,4.622,47.617Zm8.484,32.617L25,60.085,36.894,80.234Z" transform="translate(0 -40)" fill="#fff"/>
        <circle id="Ellipse_22" data-name="Ellipse 22" cx="0.977" cy="0.977" r="0.977" transform="translate(24.023 13.281)" fill="#fff"/>
      </g>
    </g>
  </g>
</svg>
