<svg xmlns="http://www.w3.org/2000/svg" xmlns:xlink="http://www.w3.org/1999/xlink" width="80" height="80" viewBox="0 0 80 80">
  <defs>
    <linearGradient id="linear-gradient" x1="0.5" x2="0.5" y2="1" gradientUnits="objectBoundingBox">
      <stop offset="0" stop-color="#e31f25"/>
      <stop offset="1" stop-color="#ff1f26"/>
    </linearGradient>
  </defs>
  <g id="Group_925" data-name="Group 925" transform="translate(-456 -1749)">
    <g id="Group_913" data-name="Group 913" transform="translate(-243 -76)">
      <rect id="Area_SIZE:LARGE_STATE:DEFAULT_STYLE:STYLE2_" data-name="Area [SIZE:LARGE][STATE:DEFAULT][STYLE:STYLE2]" width="80" height="80" rx="40" transform="translate(699 1825)" fill="url(#linear-gradient)"/>
    </g>
    <g id="baby-powder" transform="translate(473.5 1772.003)">
      <path id="Path_544" data-name="Path 544" d="M28.536,288.73H25.163l-1.76-1.68a.666.666,0,1,0-.919.963l.751.717H5.975l5.866-5.557a4.012,4.012,0,0,1,5.518,0l2.863,2.712a.666.666,0,1,0,.916-.966l-2.863-2.712a5.343,5.343,0,0,0-7.35,0L4.04,288.73H.666a.666.666,0,0,0,0,1.331h27.87a.666.666,0,0,0,0-1.331Zm0,0" transform="translate(0 -256.068)" fill="#fff"/>
      <path id="Path_545" data-name="Path 545" d="M163.325,235.414a.621.621,0,1,1-.621-.621A.621.621,0,0,1,163.325,235.414Zm0,0" transform="translate(-147.837 -214.157)" fill="#fff"/>
      <path id="Path_546" data-name="Path 546" d="M160.3,305.094a.621.621,0,1,1-.621-.621A.621.621,0,0,1,160.3,305.094Zm0,0" transform="translate(-145.075 -277.712)" fill="#fff"/>
      <path id="Path_547" data-name="Path 547" d="M162.317,345.489a.621.621,0,1,1-.621-.621A.621.621,0,0,1,162.317,345.489Zm0,0" transform="translate(-146.917 -314.557)" fill="#fff"/>
      <path id="Path_548" data-name="Path 548" d="M196.653,332.36a.621.621,0,1,1-.621-.621A.621.621,0,0,1,196.653,332.36Zm0,0" transform="translate(-178.235 -302.582)" fill="#fff"/>
      <path id="Path_549" data-name="Path 549" d="M125.961,329.332a.621.621,0,1,1-.621-.621A.621.621,0,0,1,125.961,329.332Zm0,0" transform="translate(-113.757 -299.82)" fill="#fff"/>
      <path id="Path_550" data-name="Path 550" d="M161.8,174.425a.622.622,0,1,0-.718-.718A.621.621,0,0,0,161.8,174.425Zm0,0" transform="translate(-146.917 -157.969)" fill="#fff"/>
      <path id="Path_551" data-name="Path 551" d="M176.949,133.022a.622.622,0,1,0-.718-.718A.621.621,0,0,0,176.949,133.022Zm0,0" transform="translate(-160.734 -120.205)" fill="#fff"/>
      <path id="Path_552" data-name="Path 552" d="M189.066,198.663a.622.622,0,1,0-.718-.718A.621.621,0,0,0,189.066,198.663Zm0,0" transform="translate(-171.786 -180.077)" fill="#fff"/>
      <path id="Path_553" data-name="Path 553" d="M129.273,211.792a.622.622,0,1,0-.507-.507A.622.622,0,0,0,129.273,211.792Zm0,0" transform="translate(-117.441 -192.052)" fill="#fff"/>
      <path id="Path_554" data-name="Path 554" d="M220.413,15.976h-3.728a1.11,1.11,0,0,1-1.109-1.109,2.444,2.444,0,0,0-2.441-2.441h-.222V4.882h.222a2.444,2.444,0,0,0,2.441-2.441,1.11,1.11,0,0,1,1.109-1.109h17.4a.666.666,0,1,0,0-1.331h-17.4a2.443,2.443,0,0,0-2.441,2.441,1.111,1.111,0,0,1-1.11,1.11h-.222V3.329a.666.666,0,0,0-.666-.666H208.7a.666.666,0,0,0-.666.666V13.979a.666.666,0,0,0,.666.666h3.55a.666.666,0,0,0,.666-.666v-.222h.222a1.111,1.111,0,0,1,1.11,1.11,2.443,2.443,0,0,0,2.441,2.441h3.728a.666.666,0,1,0,0-1.331Zm-8.831-2.662h-2.219V3.994h2.219Zm0,0" transform="translate(-189.747)" fill="#fff"/>
      <path id="Path_555" data-name="Path 555" d="M387.907,181.773H377.345a.666.666,0,0,0,0,1.331h10.562a.666.666,0,1,0,0-1.331Zm0,0" transform="translate(-343.573 -165.797)" fill="#fff"/>
      <path id="Path_556" data-name="Path 556" d="M354.513,51.024a4.571,4.571,0,1,0-4.571,4.571A4.576,4.576,0,0,0,354.513,51.024Zm-7.811,0a3.24,3.24,0,1,1,3.24,3.24A3.243,3.243,0,0,1,346.7,51.024Zm0,0" transform="translate(-315.016 -42.37)" fill="#fff"/>
    </g>
  </g>
</svg>
