<svg xmlns="http://www.w3.org/2000/svg" xmlns:xlink="http://www.w3.org/1999/xlink" width="80" height="80" viewBox="0 0 80 80">
  <defs>
    <linearGradient id="linear-gradient" x1="0.5" x2="0.5" y2="1" gradientUnits="objectBoundingBox">
      <stop offset="0" stop-color="#e31f25"/>
      <stop offset="1" stop-color="#ff1f26"/>
    </linearGradient>
  </defs>
  <g id="Group_921" data-name="Group 921" transform="translate(-456 -1749)">
    <g id="Group_913" data-name="Group 913" transform="translate(-243 -76)">
      <rect id="Area_SIZE:LARGE_STATE:DEFAULT_STYLE:STYLE2_" data-name="Area [SIZE:LARGE][STATE:DEFAULT][STYLE:STYLE2]" width="80" height="80" rx="40" transform="translate(699 1825)" fill="url(#linear-gradient)"/>
    </g>
    <g id="Layer_6" transform="translate(466.634 1761.167)">
      <g id="Group_907" data-name="Group 907" transform="translate(12.539 1)">
        <path id="Path_509" data-name="Path 509" d="M39.827,23.313a6.779,6.779,0,0,0,.693-1.973,6.934,6.934,0,0,0-1.612-5.875,11.036,11.036,0,0,1-1.133-1.529,3.43,3.43,0,0,0,1.132-2.548,3.469,3.469,0,0,0-2.6-3.353V1.866A.865.865,0,0,0,35.446,1H25.059a.865.865,0,0,0-.866.866V8.935a9.929,9.929,0,0,1-2.56,6.489.547.547,0,0,0-.038.04,6.917,6.917,0,0,0-.91,7.841,6.913,6.913,0,0,0,0,9.05,6.9,6.9,0,0,0,.595,7.458,3.414,3.414,0,0,0-.551,1.87,3.466,3.466,0,0,0,3.311,3.459,8.739,8.739,0,0,1,.151,1.59V53.8a.865.865,0,0,0,.866.866H35.446a.865.865,0,0,0,.866-.866V46.731a9.935,9.935,0,0,1,2.6-6.529,6.932,6.932,0,0,0,1.613-5.876,6.728,6.728,0,0,0-.693-1.973,6.927,6.927,0,0,0,0-9.04ZM22.86,16.649l.035-.037a11.667,11.667,0,0,0,3.029-7.676v-6.2H34.58V8.79a.865.865,0,0,0,.866.866,1.723,1.723,0,0,1,.792,3.258.865.865,0,0,0-.368,1.167,12.651,12.651,0,0,0,1.741,2.53,5.214,5.214,0,0,1,1.207,4.419,5.156,5.156,0,0,1-4.035,4.1,5.233,5.233,0,0,1-3.017-.274,6.9,6.9,0,0,0,1.949-4.812H31.984a5.193,5.193,0,1,1-9.124-3.394ZM20.731,27.833a5.132,5.132,0,0,1,1.008-3.069,6.9,6.9,0,0,0,8.515,1.274,6.938,6.938,0,0,0,4.867.79,6.839,6.839,0,0,0,3.652-2.056,5.179,5.179,0,0,1,0,6.122,6.833,6.833,0,0,0-3.652-2.056,6.938,6.938,0,0,0-4.867.79A6.9,6.9,0,0,0,21.74,30.9a5.148,5.148,0,0,1-1.009-3.068ZM37.61,39.055a11.667,11.667,0,0,0-3.029,7.676v6.2H25.925v-6.2a10.842,10.842,0,0,0-.363-2.725.871.871,0,0,0-1.024-.626,1.829,1.829,0,0,1-.344.033,1.726,1.726,0,0,1-1.188-2.984.864.864,0,0,0,.031-1.225,5.191,5.191,0,1,1,8.947-3.582h1.731a6.9,6.9,0,0,0-1.95-4.813,5.248,5.248,0,0,1,3.017-.274,5.158,5.158,0,0,1,4.035,4.1,5.212,5.212,0,0,1-1.207,4.419Z" transform="translate(-13.408 -1)" fill="#fff"/>
        <path id="Path_510" data-name="Path 510" d="M27.328,27.328V25.6a2.6,2.6,0,0,1-2.6-2.6H23A4.333,4.333,0,0,0,27.328,27.328Z" transform="translate(-13.945 -3.957)" fill="#fff"/>
        <path id="Path_511" data-name="Path 511" d="M23,40.328h1.731a2.6,2.6,0,0,1,2.6-2.6V36A4.333,4.333,0,0,0,23,40.328Z" transform="translate(-13.945 -5.705)" fill="#fff"/>
        <path id="Path_512" data-name="Path 512" d="M0,0H1.731V3.673H0Z" transform="translate(1.515 17.058) rotate(-45)" fill="#fff"/>
        <path id="Path_513" data-name="Path 513" d="M0,0H3.673V1.731H0Z" transform="translate(1.513 36.605) rotate(-45)" fill="#fff"/>
        <path id="Path_514" data-name="Path 514" d="M0,0H1.731V3.871H0Z" transform="translate(0 23.279) rotate(-63.435)" fill="#fff"/>
        <path id="Path_515" data-name="Path 515" d="M0,0H3.871V1.731H0Z" transform="translate(0.001 30.376) rotate(-26.565)" fill="#fff"/>
        <path id="Path_516" data-name="Path 516" d="M0,0H3.673V1.731H0Z" transform="translate(28.345 18.433) rotate(-45)" fill="#fff"/>
        <path id="Path_517" data-name="Path 517" d="M0,0H1.731V3.673H0Z" transform="translate(28.343 35.236) rotate(-45)" fill="#fff"/>
        <path id="Path_518" data-name="Path 518" d="M0,0H3.871V1.731H0Z" transform="translate(29.419 23.461) rotate(-26.565)" fill="#fff"/>
        <path id="Path_519" data-name="Path 519" d="M0,0H1.731V3.871H0Z" transform="translate(29.42 30.215) rotate(-63.435)" fill="#fff"/>
      </g>
    </g>
  </g>
</svg>
