<svg xmlns="http://www.w3.org/2000/svg" xmlns:xlink="http://www.w3.org/1999/xlink" width="140" height="140" viewBox="0 0 140 140">
  <defs>
    <linearGradient id="linear-gradient" x1="0.5" x2="0.5" y2="1" gradientUnits="objectBoundingBox">
      <stop offset="0" stop-color="#e31f25"/>
      <stop offset="1" stop-color="#ff1f26"/>
    </linearGradient>
    <filter id="Area_SIZE:LARGE_STATE:DEFAULT_STYLE:STYLE2_" x="0" y="0" width="140" height="140" filterUnits="userSpaceOnUse">
      <feOffset dy="3" input="SourceAlpha"/>
      <feGaussianBlur stdDeviation="10" result="blur"/>
      <feFlood flood-opacity="0.082"/>
      <feComposite operator="in" in2="blur"/>
      <feComposite in="SourceGraphic"/>
    </filter>
  </defs>
  <g id="Circle_Button_" data-name="Circle Button " transform="translate(30.097 36.178)">
    <g transform="matrix(1, 0, 0, 1, -30.1, -36.18)" filter="url(#Area_SIZE:LARGE_STATE:DEFAULT_STYLE:STYLE2_)">
      <rect id="Area_SIZE:LARGE_STATE:DEFAULT_STYLE:STYLE2_2" data-name="Area [SIZE:LARGE][STATE:DEFAULT][STYLE:STYLE2]" width="80" height="80" rx="40" transform="translate(30 27)" fill="url(#linear-gradient)"/>
    </g>
    <g id="atom" transform="translate(-4.431 5.821)">
      <g id="Group_488" data-name="Group 488" transform="translate(21.333)">
        <g id="Group_487" data-name="Group 487" transform="translate(0)">
          <path id="Path_161" data-name="Path 161" d="M217.5,213.333a4.167,4.167,0,1,0,4.167,4.167A4.171,4.171,0,0,0,217.5,213.333Zm0,6.25a2.083,2.083,0,1,1,2.083-2.083A2.086,2.086,0,0,1,217.5,219.583Z" transform="translate(-194.583 -192.5)" fill="#fff"/>
          <path id="Path_162" data-name="Path 162" d="M59.311,25c4.16-3.429,6.974-6.787,7.672-9.4a3.927,3.927,0,0,0-.3-3.129c-1.83-3.057-8.055-2.431-15.179.051a39.979,39.979,0,0,0-1.525-5.984,2.053,2.053,0,0,0,.517-1.334,2.083,2.083,0,0,0-2.065-2.08C47.267,1.177,45.873,0,44.25,0,40.745,0,38.294,5.421,37,12.528c-7.124-2.482-13.349-3.109-15.178-.05a3.926,3.926,0,0,0-.3,3.129c.7,2.608,3.512,5.965,7.672,9.393a40.328,40.328,0,0,0-4.456,4.22,2.037,2.037,0,0,0-1.3.226,2.065,2.065,0,0,0-.844,2.6A9.245,9.245,0,0,0,21.517,34.4a3.927,3.927,0,0,0,.3,3.129c.862,1.439,2.7,2.065,5.141,2.065A32.508,32.508,0,0,0,37,37.484C38.3,44.585,40.747,50,44.25,50S50.2,44.584,51.5,37.482A45.7,45.7,0,0,0,56.805,39a2.052,2.052,0,0,0,2.011,1.623,2.084,2.084,0,0,0,1.807-1.042c.01-.017.009-.037.018-.055.3.016.618.059.9.059,2.443,0,4.279-.626,5.141-2.065a3.927,3.927,0,0,0,.3-3.129C66.285,31.785,63.471,28.429,59.311,25ZM23.547,15.057a1.916,1.916,0,0,1,.072-1.488c.4-.672,1.54-1.04,3.275-1.04a31.632,31.632,0,0,1,9.751,2.117c-.252,1.746-.442,3.559-.563,5.4-1.877,1.183-3.624,2.4-5.219,3.613C26.524,20.154,24.077,17.034,23.547,15.057ZM35.953,27.324q-1.8-1.178-3.33-2.325,1.537-1.148,3.33-2.325-.035,1.164-.036,2.326T35.953,27.324ZM23.619,36.434a1.919,1.919,0,0,1-.072-1.489,7.154,7.154,0,0,1,.75-1.633c.056,0,.11.021.166.021a2.046,2.046,0,0,0,1.912-2.792,38.485,38.485,0,0,1,4.49-4.205c1.594,1.216,3.341,2.429,5.218,3.612.121,1.853.312,3.674.565,5.426C29.485,37.91,24.557,38,23.619,36.434ZM50.239,18.725q-.832-.488-1.688-.966c-.622-.346-1.254-.683-1.888-1.014,1.1-.5,2.186-.973,3.218-1.381C50.026,16.424,50.141,17.556,50.239,18.725ZM44.25,2.083c.749,0,1.583.741,2.392,2.1a2.023,2.023,0,0,0-.308,1.024,2.057,2.057,0,0,0,1.676,2,37.95,37.95,0,0,1,1.538,6.037c-1.75.676-3.53,1.442-5.3,2.29-1.768-.848-3.547-1.613-5.3-2.289C40.208,6.152,42.468,2.083,44.25,2.083ZM38.618,15.377c1.032.407,2.105.868,3.21,1.371-.631.329-1.259.665-1.879,1.009q-.857.477-1.687.966C38.359,17.559,38.473,16.432,38.618,15.377Zm-.356,15.9q.832.488,1.688.966c.625.347,1.265.675,1.9,1.008-1.11.506-2.2.978-3.232,1.387C38.474,33.575,38.359,32.444,38.262,31.275ZM44.25,47.917c-1.783,0-4.043-4.07-5.3-11.17,1.753-.677,3.529-1.45,5.3-2.3,1.771.849,3.546,1.621,5.3,2.3C48.294,43.846,46.033,47.917,44.25,47.917Zm5.631-13.283c-1.035-.409-2.119-.88-3.228-1.385.636-.331,1.274-.659,1.9-1.005q.857-.477,1.687-.966C50.141,32.445,50.026,33.575,49.881,34.633Zm.525-5.95c-.932.568-1.866,1.137-2.886,1.7-1.117.621-2.2,1.181-3.267,1.713-1.068-.533-2.153-1.094-3.271-1.715-1.021-.567-1.954-1.136-2.886-1.7C38.039,27.495,38,26.278,38,25s.039-2.5.094-3.683c.932-.568,1.866-1.137,2.886-1.7,1.12-.623,2.207-1.184,3.277-1.718q1.593.8,3.261,1.72c1.021.567,1.954,1.136,2.886,1.7.056,1.187.094,2.4.094,3.681S50.461,27.5,50.406,28.683ZM64.881,13.566a1.919,1.919,0,0,1,.072,1.489c-.53,1.978-2.977,5.1-7.317,8.609-1.594-1.216-3.341-2.429-5.218-3.612-.121-1.853-.312-3.674-.565-5.426C59.015,12.09,63.943,12,64.881,13.566ZM52.547,22.676q1.8,1.178,3.33,2.325-1.537,1.148-3.33,2.325.035-1.164.036-2.326T52.547,22.676ZM64.881,36.431c-.478.8-2.007,1.154-4.32.989a2.034,2.034,0,0,0-.686-.683,2.07,2.07,0,0,0-2.385.241,43.041,43.041,0,0,1-5.638-1.606c.254-1.751.445-3.571.565-5.422,1.877-1.183,3.624-2.4,5.219-3.613,4.34,3.509,6.787,6.629,7.317,8.606A1.915,1.915,0,0,1,64.881,36.431Z" transform="translate(-21.333)" fill="#fff"/>
        </g>
      </g>
    </g>
  </g>
</svg>
