<svg xmlns="http://www.w3.org/2000/svg" xmlns:xlink="http://www.w3.org/1999/xlink" width="150" height="150" viewBox="0 0 150 150">
  <defs>
    <linearGradient id="linear-gradient" x1="0.5" x2="0.5" y2="1" gradientUnits="objectBoundingBox">
      <stop offset="0" stop-color="#e31f25"/>
      <stop offset="1" stop-color="#ff1f26"/>
    </linearGradient>
    <filter id="Area_SIZE:LARGE_STATE:DEFAULT_STYLE:STYLE2_" x="0" y="0" width="150" height="150" filterUnits="userSpaceOnUse">
      <feOffset dy="3" input="SourceAlpha"/>
      <feGaussianBlur stdDeviation="10" result="blur"/>
      <feFlood flood-opacity="0.082"/>
      <feComposite operator="in" in2="blur"/>
      <feComposite in="SourceGraphic"/>
    </filter>
  </defs>
  <g id="Circle_Button_" data-name="Circle Button " transform="translate(30.097 27.179)">
    <g transform="matrix(1, 0, 0, 1, -30.1, -27.18)" filter="url(#Area_SIZE:LARGE_STATE:DEFAULT_STYLE:STYLE2_)">
      <rect id="Area_SIZE:LARGE_STATE:DEFAULT_STYLE:STYLE2_2" data-name="Area [SIZE:LARGE][STATE:DEFAULT][STYLE:STYLE2]" width="90" height="90" rx="45" transform="translate(30 27)" fill="url(#linear-gradient)"/>
    </g>
    <g id="technical-support" transform="translate(19.903 19.821)">
      <path id="Path_11" data-name="Path 11" d="M8.794,38.667a4.077,4.077,0,0,0-1.97.5A23.057,23.057,0,0,1,29.59,2.41.977.977,0,0,0,29.977.5,25.186,25.186,0,0,0,25,0,25,25,0,0,0,5.38,40.493a4.1,4.1,0,1,0,3.414-1.826Zm1.519,5.621a2.148,2.148,0,1,1,.629-1.519A2.133,2.133,0,0,1,10.313,44.287Zm0,0" fill="#fff"/>
      <path id="Path_12" data-name="Path 12" d="M222.818,38.426a4.093,4.093,0,1,0-1.443,1.325,23.057,23.057,0,0,1-22.722,36.768.977.977,0,1,0-.383,1.915,25.2,25.2,0,0,0,4.929.486,25,25,0,0,0,19.619-40.495Zm-4.932-.755a2.149,2.149,0,1,1,1.519.629A2.134,2.134,0,0,1,217.885,37.672Zm0,0" transform="translate(-178.198 -28.921)" fill="#fff"/>
      <path id="Path_13" data-name="Path 13" d="M87.729,108.57a.977.977,0,0,0,.977.977h6.106a.976.976,0,0,0,.977-.977v-1.893a15.293,15.293,0,0,0,3.665-1.519l1.337,1.337a.976.976,0,0,0,1.381,0l4.316-4.319a.977.977,0,0,0,0-1.381l-1.335-1.335a15.293,15.293,0,0,0,1.519-3.665h1.886a.976.976,0,0,0,.977-.977V88.711a.976.976,0,0,0-.977-.977h-1.886a15.3,15.3,0,0,0-1.519-3.665l1.328-1.328a.977.977,0,0,0,0-1.382l-4.319-4.316a.977.977,0,0,0-1.381,0l-1.326,1.326a15.293,15.293,0,0,0-3.665-1.519V74.977A.976.976,0,0,0,94.812,74H88.706a.977.977,0,0,0-.977.977v1.876a15.28,15.28,0,0,0-3.665,1.519l-1.326-1.326a.977.977,0,0,0-1.381,0l-4.319,4.316a.976.976,0,0,0,0,1.381l1.328,1.328a15.29,15.29,0,0,0-1.519,3.665H74.964a.976.976,0,0,0-.977.976l0,6.106a.976.976,0,0,0,.977.977h1.886a15.293,15.293,0,0,0,1.519,3.665l-1.335,1.335a.977.977,0,0,0,0,1.381l4.316,4.319a.977.977,0,0,0,.69.286h0a.977.977,0,0,0,.69-.286l1.336-1.337a15.305,15.305,0,0,0,3.665,1.519ZM84.447,103.1a.977.977,0,0,0-1.221.13l-1.189,1.189L79.1,101.485,80.29,100.3a.976.976,0,0,0,.13-1.22,13.367,13.367,0,0,1-1.85-4.464.977.977,0,0,0-.955-.771H75.938l0-4.153h1.675a.976.976,0,0,0,.955-.771,13.368,13.368,0,0,1,1.85-4.464.976.976,0,0,0-.13-1.22l-1.18-1.181,2.938-2.935,1.179,1.18a.977.977,0,0,0,1.221.13,13.361,13.361,0,0,1,4.464-1.85.977.977,0,0,0,.771-.955V75.953h4.153v1.667a.976.976,0,0,0,.771.955,13.373,13.373,0,0,1,4.464,1.85.976.976,0,0,0,1.22-.13l1.18-1.179,2.938,2.935-1.18,1.18a.976.976,0,0,0-.13,1.221,13.376,13.376,0,0,1,1.85,4.464.976.976,0,0,0,.955.771h1.678v4.153H105.9a.977.977,0,0,0-.955.771,13.365,13.365,0,0,1-1.85,4.464.977.977,0,0,0,.13,1.221l1.188,1.188-2.935,2.938-1.189-1.189a.976.976,0,0,0-1.221-.13,13.376,13.376,0,0,1-4.464,1.85.976.976,0,0,0-.771.955v1.685H89.683v-1.685a.977.977,0,0,0-.771-.955A13.368,13.368,0,0,1,84.447,103.1Zm0,0" transform="translate(-66.759 -66.773)" fill="#fff"/>
      <path id="Path_14" data-name="Path 14" d="M189.51,181.44a8.069,8.069,0,1,0-8.069,8.069A8.078,8.078,0,0,0,189.51,181.44Zm-14.185,0a6.116,6.116,0,1,1,6.116,6.116A6.123,6.123,0,0,1,175.324,181.44Zm0,0" transform="translate(-156.44 -156.44)" fill="#fff"/>
      <path id="Path_15" data-name="Path 15" d="M339.055,19.763a.977.977,0,1,0-.69-.286A.984.984,0,0,0,339.055,19.763Zm0,0" transform="translate(-305.063 -16.069)" fill="#fff"/>
      <path id="Path_16" data-name="Path 16" d="M155.336,474.359a.977.977,0,1,0,.69.286A.984.984,0,0,0,155.336,474.359Zm0,0" transform="translate(-139.285 -428.035)" fill="#fff"/>
    </g>
  </g>
</svg>
