<svg xmlns="http://www.w3.org/2000/svg" xmlns:xlink="http://www.w3.org/1999/xlink" width="70" height="70" viewBox="0 0 70 70">
  <defs>
    <linearGradient id="linear-gradient" x1="0.5" x2="0.5" y2="1" gradientUnits="objectBoundingBox">
      <stop offset="0" stop-color="#e31f25"/>
      <stop offset="1" stop-color="#ff1f26"/>
    </linearGradient>
  </defs>
  <g id="Group_668" data-name="Group 668" transform="translate(-208 -4019)">
    <rect id="Area_SIZE:LARGE_STATE:DEFAULT_STYLE:STYLE2_" data-name="Area [SIZE:LARGE][STATE:DEFAULT][STYLE:STYLE2]" width="70" height="70" rx="35" transform="translate(208 4019)" fill="url(#linear-gradient)"/>
    <g id="bowl" transform="translate(225.286 4037.674)">
      <g id="Group_743" data-name="Group 743" transform="translate(22.235 2.215)">
        <g id="Group_742" data-name="Group 742">
          <circle id="Ellipse_28" data-name="Ellipse 28" cx="0.52" cy="0.52" r="0.52" fill="#fff"/>
        </g>
      </g>
      <g id="Group_745" data-name="Group 745" transform="translate(0 0)">
        <g id="Group_744" data-name="Group 744">
          <path id="Path_323" data-name="Path 323" d="M34.909,33.375H31.142a.52.52,0,0,0,0,1.04h3.239A16.73,16.73,0,0,1,26.03,48.351H9.382a.517.517,0,0,0-.07-.049A16.753,16.753,0,0,1,1.048,34.415H28.553a.52.52,0,1,0,0-1.04H21.36l3.893-9.452a2.738,2.738,0,1,0-5.132-1.868l-3.594,11.32H.52A.52.52,0,0,0,0,33.9a17.7,17.7,0,0,0,8.32,15.02V52.2a.52.52,0,0,0,.52.52H26.589a.52.52,0,0,0,.52-.52V48.915a17.7,17.7,0,0,0,8.32-15.02A.52.52,0,0,0,34.909,33.375ZM21.114,22.362a1.755,1.755,0,0,1,.766-1.016,1.7,1.7,0,0,1,2.57,1.553,1.883,1.883,0,0,1-.156.621l-4.06,9.856H17.618Zm4.954,29.317H9.36V49.391H26.069v2.288Z" transform="translate(0 -20.067)" fill="#fff"/>
        </g>
      </g>
      <g id="Group_747" data-name="Group 747" transform="translate(3.883 3.948)">
        <g id="Group_746" data-name="Group 746">
          <path id="Path_324" data-name="Path 324" d="M69.941,77.121a49.006,49.006,0,0,0-9.519.823c-2.9.6-4.313,1.413-4.313,2.47,0,.929,1.088,1.662,3.325,2.241a36.337,36.337,0,0,0,6.3.912l-1.089.8a.52.52,0,0,0,.613.84l2.184-1.595a.525.525,0,0,0,.072-.776L65.882,81.1a.52.52,0,1,0-.758.712l.676.719a35.271,35.271,0,0,1-6.105-.881c-2.078-.538-2.546-1.085-2.546-1.234,0-.188.64-.859,3.485-1.452a47.955,47.955,0,0,1,9.307-.8.52.52,0,1,0,0-1.04Z" transform="translate(-56.109 -77.121)" fill="#fff"/>
        </g>
      </g>
      <g id="Group_749" data-name="Group 749" transform="translate(24.367 3.878)">
        <g id="Group_748" data-name="Group 748">
          <path id="Path_325" data-name="Path 325" d="M356.561,77.395l.988-.254a.52.52,0,0,0-.259-1.007l-2.565.659a.525.525,0,0,0-.352.7l.867,2.115a.52.52,0,1,0,.962-.394l-.389-.948c2,.529,2.473,1.061,2.473,1.215,0,.224-.965,1.191-5.687,1.821a.52.52,0,1,0,.138,1.031,22.2,22.2,0,0,0,4.567-1.013c1.361-.507,2.023-1.109,2.023-1.839C359.326,78.633,358.418,77.947,356.561,77.395Z" transform="translate(-352.147 -76.117)" fill="#fff"/>
        </g>
      </g>
    </g>
  </g>
</svg>
