<svg xmlns="http://www.w3.org/2000/svg" xmlns:xlink="http://www.w3.org/1999/xlink" width="70" height="70" viewBox="0 0 70 70">
  <defs>
    <linearGradient id="linear-gradient" x1="0.5" x2="0.5" y2="1" gradientUnits="objectBoundingBox">
      <stop offset="0" stop-color="#e31f25"/>
      <stop offset="1" stop-color="#ff1f26"/>
    </linearGradient>
  </defs>
  <g id="Group_666" data-name="Group 666" transform="translate(-1352 -4019)">
    <rect id="Area_SIZE:LARGE_STATE:DEFAULT_STYLE:STYLE2_" data-name="Area [SIZE:LARGE][STATE:DEFAULT][STYLE:STYLE2]" width="70" height="70" rx="35" transform="translate(1352 4019)" fill="url(#linear-gradient)"/>
    <path id="sourdough" d="M33.359,96.179a.628.628,0,0,0-.947.067,9.144,9.144,0,0,1-5.849,2.894,27.224,27.224,0,0,0-16.173.429c-.629-.643-1.193-1.209-1.647-1.66-.566-.561-1.02-1-1.3-1.273-.157-.151-.44-.421-.474-.451a.616.616,0,0,0-.4-.189.629.629,0,0,0-.653.794,23.249,23.249,0,0,1,.6,4.552,17.052,17.052,0,0,0-5.436,4.9,11.7,11.7,0,0,0-2.186,6.742A6.851,6.851,0,0,0,.71,118.107c2.713,2.7,8.093,2.667,14.905,2.628.837,0,1.7-.01,2.583-.01s1.743,0,2.586.01,1.664.009,2.473.009c6.266,0,11.541-.278,14.227-2.949a6.516,6.516,0,0,0,1.8-4.816,11.978,11.978,0,0,0-2.605-7.317c-.032-1.166-.342-6.5-3.323-9.483Zm-.861,1.75a6.384,6.384,0,0,1-.847,3.4A21.152,21.152,0,0,0,28.8,99.917a10.671,10.671,0,0,0,3.7-1.989ZM19.087,99.373a23.288,23.288,0,0,1,11.9,3.021,18.405,18.405,0,0,1-3.543,3.6c-3.406-2.894-9.4-2.471-9.66-2.451l.1,1.253c.058,0,5.478-.383,8.535,1.981a45,45,0,0,1-6.971,4.082,12.475,12.475,0,0,0-.888-1.644,4.355,4.355,0,0,1,3.676-1.9v-1.257a5.575,5.575,0,0,0-4.415,2.056,59.373,59.373,0,0,0-4.565-5.517c2.132-.668,7.837-1.989,13.079.871l.6-1.1a17.214,17.214,0,0,0-10.212-1.784,20.549,20.549,0,0,0-4.408,1c-.323-.345-.642-.682-.953-1.006a25.56,25.56,0,0,1,7.728-1.2Zm-14.6,4.948a10.7,10.7,0,0,0,6.515,2.442,8.874,8.874,0,0,0,1.256-.089l-.178-1.244A9.121,9.121,0,0,1,5.5,103.51a18.356,18.356,0,0,1,1.952-1.261.629.629,0,0,0,.321-.548,24.665,24.665,0,0,0-.259-3.234c3.043,3,10,10.123,10.97,13.419a.629.629,0,0,0,.851.4,44.711,44.711,0,0,0,7.893-4.549,20.489,20.489,0,0,0,5.012-4.962,8.566,8.566,0,0,0,1.5-3.978,16.787,16.787,0,0,1,1.679,6.757,6.245,6.245,0,0,1-4.84,1.152l-.179.6-.182.6a4.905,4.905,0,0,0,1.327.156,8.3,8.3,0,0,0,4.365-1.336,11.772,11.772,0,0,1,1.26,2.2c-3.668,2.06-10.418,1.53-10.489,1.524l-.1,1.253c.1.008.946.075,2.176.075,2.378,0,6.193-.251,8.854-1.659a9.941,9.941,0,0,1,.424,2.857c0,.121,0,.239-.008.356-.5.522-1.96,1.343-6.156,1.826-2.7.311-5.213.319-5.237.319H15.316A43.543,43.543,0,0,1,3.057,114,10.809,10.809,0,0,1,.15,112.678a10.085,10.085,0,0,1,.926-3.921,25.133,25.133,0,0,0,3.761,1.206,28.391,28.391,0,0,0,6.584.783,26.254,26.254,0,0,0,3.991-.3l-.191-1.242a26.609,26.609,0,0,1-13.555-1.563q.207-.346.442-.686a14.226,14.226,0,0,1,2.384-2.631ZM36.6,116.9c-2.662,2.647-8.753,2.613-15.807,2.574-.845,0-1.719-.01-2.593-.01s-1.751,0-2.59.01c-6.52.038-11.669.067-14.012-2.262a5.024,5.024,0,0,1-1.376-3.028c1.835.978,6.171,2.549,15.1,2.549H26.631A53.152,53.152,0,0,0,32,116.411a18.159,18.159,0,0,0,5.735-1.372A4.572,4.572,0,0,1,36.6,116.9Z" transform="translate(1367.913 3945.631)" fill="#fff"/>
  </g>
</svg>
