<svg xmlns="http://www.w3.org/2000/svg" xmlns:xlink="http://www.w3.org/1999/xlink" width="80" height="80" viewBox="0 0 80 80">
  <defs>
    <linearGradient id="linear-gradient" x1="0.5" x2="0.5" y2="1" gradientUnits="objectBoundingBox">
      <stop offset="0" stop-color="#e31f25"/>
      <stop offset="1" stop-color="#ff1f26"/>
    </linearGradient>
  </defs>
  <g id="Circle_Button_" data-name="Circle Button " transform="translate(0.097 10.178)">
    <rect id="Area_SIZE:LARGE_STATE:DEFAULT_STYLE:STYLE2_" data-name="Area [SIZE:LARGE][STATE:DEFAULT][STYLE:STYLE2]" width="80" height="80" rx="40" transform="translate(-0.097 -10.178)" fill="url(#linear-gradient)"/>
    <g id="Icon_" data-name="Icon " transform="translate(19.151 19.151)">
      <rect id="Area_ICON:feather_heart_SIZE:LARGE_STATE:DEFAULT_STYLE:STYLE2_" data-name="Area [ICON:feather/heart][SIZE:LARGE][STATE:DEFAULT][STYLE:STYLE2]" width="29" height="29" transform="translate(-0.248 -0.329)" fill="rgba(253,73,198,0.35)" opacity="0"/>
    </g>
    <g id="dough-proofing" transform="translate(14.902 -49.319)">
      <path id="Path_117" data-name="Path 117" d="M97.127,284.087l-1.648.849a17.735,17.735,0,0,1-11.877,0l-1.648-.849a22.163,22.163,0,0,1-9.062-9.171l-1.367.756a23.717,23.717,0,0,0,9.714,9.8l1.74.9.049.017a19.3,19.3,0,0,0,13.027,0l.049-.017,1.74-.9a23.713,23.713,0,0,0,9.714-9.8l-1.367-.756A22.176,22.176,0,0,1,97.127,284.087Z" transform="translate(-64.541 -193.928)" fill="#fff"/>
      <path id="Path_118" data-name="Path 118" d="M14.844,94.1V96.5l.528.181a29.687,29.687,0,0,0,19.257,0l.528-.181V94.1A26.965,26.965,0,0,0,45.751,83.255,35.209,35.209,0,0,0,50,66.25c0-1.917-2.592-3.475-7.7-4.629A82.387,82.387,0,0,0,25,60,82.387,82.387,0,0,0,7.7,61.621C2.592,62.775,0,64.333,0,66.25a35.209,35.209,0,0,0,4.249,17A26.965,26.965,0,0,0,14.844,94.1ZM44.383,82.5A25.268,25.268,0,0,1,34.017,92.937l-.424.218v2.219a28.126,28.126,0,0,1-17.187,0V93.155l-.424-.218A25.268,25.268,0,0,1,5.617,82.5a31.837,31.837,0,0,1-2.774-6.806A3.347,3.347,0,0,0,4.25,76.1l.1,0A2.33,2.33,0,0,0,6.021,75.4a4.185,4.185,0,0,1,4.567-1.025c.121.061.247.126.378.194,1.565.812,4.184,2.172,8.812.629l.053-.018.049-.024c.036-.018,3.6-1.756,6.333-.391a13.1,13.1,0,0,0,9.293.391c.153-.077.314-.16.481-.248,1.507-.788,3.382-1.768,5.851-.533,2.066,1.033,4.412-.5,6.116-2.254A32.571,32.571,0,0,1,44.383,82.5Zm3.931-13.275c-1.419,2.087-4.1,4.585-5.777,3.749-3.184-1.592-5.645-.305-7.274.546-.159.083-.311.163-.456.235a11.939,11.939,0,0,1-7.895-.391c-3.265-1.632-7.149.112-7.676.364-3.969,1.309-6.038.235-7.55-.55-.139-.072-.272-.141-.4-.205a5.72,5.72,0,0,0-6.371,1.318.766.766,0,0,1-.605.253,3.887,3.887,0,0,1-2.05-1.265,35.067,35.067,0,0,1-.617-4.613A18.986,18.986,0,0,0,7.7,70.879,82.387,82.387,0,0,0,25,72.5a82.387,82.387,0,0,0,17.3-1.621,18.9,18.9,0,0,0,6.058-2.213Q48.337,68.946,48.314,69.224ZM8.047,63.145A80.782,80.782,0,0,1,25,61.562a80.782,80.782,0,0,1,16.953,1.583c5.119,1.156,6.484,2.5,6.484,3.1s-1.366,1.949-6.484,3.1A80.782,80.782,0,0,1,25,70.937,80.783,80.783,0,0,1,8.047,69.355c-5.119-1.156-6.484-2.5-6.484-3.1S2.928,64.3,8.047,63.145Z" fill="#fff"/>
      <path id="Path_119" data-name="Path 119" d="M113.676,229.568a19.786,19.786,0,0,1,14.268,5.234l1.121-1.088a21.44,21.44,0,0,0-15.419-5.708c-8.2.156-14,4.277-15.39,5.708l1.122,1.088A22.8,22.8,0,0,1,113.676,229.568Z" transform="translate(-88.661 -151.595)" fill="#fff"/>
      <path id="Path_120" data-name="Path 120" d="M144,100h22.656v1.563H144Z" transform="translate(-129.938 -36.094)" fill="#fff"/>
      <path id="Path_121" data-name="Path 121" d="M288,132h13.281v1.563H288Z" transform="translate(-259.875 -64.969)" fill="#fff"/>
      <path id="Path_122" data-name="Path 122" d="M88,132h6.25v1.563H88Z" transform="translate(-79.406 -64.969)" fill="#fff"/>
      <path id="Path_123" data-name="Path 123" d="M201.953,260A1.955,1.955,0,0,0,200,261.953h1.563a.391.391,0,0,1,.781,0h1.563A1.955,1.955,0,0,0,201.953,260Z" transform="translate(-180.469 -180.469)" fill="#fff"/>
      <path id="Path_124" data-name="Path 124" d="M281.953,261.563a.391.391,0,0,1,.391.391h1.563a1.953,1.953,0,0,0-3.906,0h1.563A.391.391,0,0,1,281.953,261.563Z" transform="translate(-252.656 -180.469)" fill="#fff"/>
      <path id="Path_125" data-name="Path 125" d="M289.953,319.906A1.953,1.953,0,1,0,288,317.953,1.953,1.953,0,0,0,289.953,319.906Zm0-2.344a.391.391,0,1,1-.391.391A.391.391,0,0,1,289.953,317.563Z" transform="translate(-259.875 -231)" fill="#fff"/>
      <path id="Path_126" data-name="Path 126" d="M192,317.953A1.953,1.953,0,1,0,193.953,316,1.953,1.953,0,0,0,192,317.953Zm2.344,0a.391.391,0,1,1-.391-.391A.391.391,0,0,1,194.344,317.953Z" transform="translate(-173.25 -231)" fill="#fff"/>
    </g>
  </g>
</svg>
