<svg xmlns="http://www.w3.org/2000/svg" xmlns:xlink="http://www.w3.org/1999/xlink" width="80" height="80" viewBox="0 0 80 80">
  <defs>
    <linearGradient id="linear-gradient" x1="0.5" x2="0.5" y2="1" gradientUnits="objectBoundingBox">
      <stop offset="0" stop-color="#e31f25"/>
      <stop offset="1" stop-color="#ff1f26"/>
    </linearGradient>
  </defs>
  <g id="Group_920" data-name="Group 920" transform="translate(-623 -1749)">
    <g id="Group_912" data-name="Group 912" transform="translate(-76 -76)">
      <rect id="Area_SIZE:LARGE_STATE:DEFAULT_STYLE:STYLE2_" data-name="Area [SIZE:LARGE][STATE:DEFAULT][STYLE:STYLE2]" width="80" height="80" rx="40" transform="translate(699 1825)" fill="url(#linear-gradient)"/>
    </g>
    <g id="muscle_1_" data-name="muscle (1)" transform="translate(633.7 1765.588)">
      <path id="Path_520" data-name="Path 520" d="M45,234.116a36.725,36.725,0,0,1-14.908,7.72,51.038,51.038,0,0,1-16.446,1.458,2.045,2.045,0,0,1-1.38-.671,14.9,14.9,0,0,1-2.4-4.118,23.735,23.735,0,0,1-1.514-5.316,33.642,33.642,0,0,1,.233-11.647c.149-.846.379-1.653.6-2.48.134-.5.124-1.189-.576-1.164s-.83.987-.967,1.511c-.26.994-.395,2.013-.589,3.021-1.063,5.517-1.063,14.1,3.671,20.59a3.305,3.305,0,0,0,1.888,1.526,22.035,22.035,0,0,0,4.9.253,50.234,50.234,0,0,0,12.935-1.64A38.082,38.082,0,0,0,45.9,235.148.685.685,0,0,0,45,234.116Z" transform="translate(0 -197.992)" fill="#fff" stroke="#fff" stroke-width="0.5"/>
      <path id="Path_521" data-name="Path 521" d="M79.242,24.065a10.907,10.907,0,0,0-4.222-7.636C70.215,12.8,62.633,13.6,59.274,18.839a10.273,10.273,0,0,0-1.419,7.739,10.731,10.731,0,0,0-4.152-.356,10.423,10.423,0,0,0-5.865,2.63,33.052,33.052,0,0,0,.137-3.5A33.761,33.761,0,0,0,44.99,11.865,7.737,7.737,0,0,0,48.036,9.7a2.708,2.708,0,0,0,1.248,1.078c1.154.485,2.15-.161,3.189-.608A5.413,5.413,0,0,0,54.929,8.42a3.383,3.383,0,0,0,.217-3.1,10.958,10.958,0,0,0-1.6-3.819q-.015-.021-.032-.041A3.971,3.971,0,0,0,50.97.041l-.033,0a25.09,25.09,0,0,0-4.6.186l-.028,0a9.489,9.489,0,0,0-6.1,3.911c-1.552,2.065-1.5,4.887-1.422,6.181-.305.93-.706,1.836-1.129,2.793a31.408,31.408,0,0,0-1.224,3.054.686.686,0,0,0,1.3.42c.658-2.045,1.742-3.924,2.394-5.973.169-.53-.653-3.314,1.292-5.834a7.747,7.747,0,0,1,5.092-3.2A23.809,23.809,0,0,1,50.834,1.4a2.609,2.609,0,0,1,1.624.931,9.824,9.824,0,0,1,1.365,3.347,2.252,2.252,0,0,1-.051,2,4.482,4.482,0,0,1-1.916,1.26c-.634.293-1.5.914-2.2.489-.361-.217-.435-.531-.648-.855-.318-.485-1.08-1.167-.769-1.832.28-.6.994-.446,1.453-.212s1.116.515,1.417-.08c.311-.615-.348-.913-.795-1.141a2.376,2.376,0,0,0-1.76-.324A2.123,2.123,0,0,0,46.974,6.21a2.494,2.494,0,0,0,.3,2.306l-.082-.024a.2.2,0,0,1,.006-.019c-.152.424-1.024,1.459-3.233,2.34a.687.687,0,0,0-.427.661,2.6,2.6,0,0,0,.126.778A32.337,32.337,0,0,1,46.6,25.323,28.6,28.6,0,0,1,46.19,30.8a9.567,9.567,0,0,0-.957,8.261.686.686,0,0,0,1.291-.459,8.224,8.224,0,0,1,2.4-8.877,9.3,9.3,0,0,1,9.7-1.416.692.692,0,0,0,.915-.873,8.7,8.7,0,0,1-.05-5.933,9.111,9.111,0,0,1,3.551-4.458c3.248-2.32,8.054-1.862,11.154.476A9.532,9.532,0,0,1,77.878,24.2a12.217,12.217,0,0,1-1.926,7.58c-.174.284-.362.57-.558.85a.685.685,0,0,0,1.122.786c.212-.3.415-.612.6-.92A13.57,13.57,0,0,0,79.242,24.065Z" transform="translate(-27.18 0)" fill="#fff" stroke="#fff" stroke-width="0.5"/>
    </g>
  </g>
</svg>
