<svg xmlns="http://www.w3.org/2000/svg" xmlns:xlink="http://www.w3.org/1999/xlink" width="80" height="80" viewBox="0 0 80 80">
  <defs>
    <linearGradient id="linear-gradient" x1="0.5" x2="0.5" y2="1" gradientUnits="objectBoundingBox">
      <stop offset="0" stop-color="#e31f25"/>
      <stop offset="1" stop-color="#ff1f26"/>
    </linearGradient>
  </defs>
  <g id="Group_919" data-name="Group 919" transform="translate(-809 -1749)">
    <g id="Group_911" data-name="Group 911" transform="translate(110 -76)">
      <rect id="Area_SIZE:LARGE_STATE:DEFAULT_STYLE:STYLE2_" data-name="Area [SIZE:LARGE][STATE:DEFAULT][STYLE:STYLE2]" width="80" height="80" rx="40" transform="translate(699 1825)" fill="url(#linear-gradient)"/>
    </g>
    <g id="scratch" transform="translate(775 1742)">
      <path id="Path_522" data-name="Path 522" d="M113.711,34.433a3.333,3.333,0,0,0-1.863.568V30.335a3.351,3.351,0,0,0-5.217-2.786v-.2a3.354,3.354,0,1,0-6.707,0v.94a3.351,3.351,0,0,0-5.217,2.786V44.869l-1.49,0A5.223,5.223,0,0,0,88,50.083v4.661a12.442,12.442,0,0,0,6.837,11.251c.2.1.4.187.616.276V70.2a.745.745,0,1,0,1.49,0V65.762a.746.746,0,0,0-.487-.7c-.344-.127-.67-.265-.972-.41a10.944,10.944,0,0,1-5.993-9.908V50.083a3.73,3.73,0,0,1,3.725-3.726l5.594.007a1.859,1.859,0,1,1,0,3.719H95.452a.746.746,0,0,0-.742.812,7.352,7.352,0,0,0,3.235,5.1c1.966,1.311,2.3,2.038,2.335,2.138a.745.745,0,0,0,1.484-.1c0-.386-.291-1.479-2.993-3.281a5.94,5.94,0,0,1-2.4-3.18H98.81a3.354,3.354,0,0,0,3.35-3.35,3.316,3.316,0,0,0-.745-2.081V27.354a1.863,1.863,0,1,1,3.726,0v16.4a.745.745,0,1,0,1.49,0V30.335a1.863,1.863,0,0,1,3.726,0V44.672a6.635,6.635,0,0,0,1.679,4.415.745.745,0,1,0,1.113-.99,5.152,5.152,0,0,1-1.3-3.426V37.787a1.863,1.863,0,0,1,3.726,0V57.769a7.975,7.975,0,0,1-3.408,6.527.745.745,0,0,0-.318.611v5.3a.745.745,0,0,0,1.49,0v-4.92a9.466,9.466,0,0,0,3.726-7.516V37.787a3.357,3.357,0,0,0-3.354-3.354ZM96.2,44.871V31.08a1.863,1.863,0,1,1,3.726,0v14a3.308,3.308,0,0,0-1.113-.2Z" transform="translate(-26.038)" fill="#fff"/>
      <path id="Path_523" data-name="Path 523" d="M179.587,172.625a.745.745,0,0,0,1.221-.854l-1.149-1.642,1.182-2.027a.745.745,0,1,0-1.287-.751l-.836,1.433-.99-1.414.878-1.5a.745.745,0,1,0-1.287-.751l-.531.911-1.2-1.708a.745.745,0,1,0-1.221.854l1.59,2.271-.8,1.37L174.1,167.3a.745.745,0,0,0-1.221.854l1.454,2.077-2.233,3.827a.745.745,0,0,0,1.287.751l1.886-3.234.99,1.414-1.928,3.3a.745.745,0,0,0,1.287.751l1.581-2.711.891,1.272a.745.745,0,0,0,1.221-.854l-1.285-1.835.8-1.37Zm-2.5-1.053-.99-1.414.8-1.37.99,1.414Z" transform="translate(-94.388 -113.917)" fill="#fff"/>
      <path id="Path_524" data-name="Path 524" d="M72.745,66.981a.745.745,0,0,0,.745-.745v-1.49a.745.745,0,0,0-1.49,0v1.49A.745.745,0,0,0,72.745,66.981Z" transform="translate(-13.019 -32.548)" fill="#fff"/>
      <path id="Path_525" data-name="Path 525" d="M72.745,88a.745.745,0,0,0-.745.745v1.49a.745.745,0,0,0,1.49,0v-1.49A.745.745,0,0,0,72.745,88Z" transform="translate(-13.019 -52.076)" fill="#fff"/>
      <path id="Path_526" data-name="Path 526" d="M58.236,80h-1.49a.745.745,0,1,0,0,1.49h1.49a.745.745,0,0,0,0-1.49Z" transform="translate(0 -45.567)" fill="#fff"/>
      <path id="Path_527" data-name="Path 527" d="M82.981,80.745A.745.745,0,0,0,82.236,80h-1.49a.745.745,0,0,0,0,1.49h1.49A.745.745,0,0,0,82.981,80.745Z" transform="translate(-19.529 -45.567)" fill="#fff"/>
    </g>
  </g>
</svg>
