<svg xmlns="http://www.w3.org/2000/svg" xmlns:xlink="http://www.w3.org/1999/xlink" width="116" height="116" viewBox="0 0 116 116">
  <defs>
    <linearGradient id="linear-gradient" x1="0.5" x2="0.5" y2="1" gradientUnits="objectBoundingBox">
      <stop offset="0" stop-color="#e31f25"/>
      <stop offset="1" stop-color="#e31f25"/>
    </linearGradient>
    <filter id="Area_SIZE:LARGE_STATE:DEFAULT_STYLE:STYLE2_" x="0" y="0" width="116" height="116" filterUnits="userSpaceOnUse">
      <feOffset dy="10" input="SourceAlpha"/>
      <feGaussianBlur stdDeviation="6" result="blur"/>
      <feFlood flood-opacity="0.22"/>
      <feComposite operator="in" in2="blur"/>
      <feComposite in="SourceGraphic"/>
    </filter>
  </defs>
  <g id="Circle_Button_" data-name="Circle Button " transform="translate(24.629 18.178)">
    <g transform="matrix(1, 0, 0, 1, -24.63, -18.18)" filter="url(#Area_SIZE:LARGE_STATE:DEFAULT_STYLE:STYLE2_)">
      <rect id="Area_SIZE:LARGE_STATE:DEFAULT_STYLE:STYLE2_2" data-name="Area [SIZE:LARGE][STATE:DEFAULT][STYLE:STYLE2]" width="80" height="80" rx="40" transform="translate(18 8)" fill="url(#linear-gradient)"/>
    </g>
    <g id="flask" transform="translate(-8.172 6.604)">
      <path id="Path_127" data-name="Path 127" d="M61.856,35.98,48.346,14.749V8.162a4.081,4.081,0,1,0,0-8.162h-13.6a4.081,4.081,0,0,0,0,8.162v6.587L21.231,35.98A6.8,6.8,0,0,0,26.97,46.434H56.118A6.8,6.8,0,0,0,61.856,35.98ZM37.25,15.876a1.361,1.361,0,0,0,.213-.73V8.162a1.36,1.36,0,1,0,0-2.721H34.742a1.36,1.36,0,1,1,0-2.721h13.6a1.36,1.36,0,1,1,0,2.721H45.625a1.36,1.36,0,1,0,0,2.721v6.983a1.36,1.36,0,0,0,.213.73l3.7,5.812a12.211,12.211,0,0,0-9.342,1.792l-4.251,2.834a9.479,9.479,0,0,1-6.318,1.545ZM56.118,43.713H26.97a4.079,4.079,0,0,1-3.443-6.272l4.513-7.092a12.168,12.168,0,0,0,9.413-1.772L41.7,25.743a9.5,9.5,0,0,1,10.31-.163l7.548,11.86A4.079,4.079,0,0,1,56.118,43.713Z" transform="translate(0)" fill="#fff" stroke="#e31f25" stroke-width="1"/>
      <path id="Path_128" data-name="Path 128" d="M125.081,362a4.081,4.081,0,1,0,4.081,4.081A4.086,4.086,0,0,0,125.081,362Zm0,5.441a1.36,1.36,0,1,1,1.36-1.36A1.362,1.362,0,0,1,125.081,367.442Z" transform="translate(-91.7 -329.17)" fill="#fff" stroke="#e31f25" stroke-width="1"/>
      <path id="Path_129" data-name="Path 129" d="M275.081,302a4.081,4.081,0,1,0,4.081,4.081A4.086,4.086,0,0,0,275.081,302Zm0,5.441a1.36,1.36,0,1,1,1.36-1.36A1.362,1.362,0,0,1,275.081,307.441Z" transform="translate(-228.096 -274.611)" fill="#fff" stroke="#e31f25" stroke-width="1"/>
      <circle id="Ellipse_4" data-name="Ellipse 4" cx="1.36" cy="1.36" r="1.36" transform="translate(40.183 35.551)" fill="#fff" stroke="#e31f25" stroke-width="1"/>
      <circle id="Ellipse_5" data-name="Ellipse 5" cx="1.36" cy="1.36" r="1.36" transform="translate(51.066 35.551)" fill="#fff" stroke="#e31f25" stroke-width="1"/>
      <circle id="Ellipse_6" data-name="Ellipse 6" cx="1.36" cy="1.36" r="1.36" transform="translate(45.625 38.272)" fill="#fff" stroke="#e31f25" stroke-width="1"/>
    </g>
  </g>
</svg>
