<svg xmlns="http://www.w3.org/2000/svg" xmlns:xlink="http://www.w3.org/1999/xlink" width="116" height="116" viewBox="0 0 116 116">
  <defs>
    <linearGradient id="linear-gradient" x1="0.5" x2="0.5" y2="1" gradientUnits="objectBoundingBox">
      <stop offset="0" stop-color="#e31f25"/>
      <stop offset="1" stop-color="#e31f25"/>
    </linearGradient>
    <filter id="Area_SIZE:LARGE_STATE:DEFAULT_STYLE:STYLE2_" x="0" y="0" width="116" height="116" filterUnits="userSpaceOnUse">
      <feOffset dy="10" input="SourceAlpha"/>
      <feGaussianBlur stdDeviation="6" result="blur"/>
      <feFlood flood-opacity="0.22"/>
      <feComposite operator="in" in2="blur"/>
      <feComposite in="SourceGraphic"/>
    </filter>
  </defs>
  <g id="Group_625" data-name="Group 625" transform="translate(-1562 -1973)">
    <g id="Circle_Button_" data-name="Circle Button " transform="translate(1580.098 1991.179)">
      <g transform="matrix(1, 0, 0, 1, -18.1, -18.18)" filter="url(#Area_SIZE:LARGE_STATE:DEFAULT_STYLE:STYLE2_)">
        <rect id="Area_SIZE:LARGE_STATE:DEFAULT_STYLE:STYLE2_2" data-name="Area [SIZE:LARGE][STATE:DEFAULT][STYLE:STYLE2]" width="80" height="80" rx="40" transform="translate(18 8)" fill="url(#linear-gradient)"/>
      </g>
    </g>
    <path id="Path_114" data-name="Path 114" d="M46.675,55.094,26.713,20.526a3.618,3.618,0,0,0-6.266,0L.484,55.094a3.618,3.618,0,0,0,3.133,5.427H43.542a3.618,3.618,0,0,0,3.133-5.427ZM3.617,56.9,23.58,22.335,43.542,56.9Z" transform="translate(1596.002 1981.283)" fill="#fff" stroke="#e31f25" stroke-width="1"/>
  </g>
</svg>
