<svg xmlns="http://www.w3.org/2000/svg" xmlns:xlink="http://www.w3.org/1999/xlink" width="130" height="130" viewBox="0 0 130 130">
  <defs>
    <linearGradient id="linear-gradient" x1="0.5" x2="0.5" y2="1" gradientUnits="objectBoundingBox">
      <stop offset="0" stop-color="#e31f25"/>
      <stop offset="1" stop-color="#ff1f26"/>
    </linearGradient>
    <filter id="Area_SIZE:LARGE_STATE:DEFAULT_STYLE:STYLE2_" x="0" y="0" width="130" height="130" filterUnits="userSpaceOnUse">
      <feOffset dy="3" input="SourceAlpha"/>
      <feGaussianBlur stdDeviation="10" result="blur"/>
      <feFlood flood-opacity="0.082"/>
      <feComposite operator="in" in2="blur"/>
      <feComposite in="SourceGraphic"/>
    </filter>
  </defs>
  <g id="Group_625" data-name="Group 625" transform="translate(-674 -1769)">
    <g id="Circle_Button_" data-name="Circle Button " transform="translate(703.629 1796.179)">
      <g transform="matrix(1, 0, 0, 1, -29.63, -27.18)" filter="url(#Area_SIZE:LARGE_STATE:DEFAULT_STYLE:STYLE2_)">
        <rect id="Area_SIZE:LARGE_STATE:DEFAULT_STYLE:STYLE2_2" data-name="Area [SIZE:LARGE][STATE:DEFAULT][STYLE:STYLE2]" width="70" height="70" rx="35" transform="translate(30 27)" fill="url(#linear-gradient)"/>
      </g>
    </g>
    <g id="chemistry" transform="translate(706.334 1808)">
      <g id="Group_523" data-name="Group 523" transform="translate(10.666)">
        <g id="Group_522" data-name="Group 522" transform="translate(0)">
          <path id="Path_201" data-name="Path 201" d="M51.442,37.134V30.366L54.2,27.633l-.961-.973-2.6,2.584-5.063-2.523V19.385l-6.534-3.279L33.18,19.041l-5.864-2.935-5.89,2.935-5.2-2.591V9.963l5.182-2.591,5.182,2.591V13.94h1.376V9.113l-5.87-2.935V0H20.719V6.178L15.7,8.7,11.656,4.65l-.99.973,4.184,4.2V16.59l-2.71,2.733.984.973,2.567-2.584,5.029,2.523v7.337L27.3,30.85l5.881-2.935,5.875,2.935,5.849-2.935,5.162,2.591v6.487l-5.182,2.591L39.7,36.993V33.016H38.328v4.827l5.87,2.935v6.178h1.376V40.778l5.069-2.523,4.074,4.052.95-.973ZM32.458,26.722l-5.182,2.591-5.182-2.591V20.235l5.182-2.591,5.182,2.591Zm11.739,0-5.182,2.591-5.182-2.591V20.235l5.182-2.591L44.2,20.235Z" transform="translate(-10.666)" fill="#fff"/>
        </g>
      </g>
      <g id="Group_525" data-name="Group 525" transform="translate(18.518 14.766)">
        <g id="Group_524" data-name="Group 524" transform="translate(0)">
          <rect id="Rectangle_211" data-name="Rectangle 211" width="1.467" height="1.376" fill="#fff"/>
        </g>
      </g>
      <g id="Group_527" data-name="Group 527" transform="translate(41.996 35.309)">
        <g id="Group_526" data-name="Group 526">
          <rect id="Rectangle_212" data-name="Rectangle 212" width="1.467" height="1.376" fill="#fff"/>
        </g>
      </g>
      <g id="Group_529" data-name="Group 529" transform="translate(47.132 30.815)">
        <g id="Group_528" data-name="Group 528">
          <rect id="Rectangle_213" data-name="Rectangle 213" width="1.376" height="5.87" fill="#fff"/>
        </g>
      </g>
      <g id="Group_531" data-name="Group 531" transform="translate(23.654 20.543)">
        <g id="Group_530" data-name="Group 530">
          <rect id="Rectangle_214" data-name="Rectangle 214" width="1.376" height="5.87" fill="#fff"/>
        </g>
      </g>
    </g>
  </g>
</svg>
