<svg xmlns="http://www.w3.org/2000/svg" xmlns:xlink="http://www.w3.org/1999/xlink" width="130" height="130" viewBox="0 0 130 130">
  <defs>
    <linearGradient id="linear-gradient" x1="0.5" x2="0.5" y2="1" gradientUnits="objectBoundingBox">
      <stop offset="0" stop-color="#e31f25"/>
      <stop offset="1" stop-color="#ff1f26"/>
    </linearGradient>
    <filter id="Area_SIZE:LARGE_STATE:DEFAULT_STYLE:STYLE2_" x="0" y="0" width="130" height="130" filterUnits="userSpaceOnUse">
      <feOffset dy="3" input="SourceAlpha"/>
      <feGaussianBlur stdDeviation="10" result="blur"/>
      <feFlood flood-opacity="0.082"/>
      <feComposite operator="in" in2="blur"/>
      <feComposite in="SourceGraphic"/>
    </filter>
  </defs>
  <g id="Group_627" data-name="Group 627" transform="translate(-1114 -1769)">
    <g id="Circle_Button_" data-name="Circle Button " transform="translate(1144.098 1796.179)">
      <g transform="matrix(1, 0, 0, 1, -30.1, -27.18)" filter="url(#Area_SIZE:LARGE_STATE:DEFAULT_STYLE:STYLE2_)">
        <rect id="Area_SIZE:LARGE_STATE:DEFAULT_STYLE:STYLE2_2" data-name="Area [SIZE:LARGE][STATE:DEFAULT][STYLE:STYLE2]" width="70" height="70" rx="35" transform="translate(30 27)" fill="url(#linear-gradient)"/>
      </g>
    </g>
    <g id="molecular" transform="translate(1157 1808)">
      <path id="Path_210" data-name="Path 210" d="M40.18,52.464l2.619,1.52V61.5l-6.473,3.755L29.853,61.5V53.984l6.472-3.756L39.037,51.8l.663-1.143L36.326,48.7,29.193,52.84,22.72,49.084V40.806l-3.071-1.782-.663,1.143,2.413,1.4v7.517L14.927,52.84,8.454,49.084V41.567l6.472-3.756L17.844,39.5l.663-1.143-2.92-1.694V28.39L7.794,23.867,0,28.39v3.788H1.321V29.15l6.473-3.755,6.472,3.755v7.518L7.794,40.423,1.321,36.667V33.5H0v3.929l7.133,4.139v7.517L0,53.223v9.039l2.972,1.724.663-1.142L1.321,61.5V53.984l6.473-3.756,6.472,3.756V61.5L7.794,65.257l-3.016-1.75-.663,1.143,3.679,2.134,7.133-4.139,2.89,1.677.663-1.143L15.587,61.5V53.984l6.473-3.756,6.473,3.756V61.5L22.06,65.257l-2.437-1.414-.663,1.143,3.1,1.8,7.133-4.139,7.133,4.139,7.794-4.522V53.223l-3.277-1.9Zm0,0" transform="translate(0 -21.769)" fill="#fff"/>
      <path id="Path_211" data-name="Path 211" d="M206.071,11.536a3.747,3.747,0,0,0,3.406-2.194l3.052.73a5.5,5.5,0,0,0,2.37,5.464l-1.049,1.416a3.754,3.754,0,1,0,1.151.666l1.093-1.476a5.5,5.5,0,0,0,6.533-8.089l1.222-1.115a3.757,3.757,0,1,0-.992-.883l-1.061.968a5.5,5.5,0,0,0-8.9,1.78l-3.1-.74c.007-.089.011-.179.011-.269a3.743,3.743,0,1,0-3.742,3.742ZM225.8,1.321a2.422,2.422,0,1,1-2.422,2.422A2.425,2.425,0,0,1,225.8,1.321ZM215.009,20.475a2.422,2.422,0,1,1-2.422-2.422A2.424,2.424,0,0,1,215.009,20.475Zm2.95-13.694a4.183,4.183,0,1,1-4.183,4.183A4.188,4.188,0,0,1,217.959,6.781ZM206.071,5.372a2.422,2.422,0,1,1-2.422,2.422A2.425,2.425,0,0,1,206.071,5.372Zm0,0" transform="translate(-184.539)" fill="#fff"/>
      <path id="Path_212" data-name="Path 212" d="M229.4,433.576l-.663-1.143-4.16,2.414-1.874-1.088-.663,1.143,2.538,1.472Zm0,0" transform="translate(-202.521 -394.414)" fill="#fff"/>
      <path id="Path_213" data-name="Path 213" d="M196.043,433.592l.663-1.143,1.143.663-.663,1.142Zm0,0" transform="translate(-178.807 -394.428)" fill="#fff"/>
      <path id="Path_214" data-name="Path 214" d="M438.589,365.422v-5.615l-2.535-1.471-.663,1.143,1.877,1.089v4.855Zm0,0" transform="translate(-397.111 -326.831)" fill="#fff"/>
      <path id="Path_215" data-name="Path 215" d="M409.4,344.424l.663-1.143,1.143.663-.663,1.142Zm0,0" transform="translate(-373.404 -313.1)" fill="#fff"/>
      <path id="Path_216" data-name="Path 216" d="M33.773,433.591l.663-1.142,2.206,1.28-.663,1.143Zm0,0" transform="translate(-30.804 -394.428)" fill="#fff"/>
      <path id="Path_217" data-name="Path 217" d="M71.859,455.7l.663-1.142,1.143.663L73,456.36Zm0,0" transform="translate(-65.541 -414.59)" fill="#fff"/>
      <path id="Path_218" data-name="Path 218" d="M30.047,141.453h1.321v1.321H30.047Zm0,0" transform="translate(-27.405 -129.017)" fill="#fff"/>
      <path id="Path_219" data-name="Path 219" d="M30.047,96.934h1.321v2.593H30.047Zm0,0" transform="translate(-27.405 -88.411)" fill="#fff"/>
      <path id="Path_220" data-name="Path 220" d="M166,203.182l.663-1.143,1.143.663-.663,1.143Zm0,0" transform="translate(-151.405 -184.276)" fill="#fff"/>
      <path id="Path_221" data-name="Path 221" d="M195.194,224.192v-5.615l-2.535-1.471L192,218.248l1.877,1.089v4.854Zm0,0" transform="translate(-175.116 -198.018)" fill="#fff"/>
      <path id="Path_222" data-name="Path 222" d="M381.658,95.011h1.321a2.865,2.865,0,0,0-2.862-2.862v1.321A1.543,1.543,0,0,1,381.658,95.011Zm0,0" transform="translate(-346.697 -84.047)" fill="#fff"/>
    </g>
  </g>
</svg>
