<svg xmlns="http://www.w3.org/2000/svg" xmlns:xlink="http://www.w3.org/1999/xlink" width="130" height="130" viewBox="0 0 130 130">
  <defs>
    <linearGradient id="linear-gradient" x1="0.5" x2="0.5" y2="1" gradientUnits="objectBoundingBox">
      <stop offset="0" stop-color="#e31f25"/>
      <stop offset="1" stop-color="#ff1f26"/>
    </linearGradient>
    <filter id="Area_SIZE:LARGE_STATE:DEFAULT_STYLE:STYLE2_" x="0" y="0" width="130" height="130" filterUnits="userSpaceOnUse">
      <feOffset dy="3" input="SourceAlpha"/>
      <feGaussianBlur stdDeviation="10" result="blur"/>
      <feFlood flood-opacity="0.082"/>
      <feComposite operator="in" in2="blur"/>
      <feComposite in="SourceGraphic"/>
    </filter>
  </defs>
  <g id="Group_628" data-name="Group 628" transform="translate(-1553 -1769)">
    <g id="Circle_Button_" data-name="Circle Button " transform="translate(1583.098 1796.179)">
      <g transform="matrix(1, 0, 0, 1, -30.1, -27.18)" filter="url(#Area_SIZE:LARGE_STATE:DEFAULT_STYLE:STYLE2_)">
        <rect id="Area_SIZE:LARGE_STATE:DEFAULT_STYLE:STYLE2_2" data-name="Area [SIZE:LARGE][STATE:DEFAULT][STYLE:STYLE2]" width="70" height="70" rx="35" transform="translate(30 27)" fill="url(#linear-gradient)"/>
      </g>
    </g>
    <path id="neural" d="M10.6,28.1a6,6,0,1,0,2.388,8.732l5.668,2.837a6,6,0,1,0,10.815-2.028l7.964-8.327a6,6,0,1,0-.106-9.548l-8.093-8.093A6,6,0,1,0,18.653,9.327l-5.319,1.938A6,6,0,1,0,10.4,19.5l2.761,4.646ZM8,38a4.5,4.5,0,1,1,4.5-4.5A4.5,4.5,0,0,1,8,38Zm5.654-2.512a5.959,5.959,0,0,0-1.8-6.576l2.157-3.332,6.5,10.943a6.022,6.022,0,0,0-1.346,1.727ZM24.5,14a5.965,5.965,0,0,0,3.673-1.266l8.093,8.093a5.973,5.973,0,0,0-1.058,2.129L30.5,22.309c0-.019,0-.039,0-.059a6,6,0,0,0-10.986-3.332l-.895-.447L21.9,13.4a5.95,5.95,0,0,0,2.6.6Zm.75,21.052V28.2a6.008,6.008,0,0,0,5.041-4.4L35,24.442c0,.019,0,.039,0,.058a5.967,5.967,0,0,0,1.346,3.78l-7.875,8.234A5.974,5.974,0,0,0,25.25,35.052Zm-.75-17.3a4.5,4.5,0,1,1-4.5,4.5A4.5,4.5,0,0,1,24.5,17.75Zm-5.654,2.512a5.977,5.977,0,0,0,4.9,7.937v6.854a5.951,5.951,0,0,0-1.993.618l-6.831-11.5L17.8,19.738ZM24.5,45.5A4.5,4.5,0,1,1,29,41,4.5,4.5,0,0,1,24.5,45.5ZM41,20a4.5,4.5,0,1,1-4.5,4.5A4.5,4.5,0,0,1,41,20ZM24.5,3.5A4.5,4.5,0,1,1,20,8,4.5,4.5,0,0,1,24.5,3.5Zm-5.334,7.235a6.041,6.041,0,0,0,1.475,1.852L17.269,17.8l-3.615-1.808a5.865,5.865,0,0,0,.193-3.315ZM3.5,14A4.5,4.5,0,1,1,8,18.5,4.5,4.5,0,0,1,3.5,14Zm8.186,4.724a6.05,6.05,0,0,0,1.3-1.392l3.463,1.731-2.378,3.673Z" transform="translate(1597 1809)" fill="#fff"/>
  </g>
</svg>
