<svg xmlns="http://www.w3.org/2000/svg" xmlns:xlink="http://www.w3.org/1999/xlink" width="70" height="70" viewBox="0 0 70 70">
  <defs>
    <linearGradient id="linear-gradient" x1="0.5" x2="0.5" y2="1" gradientUnits="objectBoundingBox">
      <stop offset="0" stop-color="#e31f25"/>
      <stop offset="1" stop-color="#ff1f26"/>
    </linearGradient>
  </defs>
  <g id="Group_740" data-name="Group 740" transform="translate(-1638 -4019)">
    <rect id="Area_SIZE:LARGE_STATE:DEFAULT_STYLE:STYLE2_" data-name="Area [SIZE:LARGE][STATE:DEFAULT][STYLE:STYLE2]" width="70" height="70" rx="35" transform="translate(1638 4019)" fill="url(#linear-gradient)"/>
    <g id="outline" transform="translate(1655.121 4036.275)">
      <path id="Path_326" data-name="Path 326" d="M50,25.162a2.993,2.993,0,0,0-1.526-.224,2.978,2.978,0,0,0-2.736-1.184A2.976,2.976,0,0,0,43,22.572a2.978,2.978,0,0,0-2.735-1.183,2.979,2.979,0,0,0-5.351,2.12,2.976,2.976,0,0,0-1.183,2.736,2.973,2.973,0,0,0-1.2,2.556A8.941,8.941,0,1,0,20.495,41.32a2.565,2.565,0,0,0-.982,3.273,2.563,2.563,0,0,0,0,4.2,2.563,2.563,0,0,0,2.1,3.64,2.563,2.563,0,0,0,3.64,2.1,2.563,2.563,0,0,0,4.2,0,2.563,2.563,0,0,0,3.64-2.1,2.563,2.563,0,0,0,2.1-3.64,2.563,2.563,0,0,0,.285-3.972,3,3,0,0,0,1.1.08,2.974,2.974,0,0,0,2.735,1.182,2.979,2.979,0,0,0,5.352-2.12,2.978,2.978,0,0,0,1.183-2.736A2.975,2.975,0,0,0,47.041,38.5a2.977,2.977,0,0,0,1.183-2.735,2.976,2.976,0,0,0,1.183-2.736A2.974,2.974,0,0,0,50.59,30.29,2.979,2.979,0,0,0,50,25.162ZM18.037,37.032a7.749,7.749,0,0,1,13.875-6.9h0l0,0,.009.019a7.751,7.751,0,0,1-1.066,8.476,2.546,2.546,0,0,0-1.4.224,2.563,2.563,0,0,0-4.2,0,2.546,2.546,0,0,0-1.107-.242l-.514-1.032-1.067.531.4.8c-.027.014-.053.028-.079.043a2.551,2.551,0,0,0-1.214,1.637,7.7,7.7,0,0,1-3.635-3.558ZM34.155,48a.6.6,0,0,0-.26.969,1.368,1.368,0,0,1-1.3,2.256.6.6,0,0,0-.709.709,1.368,1.368,0,0,1-2.256,1.3.6.6,0,0,0-.969.26,1.368,1.368,0,0,1-2.6,0,.6.6,0,0,0-.969-.26,1.368,1.368,0,0,1-2.256-1.3.6.6,0,0,0-.709-.709,1.368,1.368,0,0,1-1.3-2.256.6.6,0,0,0-.26-.969,1.368,1.368,0,0,1,0-2.6.6.6,0,0,0,.26-.969,1.368,1.368,0,0,1,1.3-2.256.6.6,0,0,0,.709-.709,1.368,1.368,0,0,1,2.256-1.3.6.6,0,0,0,.969-.26,1.368,1.368,0,0,1,2.6,0,.6.6,0,0,0,.969.26,1.368,1.368,0,0,1,2.256,1.3.6.6,0,0,0,.709.709,1.368,1.368,0,0,1,1.641,1.554.512.512,0,0,0-.009.054,1.365,1.365,0,0,1-.329.649.6.6,0,0,0,.26.969,1.368,1.368,0,0,1,0,2.6Zm16.3-19.389a1.763,1.763,0,0,1-.8.869.6.6,0,0,0-.3.685,1.785,1.785,0,0,1-.887,2.051.6.6,0,0,0-.3.685,1.785,1.785,0,0,1-.887,2.05.6.6,0,0,0-.3.685,1.786,1.786,0,0,1-.887,2.051.6.6,0,0,0-.3.685,1.784,1.784,0,0,1-.886,2.05.6.6,0,0,0-.3.685,1.786,1.786,0,0,1-.887,2.051.6.6,0,0,0-.3.685,1.788,1.788,0,0,1-3.3,1.308.6.6,0,0,0-.685-.3,1.785,1.785,0,0,1-2.05-.887.6.6,0,0,0-.685-.3,1.77,1.77,0,0,1-1.181-.083q-.047-.02-.092-.043a2.566,2.566,0,0,0-2.345-2.59,2.548,2.548,0,0,0-1.074-1.873,8.938,8.938,0,0,0,1.144-9.073,1.79,1.79,0,0,1,.317-.215.6.6,0,0,0,.3-.684,1.786,1.786,0,0,1,.888-2.051.6.6,0,0,0,.3-.685,1.785,1.785,0,0,1,.887-2.05.6.6,0,0,0,.3-.685,1.77,1.77,0,0,1,.082-1.181,1.791,1.791,0,0,1,2.352-.931,1.764,1.764,0,0,1,.869.8.6.6,0,0,0,.685.3,1.788,1.788,0,0,1,2.052.887.6.6,0,0,0,.684.3,1.786,1.786,0,0,1,2.051.887.6.6,0,0,0,.685.3,1.787,1.787,0,0,1,2.051.888.6.6,0,0,0,.685.3,1.788,1.788,0,0,1,2.112,2.434Z" transform="translate(-16.034 -20.185)" fill="#fff"/>
      <path id="Path_327" data-name="Path 327" d="M112,376h1.192v1.192H112Z" transform="translate(-104.85 -349.49)" fill="#fff"/>
      <path id="Path_328" data-name="Path 328" d="M160,376h1.192v1.192H160Z" transform="translate(-149.274 -349.49)" fill="#fff"/>
      <path id="Path_329" data-name="Path 329" d="M160,424h1.192v1.192H160Z" transform="translate(-149.274 -393.914)" fill="#fff"/>
      <path id="Path_330" data-name="Path 330" d="M208,376h1.192v1.192H208Z" transform="translate(-193.698 -349.49)" fill="#fff"/>
      <path id="Path_331" data-name="Path 331" d="M112,328h1.192v1.192H112Z" transform="translate(-104.85 -305.066)" fill="#fff"/>
      <path id="Path_332" data-name="Path 332" d="M160,328h1.192v1.192H160Z" transform="translate(-149.274 -305.066)" fill="#fff"/>
      <path id="Path_333" data-name="Path 333" d="M208,328h1.192v1.192H208Z" transform="translate(-193.698 -305.066)" fill="#fff"/>
      <path id="Path_334" data-name="Path 334" d="M0,0H1.192V1.192H0Z" transform="translate(22.695 5.877) rotate(-66.613)" fill="#fff"/>
      <path id="Path_335" data-name="Path 335" d="M0,0H1.192V1.192H0Z" transform="translate(21.274 9.158) rotate(-66.613)" fill="#fff"/>
      <path id="Path_336" data-name="Path 336" d="M0,0H1.192V1.192H0Z" transform="translate(19.857 12.444) rotate(-66.613)" fill="#fff"/>
      <path id="Path_337" data-name="Path 337" d="M0,0H1.192V1.192H0Z" transform="translate(18.436 15.724) rotate(-66.613)" fill="#fff"/>
      <path id="Path_338" data-name="Path 338" d="M0,0H1.192V1.192H0Z" transform="translate(17.018 19.01) rotate(-66.613)" fill="#fff"/>
      <path id="Path_339" data-name="Path 339" d="M0,0H1.192V1.192H0Z" transform="translate(25.976 7.294) rotate(-66.613)" fill="#fff"/>
      <path id="Path_340" data-name="Path 340" d="M0,0H1.192V1.192H0Z" transform="translate(24.557 10.577) rotate(-66.613)" fill="#fff"/>
      <path id="Path_341" data-name="Path 341" d="M0,0H1.192V1.192H0Z" transform="translate(23.14 13.863) rotate(-66.613)" fill="#fff"/>
      <path id="Path_342" data-name="Path 342" d="M0,0H1.192V1.192H0Z" transform="translate(21.719 17.143) rotate(-66.613)" fill="#fff"/>
      <path id="Path_343" data-name="Path 343" d="M0,0H1.192V1.192H0Z" transform="translate(20.301 20.429) rotate(-66.613)" fill="#fff"/>
      <path id="Path_344" data-name="Path 344" d="M0,0H1.192V1.192H0Z" transform="translate(4.93 14.719) rotate(-26.437)" fill="#fff"/>
      <path id="Path_345" data-name="Path 345" d="M0,0H1.192V1.192H0Z" transform="translate(8.131 13.127) rotate(-26.437)" fill="#fff"/>
      <path id="Path_346" data-name="Path 346" d="M0,0H1.192V1.192H0Z" transform="translate(9.723 16.328) rotate(-26.437)" fill="#fff"/>
      <path id="Path_347" data-name="Path 347" d="M0,0H1.192V1.192H0Z" transform="translate(11.333 11.536) rotate(-26.437)" fill="#fff"/>
      <path id="Path_348" data-name="Path 348" d="M0,0H1.192V1.192H0Z" transform="translate(3.339 11.517) rotate(-26.437)" fill="#fff"/>
      <path id="Path_349" data-name="Path 349" d="M0,0H1.192V1.192H0Z" transform="translate(6.54 9.926) rotate(-26.437)" fill="#fff"/>
      <path id="Path_350" data-name="Path 350" d="M0,0H1.192V1.192H0Z" transform="translate(9.742 8.335) rotate(-26.437)" fill="#fff"/>
      <path id="Path_351" data-name="Path 351" d="M0,0H1.192V1.192H0Z" transform="translate(12.939 14.726) rotate(-26.488)" fill="#fff"/>
      <path id="Path_352" data-name="Path 352" d="M0,0H1.192V1.192H0Z" transform="translate(29.259 8.713) rotate(-66.613)" fill="#fff"/>
      <path id="Path_353" data-name="Path 353" d="M0,0H1.192V1.192H0Z" transform="translate(27.84 11.996) rotate(-66.613)" fill="#fff"/>
      <path id="Path_354" data-name="Path 354" d="M0,0H1.192V1.192H0Z" transform="translate(26.421 15.279) rotate(-66.613)" fill="#fff"/>
      <path id="Path_355" data-name="Path 355" d="M0,0H1.192V1.192H0Z" transform="translate(25.002 18.562) rotate(-66.613)" fill="#fff"/>
      <path id="Path_356" data-name="Path 356" d="M0,0H1.192V1.192H0Z" transform="translate(23.583 21.845) rotate(-66.613)" fill="#fff"/>
      <path id="Path_357" data-name="Path 357" d="M112,424h1.192v1.192H112Z" transform="translate(-104.85 -393.914)" fill="#fff"/>
      <path id="Path_358" data-name="Path 358" d="M208,424h1.192v1.192H208Z" transform="translate(-193.698 -393.914)" fill="#fff"/>
    </g>
  </g>
</svg>
