<svg id="fast-forward" xmlns="http://www.w3.org/2000/svg" width="18.469" height="13.543" viewBox="0 0 18.469 13.543">
  <g id="Group_384" data-name="Group 384" transform="translate(8.003 0)">
    <g id="Group_383" data-name="Group 383" transform="translate(0 0)">
      <path id="Path_68" data-name="Path 68" d="M218.308,70.373l-5.54-6.156a.616.616,0,0,0-.458-.2h-3.694a.615.615,0,0,0-.458,1.027l5.17,5.745-5.17,5.744a.616.616,0,0,0,.458,1.028h3.694a.624.624,0,0,0,.458-.2l5.54-6.156A.616.616,0,0,0,218.308,70.373Z" transform="translate(-208 -64.013)" fill="#f07f1b"/>
    </g>
  </g>
  <g id="Group_386" data-name="Group 386" transform="translate(0 0)">
    <g id="Group_385" data-name="Group 385" transform="translate(0 0)">
      <path id="Path_69" data-name="Path 69" d="M10.308,70.373l-5.54-6.156a.616.616,0,0,0-.458-.2H.616A.615.615,0,0,0,.158,65.04l5.17,5.745L.158,76.528a.616.616,0,0,0,.458,1.028H4.31a.624.624,0,0,0,.458-.2l5.54-6.156A.616.616,0,0,0,10.308,70.373Z" transform="translate(0 -64.013)" fill="#f07f1b"/>
    </g>
  </g>
</svg>
