<svg xmlns="http://www.w3.org/2000/svg" xmlns:xlink="http://www.w3.org/1999/xlink" width="150" height="150" viewBox="0 0 150 150">
  <defs>
    <linearGradient id="linear-gradient" x1="0.5" x2="0.5" y2="1" gradientUnits="objectBoundingBox">
      <stop offset="0" stop-color="#e31f25"/>
      <stop offset="1" stop-color="#ff1f26"/>
    </linearGradient>
    <filter id="Area_SIZE:LARGE_STATE:DEFAULT_STYLE:STYLE2_" x="0" y="0" width="150" height="150" filterUnits="userSpaceOnUse">
      <feOffset dy="3" input="SourceAlpha"/>
      <feGaussianBlur stdDeviation="10" result="blur"/>
      <feFlood flood-opacity="0.082"/>
      <feComposite operator="in" in2="blur"/>
      <feComposite in="SourceGraphic"/>
    </filter>
  </defs>
  <g id="Group_550" data-name="Group 550" transform="translate(-1480 -3764)">
    <g id="Circle_Button_" data-name="Circle Button " transform="translate(1509.629 3791.179)">
      <g transform="matrix(1, 0, 0, 1, -29.63, -27.18)" filter="url(#Area_SIZE:LARGE_STATE:DEFAULT_STYLE:STYLE2_)">
        <rect id="Area_SIZE:LARGE_STATE:DEFAULT_STYLE:STYLE2_2" data-name="Area [SIZE:LARGE][STATE:DEFAULT][STYLE:STYLE2]" width="90" height="90" rx="45" transform="translate(30 27)" fill="url(#linear-gradient)"/>
      </g>
    </g>
    <g id="rupee-indian" transform="translate(1466.193 3811)">
      <path id="Path_9" data-name="Path 9" d="M104.375,11.328a1.1,1.1,0,0,0-.816-.319H97.487A12.291,12.291,0,0,0,95.214,5.9h8.274a1.091,1.091,0,0,0,1.136-1.136V1.136A1.092,1.092,0,0,0,103.487,0H73.942a1.094,1.094,0,0,0-1.136,1.136V5.859A1.152,1.152,0,0,0,73.942,7h5.149q7.492,0,9.517,4.013H73.942a1.094,1.094,0,0,0-1.136,1.136v3.622A1.093,1.093,0,0,0,73.942,16.9H89.106a6.939,6.939,0,0,1-3.64,4.439,16.025,16.025,0,0,1-7.546,1.527H73.942a1.152,1.152,0,0,0-1.136,1.136v4.51a1.062,1.062,0,0,0,.319.781q6.818,7.244,17.685,20.277A1.047,1.047,0,0,0,91.7,50h6.924a1.03,1.03,0,0,0,1.03-.639.97.97,0,0,0-.142-1.207Q89.142,35.44,83.211,29.119a18.01,18.01,0,0,0,9.8-3.906,13.276,13.276,0,0,0,4.581-8.31h5.966a1.094,1.094,0,0,0,1.136-1.136V12.145A1.106,1.106,0,0,0,104.375,11.328Z" fill="none" stroke="#fff" stroke-width="1.5"/>
    </g>
  </g>
</svg>
