<svg xmlns="http://www.w3.org/2000/svg" xmlns:xlink="http://www.w3.org/1999/xlink" width="80" height="80" viewBox="0 0 80 80">
  <defs>
    <linearGradient id="linear-gradient" x1="0.5" x2="0.5" y2="1" gradientUnits="objectBoundingBox">
      <stop offset="0" stop-color="#e31f25"/>
      <stop offset="1" stop-color="#ff1f26"/>
    </linearGradient>
  </defs>
  <g id="Group_922" data-name="Group 922" transform="translate(-261 -1749)">
    <g id="Group_914" data-name="Group 914" transform="translate(-438 -76)">
      <rect id="Area_SIZE:LARGE_STATE:DEFAULT_STYLE:STYLE2_" data-name="Area [SIZE:LARGE][STATE:DEFAULT][STYLE:STYLE2]" width="80" height="80" rx="40" transform="translate(699 1825)" fill="url(#linear-gradient)"/>
    </g>
    <g id="immunity" transform="translate(245.574 1764.126)">
      <g id="Group_906" data-name="Group 906" transform="translate(33.84 0)">
        <path id="Path_482" data-name="Path 482" d="M34.569,491a.729.729,0,0,0-.729.729v.583a.729.729,0,0,0,1.457,0v-.583A.729.729,0,0,0,34.569,491Z" transform="translate(-33.84 -443.294)" fill="#fff"/>
        <path id="Path_483" data-name="Path 483" d="M65.258,355.8a.728.728,0,0,0,1.029-.06c.221-.249.456-.49.7-.718a.729.729,0,1,0-1-1.061c-.273.257-.538.529-.787.81A.729.729,0,0,0,65.258,355.8Z" transform="translate(-61.984 -319.387)" fill="#fff"/>
        <path id="Path_484" data-name="Path 484" d="M41.737,393.816a.729.729,0,0,0-.961.371c-.152.343-.29.7-.411,1.053a.729.729,0,1,0,1.38.468c.107-.314.229-.628.363-.931A.729.729,0,0,0,41.737,393.816Z" transform="translate(-39.696 -355.496)" fill="#fff"/>
        <path id="Path_485" data-name="Path 485" d="M105.641,327.926c-.352.131-.7.279-1.041.441a.729.729,0,1,0,.628,1.315c.3-.143.609-.274.921-.39a.729.729,0,1,0-.508-1.366Z" transform="translate(-97.35 -296.023)" fill="#fff"/>
        <path id="Path_486" data-name="Path 486" d="M34.581,441.647H34.57a.729.729,0,0,0-.728.718q0,.093,0,.187v.889a.729.729,0,0,0,1.457,0v-.889q0-.083,0-.166A.729.729,0,0,0,34.581,441.647Z" transform="translate(-33.84 -398.736)" fill="#fff"/>
        <path id="Path_487" data-name="Path 487" d="M152.553,318.23c.159-.007.321-.01.482-.01h.069a.729.729,0,0,0,.45-1.3c-.142-.112-.284-.229-.419-.348a.9.9,0,1,0-.615,1.66Z" transform="translate(-140.333 -285.65)" fill="#fff"/>
        <path id="Path_488" data-name="Path 488" d="M126.422,281.539a.729.729,0,0,0,.629-1.1c-.158-.271-.306-.553-.438-.836a.729.729,0,0,0-1.321.616c.151.324.32.646.5.956A.729.729,0,0,0,126.422,281.539Z" transform="translate(-116.344 -252.059)" fill="#fff"/>
        <path id="Path_489" data-name="Path 489" d="M110.9,238.926a.729.729,0,0,0-.722-.684l-.583,0h-.005a1.326,1.326,0,0,0,.633,2.042.755.755,0,0,0,.083,0,.729.729,0,0,0,.642-.807C110.93,239.29,110.914,239.108,110.9,238.926Z" transform="translate(-101.574 -215.09)" fill="#fff"/>
        <path id="Path_490" data-name="Path 490" d="M83.052,234.1l.583,0h.005a1.063,1.063,0,1,0-1.312-1.316v.583A.729.729,0,0,0,83.052,234.1Z" transform="translate(-77.617 -209.509)" fill="#fff"/>
        <path id="Path_491" data-name="Path 491" d="M222.494,1.47h.03c.361-.015.732-.015,1.1,0a.729.729,0,0,0,.058-1.456c-.4-.016-.814-.016-1.213,0a.729.729,0,0,0,.029,1.457Z" transform="translate(-203.506 0)" fill="#fff"/>
        <path id="Path_492" data-name="Path 492" d="M355.385,76.662a.729.729,0,1,0,1.325-.606c-.167-.366-.352-.73-.549-1.082a.729.729,0,0,0-1.271.712C355.068,76,355.234,76.332,355.385,76.662Z" transform="translate(-323.612 -67.353)" fill="#fff"/>
        <path id="Path_493" data-name="Path 493" d="M321.057,34.985c.279.233.553.48.812.735a.729.729,0,0,0,1.021-1.04c-.288-.282-.59-.556-.9-.814a.729.729,0,1,0-.933,1.119Z" transform="translate(-292.914 -30.422)" fill="#fff"/>
        <path id="Path_494" data-name="Path 494" d="M126.6,36.023a.727.727,0,0,0,.511-.209c.259-.255.532-.5.812-.736a.729.729,0,1,0-.934-1.118c-.31.259-.612.533-.9.815a.729.729,0,0,0,.511,1.248Z" transform="translate(-116.931 -30.507)" fill="#fff"/>
        <path id="Path_495" data-name="Path 495" d="M274.9,9.078c.345.117.689.25,1.022.394a.729.729,0,1,0,.58-1.337c-.37-.161-.751-.308-1.134-.438a.729.729,0,1,0-.468,1.38Z" transform="translate(-251.033 -6.915)" fill="#fff"/>
        <path id="Path_496" data-name="Path 496" d="M170.673,9.586a.726.726,0,0,0,.29-.061c.333-.145.676-.278,1.02-.395a.729.729,0,1,0-.47-1.38c-.382.13-.763.277-1.132.438a.729.729,0,0,0,.291,1.4Z" transform="translate(-156.72 -6.963)" fill="#fff"/>
        <path id="Path_497" data-name="Path 497" d="M83.259,127.741H83.3a.729.729,0,0,0,.727-.687c.021-.364.057-.73.108-1.089a.729.729,0,1,0-1.443-.2c-.056.4-.1.8-.119,1.208a.729.729,0,0,0,.686.769Z" transform="translate(-77.837 -112.978)" fill="#fff"/>
        <path id="Path_498" data-name="Path 498" d="M95.768,77.148a.728.728,0,0,0,.965-.361c.151-.331.317-.66.495-.977a.729.729,0,1,0-1.272-.711c-.2.352-.381.717-.549,1.084A.729.729,0,0,0,95.768,77.148Z" transform="translate(-89.366 -67.465)" fill="#fff"/>
        <path id="Path_499" data-name="Path 499" d="M83.057,181.17a.729.729,0,0,0,.729-.729v-1.155a.729.729,0,0,0-1.457,0v1.155a.729.729,0,0,0,.729.729Z" transform="translate(-77.617 -161.208)" fill="#fff"/>
        <path id="Path_500" data-name="Path 500" d="M374.711,179.127a.729.729,0,1,0-1.457,0v1.155a.729.729,0,1,0,1.457,0Z" transform="translate(-340.276 -161.065)" fill="#fff"/>
        <path id="Path_501" data-name="Path 501" d="M371.822,125.805c.051.359.087.726.109,1.089a.729.729,0,0,0,.727.686h.044a.729.729,0,0,0,.685-.77c-.024-.4-.064-.809-.121-1.208a.729.729,0,1,0-1.443.2Z" transform="translate(-338.977 -112.832)" fill="#fff"/>
        <path id="Path_502" data-name="Path 502" d="M368.565,232.056a1.063,1.063,0,1,0-.583,2.044h.005l.583,0a.729.729,0,0,0,.724-.729v-.583A.729.729,0,0,0,368.565,232.056Z" transform="translate(-334.859 -209.509)" fill="#fff"/>
        <path id="Path_503" data-name="Path 503" d="M341.639,239.691a.729.729,0,0,0-.082-1.453h-.005l-.583,0a.729.729,0,0,0-.722.684c-.011.181-.027.364-.047.543a.729.729,0,0,0,.642.807.746.746,0,0,0,.083,0,.729.729,0,0,0,.714-.589Z" transform="translate(-310.429 -215.09)" fill="#fff"/>
        <path id="Path_504" data-name="Path 504" d="M331.261,272.992a.728.728,0,0,0,.965-.362c.111-.246.216-.5.31-.751a.729.729,0,1,0-1.366-.509c-.082.221-.174.443-.271.658A.729.729,0,0,0,331.261,272.992Z" transform="translate(-301.977 -244.575)" fill="#fff"/>
        <path id="Path_505" data-name="Path 505" d="M314.279,301.674a.729.729,0,0,0-1.024.118c-.113.142-.23.283-.349.418a.729.729,0,0,0,1.093.964c.136-.154.27-.315.4-.477A.729.729,0,0,0,314.279,301.674Z" transform="translate(-285.627 -272.221)" fill="#fff"/>
        <path id="Path_506" data-name="Path 506" d="M181.15,410.31a.6.6,0,0,1,.4.152,2.059,2.059,0,0,0,2.736,0,.6.6,0,0,1,.4-.152h3.14a.729.729,0,1,0,0-1.457h-3.14a2.057,2.057,0,0,0-1.368.52.6.6,0,0,1-.8,0,2.057,2.057,0,0,0-1.368-.52h-3.14a.729.729,0,0,0,0,1.457Z" transform="translate(-163.345 -369.128)" fill="#fff"/>
        <path id="Path_507" data-name="Path 507" d="M105.47,66.591a.729.729,0,0,0,.729-.729V64.227a2.974,2.974,0,0,0-2.256-2.888l-5.46-1.363a.726.726,0,0,0-.353,0l-5.462,1.363A2.974,2.974,0,0,0,90.5,63.5a9.628,9.628,0,0,0-1.031-.058h-2.51V59.781a8.585,8.585,0,0,0,4.22-7.387v-.547h.842a2.3,2.3,0,0,0,2.3-2.3v-5.5c0-.183,0-.346-.012-.5a.729.729,0,1,0-1.455.074c.007.129.01.268.01.426v1.787a2.287,2.287,0,0,0-.842-.16h-1.57a.729.729,0,0,0-.729.729v2.207L86.651,43.78a.729.729,0,0,0-1.078-.172l-2.349,1.931a3.205,3.205,0,0,1-2.031.728H77.988a.729.729,0,0,0-.573.278l-1.937,2.466v-2.6a.729.729,0,0,0-.729-.729h-1.57a2.286,2.286,0,0,0-.842.16V44.051a10.267,10.267,0,0,1,19.9-3.537.729.729,0,0,0,1.368-.5,11.8,11.8,0,0,0-2.718-4.249,11.722,11.722,0,0,0-20.01,8.288v5.5a2.3,2.3,0,0,0,2.3,2.3h.842v.547a8.584,8.584,0,0,0,4.221,7.388v3.662H75.731a9.56,9.56,0,0,0-9.492,8.411.729.729,0,1,0,1.447.174A8.1,8.1,0,0,1,75.731,64.9H78.97a.729.729,0,0,0,.729-.729v-3.7a8.582,8.582,0,0,0,5.805,0v3.7a.729.729,0,0,0,.729.729h3.238a8.144,8.144,0,0,1,.941.057v5.266a7.488,7.488,0,0,0,3.8,6.508l1.323.747H74.006V76.244a.729.729,0,0,0-1.457,0v1.234H67.626V75.34a.729.729,0,0,0-1.457,0v2.866a.729.729,0,0,0,.729.729H98.305a.728.728,0,0,0,.358-.094l3.737-2.11a7.487,7.487,0,0,0,3.8-6.508v-.96a.729.729,0,1,0-1.457,0v.96a6.027,6.027,0,0,1-3.058,5.239L98.305,77.37l-3.379-1.908a6.028,6.028,0,0,1-3.057-5.239v-6a1.518,1.518,0,0,1,1.151-1.474l5.285-1.319,5.284,1.319a1.519,1.519,0,0,1,1.152,1.474v1.635a.729.729,0,0,0,.729.729ZM91.182,47.135h.842a.843.843,0,0,1,.842.842v1.57a.843.843,0,0,1-.842.842h-.842ZM72.337,49.547v-1.57a.843.843,0,0,1,.842-.842h.842v3.254h-.842A.843.843,0,0,1,72.337,49.547Zm3.141,2.846V51.37l2.864-3.646h2.852a4.666,4.666,0,0,0,2.956-1.059l1.713-1.408,3.861,6.073v1.064a7.123,7.123,0,0,1-14.246,0Z" transform="translate(-63.028 -29.189)" fill="#fff"/>
        <path id="Path_508" data-name="Path 508" d="M352.094,371.684h3.141a.729.729,0,0,0,.729-.729v-1.627h1.627a.729.729,0,0,0,.729-.729v-3.141a.729.729,0,0,0-.729-.729h-1.627V363.1a.729.729,0,0,0-.729-.729h-3.141a.729.729,0,0,0-.729.729v1.627h-1.627a.729.729,0,0,0-.729.729V368.6a.729.729,0,0,0,.729.729h1.627v1.627a.729.729,0,0,0,.729.729Zm-1.627-3.813v-1.683h1.627a.729.729,0,0,0,.729-.729v-1.627h1.683v1.627a.729.729,0,0,0,.729.729h1.627v1.683h-1.627a.729.729,0,0,0-.729.729v1.627h-1.683V368.6a.729.729,0,0,0-.729-.729Z" transform="translate(-318.388 -327.166)" fill="#fff"/>
      </g>
    </g>
  </g>
</svg>
