<svg xmlns="http://www.w3.org/2000/svg" xmlns:xlink="http://www.w3.org/1999/xlink" width="70" height="70" viewBox="0 0 70 70">
  <defs>
    <linearGradient id="linear-gradient" x1="0.5" x2="0.5" y2="1" gradientUnits="objectBoundingBox">
      <stop offset="0" stop-color="#e31f25"/>
      <stop offset="1" stop-color="#ff1f26"/>
    </linearGradient>
  </defs>
  <g id="Group_739" data-name="Group 739" transform="translate(-1638 -4019)">
    <rect id="Area_SIZE:LARGE_STATE:DEFAULT_STYLE:STYLE2_" data-name="Area [SIZE:LARGE][STATE:DEFAULT][STYLE:STYLE2]" width="70" height="70" rx="35" transform="translate(1638 4019)" fill="url(#linear-gradient)"/>
    <path id="rye-bread_1_" data-name="rye-bread (1)" d="M37.8,21.553a.561.561,0,0,0-.587.532,7.453,7.453,0,0,1-.67,2.9c-1.351,2.732-9.04,1.361-19.14-3.41A24.234,24.234,0,0,0,16,19.448c-1.324-1.781-3.273-3.791-5.039-3.257a5.306,5.306,0,0,0-1.506.993c-.667-.568-.832-.925-.868-1.093-.2-.926.375-4.112,2.242-8.012,1.93-4.033,3.643-5.854,4.74-6.672.348-.26,1.268-.576,3.518.225.307.109.5.243.364.656a22.823,22.823,0,0,0-.92,11.433c.122.532.6.475.937.31a22.674,22.674,0,0,0,8.309-7.592q.249-.408.61-.194A25.012,25.012,0,0,1,32.349,9.9c.248.285-.075.664-.2.907l-2.637,5.333a.559.559,0,0,0,.591.8,10.478,10.478,0,0,0,4.879-2.312.385.385,0,0,1,.572.14,17.812,17.812,0,0,1,1.383,4.084.561.561,0,0,0,1.1-.223,18.935,18.935,0,0,0-1.469-4.342,1.522,1.522,0,0,0-1.612-.836,21.636,21.636,0,0,0-1.627-2.441A1.672,1.672,0,0,0,33.2,9.168a26.136,26.136,0,0,0-4.146-3.822,1.476,1.476,0,0,0-1.819.048A30.207,30.207,0,0,0,24.04,3.554,30.537,30.537,0,0,0,20.6,2.092,1.562,1.562,0,0,0,19.457.577c-2.09-.744-3.625-.767-4.563-.068C12.723,2.127,10.933,5.255,9.813,7.6A28.458,28.458,0,0,0,7.823,13a8.55,8.55,0,0,0-.337,3.328,3.132,3.132,0,0,0,1.066,1.56c-1.041.832-2.108,1.739-2.511,2.147a1.59,1.59,0,0,0-.232,1.811A21.5,21.5,0,0,0,4,24.223a1.514,1.514,0,0,0-1.666.737C.125,28.954-.511,33.373.709,36.218c.575,1.34,2.452,2.035,5.461,2.035q.637,0,1.341-.042a47.664,47.664,0,0,0,11.51-2.416.559.559,0,0,0,.194-.112,1.873,1.873,0,0,0,.761-.53c.953-1.091,1.064-3.5.3-6.612A25.747,25.747,0,0,0,18.3,23.224,52.49,52.49,0,0,0,30.022,27.2a17.49,17.49,0,0,0,3.054.306c2.308,0,3.807-.676,4.473-2.021a8.571,8.571,0,0,0,.785-3.341.56.56,0,0,0-.532-.587ZM33.979,14A9.757,9.757,0,0,1,31.05,15.57l1.707-3.453A20.324,20.324,0,0,1,33.979,14ZM20.014,4.329q.145-.576.321-1.144a29.313,29.313,0,0,1,6.186,3.083A22.643,22.643,0,0,1,19.5,12.742,22.7,22.7,0,0,1,20.014,4.329ZM6.3,22.993l1.558,3.632a9.755,9.755,0,0,1-2.919-1.8A20.245,20.245,0,0,1,6.3,22.993Zm12.89,5.814c.782,3.2.458,5.019-.058,5.608-.116.132-.467.534-1.527-.051a7.3,7.3,0,0,1-2.076-2.025.561.561,0,0,0-.893.677,8.786,8.786,0,0,0,2.3,2.258,44.268,44.268,0,0,1-9.5,1.819c-4.525.268-5.5-.831-5.705-1.316C.912,33.848.828,30,3.312,25.5a.405.405,0,0,1,.584-.1,12.214,12.214,0,0,0,2.043,1.538A9.354,9.354,0,0,0,8.726,28.05a.559.559,0,0,0,.634-.768L6.978,21.73c-.1-.227-.384-.661-.14-.908.364-.369,1.484-1.321,2.551-2.17A21.016,21.016,0,0,0,11.5,27.366c.482,1.125.988,2.167,1.5,3.1a.561.561,0,0,0,.981-.543c-.5-.9-.987-1.907-1.454-3-1.469-3.424-2.126-6.173-2.01-8.4a1.362,1.362,0,0,1,.764-1.257c1.283-.388,3.245,2.086,3.816,2.853a25.127,25.127,0,0,1,4.094,8.69Z" transform="translate(1653.784 4034.874)" fill="#fff"/>
  </g>
</svg>
