<svg xmlns="http://www.w3.org/2000/svg" xmlns:xlink="http://www.w3.org/1999/xlink" width="70" height="70" viewBox="0 0 70 70">
  <defs>
    <linearGradient id="linear-gradient" x1="0.5" x2="0.5" y2="1" gradientUnits="objectBoundingBox">
      <stop offset="0" stop-color="#e31f25"/>
      <stop offset="1" stop-color="#ff1f26"/>
    </linearGradient>
  </defs>
  <g id="Group_789" data-name="Group 789" transform="translate(-486 -4007)">
    <rect id="Area_SIZE:LARGE_STATE:DEFAULT_STYLE:STYLE2_" data-name="Area [SIZE:LARGE][STATE:DEFAULT][STYLE:STYLE2]" width="70" height="70" rx="35" transform="translate(486 4007)" fill="url(#linear-gradient)"/>
    <g id="fruits" transform="translate(503.216 4024.5)">
      <path id="Path_405" data-name="Path 405" d="M50.246,38.048h-2.9V34.567A9.838,9.838,0,0,0,44.2,27.351a11.6,11.6,0,0,1,2.942-3.945.58.58,0,0,0-.375-1.023,9.163,9.163,0,0,0-4.359.981,10.323,10.323,0,0,1,.766-1.113A13.41,13.41,0,0,1,44.819,20.5a.58.58,0,0,0-.374-1.023,9.329,9.329,0,0,0-4.13.867c-.163-1.213-.713-3.357-2.573-4.287a.58.58,0,0,0-.519,0c-1.858.929-2.409,3.069-2.573,4.283a9.319,9.319,0,0,0-4.13-.863.58.58,0,0,0-.375,1.023,13.405,13.405,0,0,1,1.647,1.746,10.335,10.335,0,0,1,.765,1.11,9.17,9.17,0,0,0-4.357-.978.58.58,0,0,0-.375,1.023,11.6,11.6,0,0,1,2.942,3.945,9.838,9.838,0,0,0-3.147,7.216v.067a5.352,5.352,0,0,0-1.94.739,1.707,1.707,0,0,1-.2.13,9.236,9.236,0,0,1,.884-3.514h0a.58.58,0,1,0-.966-.644h0a10.179,10.179,0,0,0-1.1,4.3,1.645,1.645,0,0,1-.539-.268,5.544,5.544,0,0,0-2.514-.805,5.006,5.006,0,0,0-3.854,1.742A6.2,6.2,0,0,0,16.095,41.3l.363,2.435a12.88,12.88,0,0,0,1.488,4.4,4.993,4.993,0,0,0,4.33,2.68,4.688,4.688,0,0,0,1.266-.175l.039-.012.971-.347a.491.491,0,0,1,.334,0l.97.347.039.012a4.689,4.689,0,0,0,1.266.175,4.813,4.813,0,0,0,3.427-1.473,14.4,14.4,0,0,0,16.142-2.379,11.6,11.6,0,0,0,4.1-8.334A.58.58,0,0,0,50.246,38.048ZM35.032,35.14l2.457-2.386,2.462,2.39L37.5,37.526Zm1.334,2.908H33.049a5.77,5.77,0,0,0-.3-.692L34.2,35.949Zm4.418-2.1,2.159,2.1h-4.32Zm-2.462-4.008,2.455-2.384,2.464,2.393-2.456,2.382Zm.406-5.992a8.64,8.64,0,0,1,3.031,1.036l-.982.953Zm1.216,2.8-2.455,2.384-2.454-2.382,2.456-2.385ZM34.2,27.945l-.989-.96a8.638,8.638,0,0,1,3.044-1.034Zm0,1.617,2.454,2.383L34.2,34.332l-2.457-2.38Zm-.837,5.578L32.1,36.372l-.053-.063a4.961,4.961,0,0,0-3.058-1.682l1.92-1.865Zm-.388,8.594.363-2.435a7.013,7.013,0,0,0,0-2.092h13.9a9.543,9.543,0,0,1-3.176,5.349A10.829,10.829,0,0,1,36.9,47.332a10.634,10.634,0,0,1-4.566-1.051,13.125,13.125,0,0,0,.641-2.545ZM45.2,38.048l.982-.951v.951Zm.982-2.567-2.112,2.046-2.455-2.383,2.456-2.382,2.111,2.05Zm-.129-2.413-1.148-1.115.65-.63a8.624,8.624,0,0,1,.5,1.745Zm-1.033-2.843-.948.919L41.61,28.752l1.14-1.107a8.769,8.769,0,0,1,2.273,2.582Zm.216-6.572a11.34,11.34,0,0,0-1.978,2.925,9.874,9.874,0,0,0-1.654-.97c.007-.09.018-.181.032-.271a6.5,6.5,0,0,1,3.6-1.683Zm-2.322-2.9a9.267,9.267,0,0,0-2.427,4.42,9.788,9.788,0,0,0-2.1-.428c-.068-.211-.155-.45-.266-.707a6.168,6.168,0,0,1,4.795-3.284Zm-5.436-3.5c1.438.937,1.688,3.085,1.732,3.764a7.052,7.052,0,0,0-1.732,1.83,7.177,7.177,0,0,0-.916-1.131,7.053,7.053,0,0,0-.815-.7C35.794,20.33,36.045,18.184,37.482,17.248Zm-5.435,3.506a6.18,6.18,0,0,1,5.1,3.955,9.812,9.812,0,0,0-2.673.464q-.027-.177-.067-.352l.02-.019-.032-.034A9.8,9.8,0,0,0,32.046,20.754Zm-2.323,2.9a6.484,6.484,0,0,1,3.6,1.685c.014.09.025.18.032.27a9.874,9.874,0,0,0-1.654.97A11.337,11.337,0,0,0,29.724,23.654Zm2.5,3.985,1.149,1.115-2.462,2.391-.96-.93a8.768,8.768,0,0,1,2.273-2.576Zm-2.81,3.672.664.643L28.9,33.09a8.629,8.629,0,0,1,.507-1.779Zm1.065,16.258a3.852,3.852,0,0,1-3.327,2.083,3.491,3.491,0,0,1-.924-.125l-.95-.34a1.66,1.66,0,0,0-1.116,0l-.951.34a3.743,3.743,0,0,1-4.25-1.958,11.722,11.722,0,0,1-1.353-4l-.363-2.435a5.049,5.049,0,0,1,1.025-4.063,3.862,3.862,0,0,1,2.975-1.339,4.61,4.61,0,0,1,1.817.573,2.776,2.776,0,0,0,1.142.509c-.029.462-.045.868-.053,1.179a1.73,1.73,0,0,1-.768-.356l.006.006a.58.58,0,1,0-.82.821,3.084,3.084,0,0,0,2.151.75,3.082,3.082,0,0,0,2.151-.75.58.58,0,1,0-.821-.821,1.752,1.752,0,0,1-.74.344c.01-.351.028-.761.058-1.2a2.783,2.783,0,0,0,1.01-.48,4.614,4.614,0,0,1,1.817-.573,3.862,3.862,0,0,1,2.975,1.339,5.049,5.049,0,0,1,1.025,4.063l-.363,2.435A11.723,11.723,0,0,1,30.475,47.569ZM45.947,46.1a13.234,13.234,0,0,1-14.621,2.3c.056-.089.111-.18.163-.273q.214-.384.4-.781A11.8,11.8,0,0,0,36.9,48.492a11.988,11.988,0,0,0,7.934-3.066,10.638,10.638,0,0,0,3.582-6.217h1.227A10.714,10.714,0,0,1,45.947,46.1Z" transform="translate(-16.015 -16)" fill="#fff"/>
      <ellipse id="Ellipse_32" data-name="Ellipse 32" cx="0.58" cy="0.58" rx="0.58" ry="0.58" transform="translate(27.849 24.369)" fill="#fff"/>
      <ellipse id="Ellipse_33" data-name="Ellipse 33" cx="0.58" cy="0.58" rx="0.58" ry="0.58" transform="translate(24.948 27.27)" fill="#fff"/>
      <ellipse id="Ellipse_34" data-name="Ellipse 34" cx="0.58" cy="0.58" rx="0.58" ry="0.58" transform="translate(22.047 25.529)" fill="#fff"/>
      <ellipse id="Ellipse_35" data-name="Ellipse 35" cx="0.58" cy="0.58" rx="0.58" ry="0.58" transform="translate(18.566 25.529)" fill="#fff"/>
      <ellipse id="Ellipse_36" data-name="Ellipse 36" cx="0.58" cy="0.58" rx="0.58" ry="0.58" transform="translate(20.306 29.011)" fill="#fff"/>
    </g>
  </g>
</svg>
