<svg xmlns="http://www.w3.org/2000/svg" xmlns:xlink="http://www.w3.org/1999/xlink" width="80" height="80" viewBox="0 0 80 80">
  <defs>
    <linearGradient id="linear-gradient" x1="0.5" x2="0.5" y2="1" gradientUnits="objectBoundingBox">
      <stop offset="0" stop-color="#e31f25"/>
      <stop offset="1" stop-color="#ff1f26"/>
    </linearGradient>
  </defs>
  <g id="Group_591" data-name="Group 591" transform="translate(-280 -2004)">
    <g id="Circle_Button_" data-name="Circle Button " transform="translate(280 2004)">
      <rect id="Area_SIZE:LARGE_STATE:DEFAULT_STYLE:STYLE2_" data-name="Area [SIZE:LARGE][STATE:DEFAULT][STYLE:STYLE2]" width="80" height="80" rx="40" transform="translate(0)" fill="url(#linear-gradient)"/>
    </g>
    <g id="chemistry_1_" data-name="chemistry (1)" transform="translate(294.857 2018.857)">
      <g id="Group_521" data-name="Group 521" transform="translate(0 0)">
        <g id="Group_520" data-name="Group 520" transform="translate(0 0)">
          <path id="Path_199" data-name="Path 199" d="M41.684,18.678c5.073-2.93,8.579-5.792,9.48-7.947a2.64,2.64,0,0,0,.081-2.113c-.75-1.751-3.6-2.333-8.451-1.743a3.3,3.3,0,0,0-6.271,1.175c-1.6.385-3.276.842-5,1.365V6.652h1.659V.016H18.249V6.652h1.659V9.413c-9.729-2.961-18.351-4-19.724-.794C-.978,11.328,3.608,15.165,9.71,18.675c-5.132,2.956-8.583,5.815-9.464,8a2.62,2.62,0,0,0-.062,2.067C.81,30.2,2.839,30.711,5.37,30.711a30.267,30.267,0,0,0,4.393-.381,16.589,16.589,0,1,0,31.9-.006,30.5,30.5,0,0,0,4.429.387c2.862,0,4.588-.659,5.152-1.974a2.64,2.64,0,0,0-.081-2.113C50.263,24.47,46.756,21.608,41.684,18.678ZM39.814,6.652A1.659,1.659,0,1,1,38.155,8.31,1.661,1.661,0,0,1,39.814,6.652Zm-8.294,4.5c1.827-.565,3.6-1.054,5.286-1.461a3.3,3.3,0,0,0,6.305-1.182c4.39-.52,6.31.068,6.608.763a1.084,1.084,0,0,1-.088.819c-.719,1.721-4.117,4.551-9.635,7.642-2.537-1.38-5.4-2.758-8.477-4.072Zm6.737,7.526c-1.241.654-2.575,1.317-3.99,1.979a16.694,16.694,0,0,0-2.747-1.335V15.466C33.984,16.535,36.245,17.616,38.257,18.678Zm-18.35-17H31.52V4.993H28.2V6.652h1.659v6.317c-.489-.2-.975-.4-1.471-.6-2.265-.89-4.564-1.712-6.823-2.44V6.652h4.977V4.993H19.908V1.675ZM21,20.7l.567-.19V11.672q2.949.969,6.216,2.244c.709.279,1.4.56,2.079.842V20.5l.567.19a14.946,14.946,0,0,1,1.961.819q-2.187.972-4.607,1.925c-2.225.876-4.451,1.662-6.636,2.367a3.306,3.306,0,0,0-6.216,1.582c0,.068.016.131.02.2-.911.225-1.784.428-2.591.6A14.908,14.908,0,0,1,21,20.7Zm-1.092,6.692a1.659,1.659,0,1,1-1.659-1.659A1.661,1.661,0,0,1,19.908,27.388Zm-2.745-6.731q-2.169-1.013-4.011-1.982c1.991-1.045,4.253-2.123,6.757-3.207v3.854A16.643,16.643,0,0,0,17.162,20.657ZM1.708,9.273c.7-1.627,7.644-1.4,18.2,1.868v2.518c-3.114,1.327-5.978,2.7-8.5,4.071C4.106,13.661,1.216,10.421,1.708,9.273Zm0,18.812a1.058,1.058,0,0,1,.076-.791c.674-1.667,3.893-4.476,9.62-7.672,1.35.732,2.749,1.442,4.16,2.118a16.562,16.562,0,0,0-5.195,6.813C4.685,29.51,2.063,28.914,1.708,28.084Zm9.076,6.768a14.909,14.909,0,0,1,.809-4.834c1.372-.259,2.691-.556,3.868-.848a3.31,3.31,0,0,0,6.1-1.755c2.246-.723,4.536-1.533,6.825-2.432,2-.785,3.914-1.6,5.744-2.442a14.886,14.886,0,0,1,5.926,8.21,31.789,31.789,0,0,0-11.283,2.891,41.618,41.618,0,0,1-17.768,3.7A14.868,14.868,0,0,1,10.784,34.853Zm24.883-1.659a3.312,3.312,0,0,1-6.034,1.893,40.9,40.9,0,0,1,6.018-2.056C35.654,33.085,35.667,33.139,35.667,33.194ZM25.714,49.782A14.946,14.946,0,0,1,11.38,38.991a42.4,42.4,0,0,0,16.687-3.275,4.972,4.972,0,0,0,9.259-2.522A4.888,4.888,0,0,0,37.3,32.7a25.028,25.028,0,0,1,3.138-.3A14.921,14.921,0,0,1,25.714,49.782Zm24.006-21.7c-.289.674-2.448,1.512-8.663.466a16.561,16.561,0,0,0-5.2-6.816c1.455-.7,2.841-1.4,4.14-2.11,5.518,3.09,8.916,5.921,9.635,7.642A1.075,1.075,0,0,1,49.719,28.084Z" transform="translate(0 -0.016)" fill="#fff"/>
          <path id="Path_200" data-name="Path 200" d="M179.33,384.016a3.318,3.318,0,1,0,3.318,3.318A3.321,3.321,0,0,0,179.33,384.016Zm0,4.977a1.659,1.659,0,1,1,1.659-1.659A1.661,1.661,0,0,1,179.33,388.993Z" transform="translate(-157.763 -344.203)" fill="#fff"/>
        </g>
      </g>
    </g>
  </g>
</svg>
