<svg xmlns="http://www.w3.org/2000/svg" xmlns:xlink="http://www.w3.org/1999/xlink" width="70" height="70" viewBox="0 0 70 70">
  <defs>
    <linearGradient id="linear-gradient" x1="0.5" x2="0.5" y2="1" gradientUnits="objectBoundingBox">
      <stop offset="0" stop-color="#e31f25"/>
      <stop offset="1" stop-color="#ff1f26"/>
    </linearGradient>
  </defs>
  <g id="Group_740" data-name="Group 740" transform="translate(-1638 -4019)">
    <rect id="Area_SIZE:LARGE_STATE:DEFAULT_STYLE:STYLE2_" data-name="Area [SIZE:LARGE][STATE:DEFAULT][STYLE:STYLE2]" width="70" height="70" rx="35" transform="translate(1638 4019)" fill="url(#linear-gradient)"/>
    <g id="candy" transform="translate(1654.412 4035.425)">
      <path id="Path_283" data-name="Path 283" d="M198.75,5.561,199.8,4.3l5.762,9.98-1.615.281L197.79,18.12l.545.944,5.99-3.458,2.289-.4,4.744-2.739-2.937-1.453.169-2.616-2.35-1.162.169-2.616-2.35-1.162.211-3.27-4.744,2.739-1.489,1.783-1.382.8.545.944Zm4.3-3.406-.127,1.962,2.35,1.162L205.1,7.894l2.35,1.162-.169,2.616,1.762.872-2.423,1.4-6-10.388Z" transform="translate(-182.359 -0.192)" fill="#fff"/>
      <path id="Path_284" data-name="Path 284" d="M2.768,91.723l2.35,1.162L4.949,95.5,7.3,96.662l-.211,3.27,4.744-2.739,1.489-1.783,1.712-.988-.545-.944-1.88,1.085-1.051,1.258-5.762-9.98L7.41,85.56,13.9,81.814l-.545-.944-6.32,3.649-2.289.4L0,87.655l2.937,1.452ZM2.31,87.581l2.423-1.4,6,10.388-2.423,1.4.126-1.962-2.35-1.162.169-2.616L3.9,91.068l.169-2.616Z" transform="translate(0 -75.005)" fill="#fff"/>
      <path id="Path_285" data-name="Path 285" d="M154.464,123.951a3.817,3.817,0,1,0-4.674,2.7,3.836,3.836,0,0,0,.994.132,3.822,3.822,0,0,0,3.68-2.83Zm-2.323,1.373a2.726,2.726,0,1,1,1.27-1.655A2.729,2.729,0,0,1,152.141,125.324Z" transform="translate(-136.278 -110.499)" fill="#fff"/>
      <path id="Path_286" data-name="Path 286" d="M395.475,130.954v-7.945a2.73,2.73,0,0,0-2.279-2.689l2.2-5.126H392.3v1.09h1.438l-1.714,4h-2.189l-1.714-4h3.087v-1.09H386.47l2.2,5.126a2.73,2.73,0,0,0-2.279,2.689v11.632a2.73,2.73,0,0,0,2.279,2.689l-2.2,5.126h3.092v-1.09h-1.438l1.714-4h2.189l1.714,4h-3.087v1.09h4.741l-2.2-5.126a2.73,2.73,0,0,0,2.279-2.689v-2.6h-1.09v2.6a1.638,1.638,0,0,1-1.636,1.636h-3.635a1.638,1.638,0,0,1-1.636-1.636v-1.272H391v-1.09h-3.526V129.37h6.906v1.584Zm-8-2.674v-5.271a1.638,1.638,0,0,1,1.636-1.636h3.635a1.638,1.638,0,0,1,1.636,1.636v1.272h-3.526v1.09h3.526v2.908Z" transform="translate(-358.298 -106.833)" fill="#fff"/>
      <path id="Path_287" data-name="Path 287" d="M46.9,321.405l-1.074.189.661,3.749a.954.954,0,0,1,.015.165.905.905,0,0,1-1.206.852l-4.09-1.413a6.387,6.387,0,0,0,.072-.96,6.321,6.321,0,0,0-.781-3.052l3.362-2.728a.892.892,0,0,1,.567-.2.913.913,0,0,1,.9.752l.311,1.765,1.074-.189-.311-1.765a2,2,0,0,0-1.974-1.653,1.971,1.971,0,0,0-1.254.448l-3.283,2.663A6.358,6.358,0,0,0,28.913,321.9l-3.872-1.337a2,2,0,0,0-2.653,1.882,2.043,2.043,0,0,0,.031.355l.684,3.882,1.074-.189-.684-3.882a.948.948,0,0,1-.015-.165.9.9,0,0,1,1.206-.852l3.959,1.367a6.355,6.355,0,0,0,.732,4.146l-3.254,2.64a.892.892,0,0,1-.567.2.913.913,0,0,1-.9-.752l-.288-1.632-1.074.189.288,1.632a2,2,0,0,0,1.974,1.653,1.971,1.971,0,0,0,1.254-.448l3.184-2.583a6.358,6.358,0,0,0,10.958-1.993l3.992,1.379a2,2,0,0,0,2.653-1.882,2.042,2.042,0,0,0-.031-.354ZM34.92,329.258a5.257,5.257,0,0,1-3.878-1.706H33.03v-1.09H30.268a5.235,5.235,0,0,1-.433-1.09h1.886v-1.09H29.658c-.005-.1-.009-.195-.009-.293a5.268,5.268,0,0,1,9.149-3.565h-1.98v1.09h2.754a5.235,5.235,0,0,1,.433,1.09H38.127v1.09h2.055c.005.1.009.195.009.293A5.277,5.277,0,0,1,34.92,329.258Z" transform="translate(-20.76 -293.888)" fill="#fff"/>
      <path id="Path_288" data-name="Path 288" d="M417.887,240.194h1.09v1.09h-1.09Z" transform="translate(-387.508 -222.746)" fill="#fff"/>
      <path id="Path_289" data-name="Path 289" d="M464.887,350.194h1.09v1.09h-1.09Z" transform="translate(-431.091 -324.749)" fill="#fff"/>
      <path id="Path_290" data-name="Path 290" d="M190.887,365.194h1.09v1.09h-1.09Z" transform="translate(-177.01 -338.659)" fill="#fff"/>
      <path id="Path_291" data-name="Path 291" d="M183.776,448.26h1.09v1.09h-1.09Z" transform="translate(-170.416 -415.686)" fill="#fff"/>
    </g>
  </g>
</svg>
