<svg xmlns="http://www.w3.org/2000/svg" xmlns:xlink="http://www.w3.org/1999/xlink" width="130" height="130" viewBox="0 0 130 130">
  <defs>
    <linearGradient id="linear-gradient" x1="0.5" x2="0.5" y2="1" gradientUnits="objectBoundingBox">
      <stop offset="0" stop-color="#e31f25"/>
      <stop offset="1" stop-color="#ff1f26"/>
    </linearGradient>
    <filter id="Area_SIZE:LARGE_STATE:DEFAULT_STYLE:STYLE2_" x="0" y="0" width="130" height="130" filterUnits="userSpaceOnUse">
      <feOffset dy="3" input="SourceAlpha"/>
      <feGaussianBlur stdDeviation="10" result="blur"/>
      <feFlood flood-opacity="0.082"/>
      <feComposite operator="in" in2="blur"/>
      <feComposite in="SourceGraphic"/>
    </filter>
  </defs>
  <g id="Group_632" data-name="Group 632" transform="translate(-464 -3992)">
    <g transform="matrix(1, 0, 0, 1, 464, 3992)" filter="url(#Area_SIZE:LARGE_STATE:DEFAULT_STYLE:STYLE2_)">
      <rect id="Area_SIZE:LARGE_STATE:DEFAULT_STYLE:STYLE2_2" data-name="Area [SIZE:LARGE][STATE:DEFAULT][STYLE:STYLE2]" width="70" height="70" rx="35" transform="translate(30 27)" fill="url(#linear-gradient)"/>
    </g>
    <g id="cake" transform="translate(503.025 4029.49)">
      <path id="Path_173" data-name="Path 173" d="M43.917,57.317H11.2a.643.643,0,0,1-.643-.643V42.652a.643.643,0,0,1,1.286,0V56.031H43.274V42.652a.643.643,0,0,1,1.286,0V56.674A.643.643,0,0,1,43.917,57.317Z" transform="translate(-1.583 -14.282)" fill="#fff" stroke="#fff" stroke-width="1"/>
      <path id="Path_174" data-name="Path 174" d="M37.552,23.907a.643.643,0,0,1-.643-.643V15.179H34.1v8.086a.643.643,0,1,1-1.286,0V15.118a1.229,1.229,0,0,1,1.227-1.227h2.921A1.229,1.229,0,0,1,38.2,15.118v8.146A.643.643,0,0,1,37.552,23.907Z" transform="translate(-9.532 -4.242)" fill="#fff" stroke="#fff" stroke-width="1"/>
      <path id="Path_175" data-name="Path 175" d="M35.692,9.148a2.358,2.358,0,0,1-2.356-2.356c0-1.029,1.369-3.68,1.788-4.468a.669.669,0,0,1,1.135,0c.419.789,1.788,3.442,1.788,4.468A2.358,2.358,0,0,1,35.692,9.148Zm0-5.1a11.365,11.365,0,0,0-1.07,2.746,1.07,1.07,0,1,0,2.14,0,11.364,11.364,0,0,0-1.07-2.746Z" transform="translate(-9.717)" fill="#fff" stroke="#fff" stroke-width="1"/>
      <path id="Path_176" data-name="Path 176" d="M36.643,14.191A.643.643,0,0,1,36,13.548V11.756a.643.643,0,1,1,1.286,0v1.792A.643.643,0,0,1,36.643,14.191Z" transform="translate(-10.668 -3.251)" fill="#fff" stroke="#fff" stroke-width="1"/>
      <path id="Path_177" data-name="Path 177" d="M32.5,38.1a5.217,5.217,0,0,1-3.5-1.3,4.1,4.1,0,0,0-5.46,0,5.376,5.376,0,0,1-7,0,4.108,4.108,0,0,0-5.465,0,6.12,6.12,0,0,1-1.893,1.068,1.746,1.746,0,0,1-1.552-.257,1.7,1.7,0,0,1-.7-1.384v-5.2a3.568,3.568,0,0,1,3.564-3.564H42.035A3.568,3.568,0,0,1,45.6,31.034v5.2a1.7,1.7,0,0,1-.7,1.384,1.726,1.726,0,0,1-1.551.257,6.112,6.112,0,0,1-1.89-1.067,4.1,4.1,0,0,0-5.457,0A5.217,5.217,0,0,1,32.5,38.1Zm-6.232-3.623a5.217,5.217,0,0,1,3.5,1.3,4.1,4.1,0,0,0,5.461,0,5.371,5.371,0,0,1,7,0,4.937,4.937,0,0,0,1.505.869.45.45,0,0,0,.4-.064.422.422,0,0,0,.176-.348v-5.2a2.281,2.281,0,0,0-2.279-2.278H10.485a2.281,2.281,0,0,0-2.279,2.278v5.2a.424.424,0,0,0,.176.347.45.45,0,0,0,.406.064,4.937,4.937,0,0,0,1.508-.87,5.377,5.377,0,0,1,7.006,0,4.1,4.1,0,0,0,5.461,0,5.218,5.218,0,0,1,3.5-1.294Z" transform="translate(-0.285 -9.091)" fill="#fff" stroke="#fff" stroke-width="1"/>
      <path id="Path_178" data-name="Path 178" d="M43.916,54.265a5.594,5.594,0,0,1-3.647-1.286,4.532,4.532,0,0,0-5.8,0,5.8,5.8,0,0,1-7.291,0,4.528,4.528,0,0,0-5.8,0,5.809,5.809,0,0,1-7.29,0,4.335,4.335,0,0,0-2.9-1.049.643.643,0,1,1,0-1.286,5.586,5.586,0,0,1,3.644,1.286,4.528,4.528,0,0,0,5.8,0,5.8,5.8,0,0,1,7.29,0,4.53,4.53,0,0,0,5.8,0,5.806,5.806,0,0,1,7.294,0,4.338,4.338,0,0,0,2.9,1.049.643.643,0,1,1,0,1.286Z" transform="translate(-1.582 -17.365)" fill="#fff" stroke="#fff" stroke-width="1"/>
      <path id="Path_179" data-name="Path 179" d="M45.185,69.079H6.765a.643.643,0,0,1-.643-.643v-2.65A1.97,1.97,0,0,1,8.09,63.818H43.86a1.97,1.97,0,0,1,1.968,1.968v2.65A.643.643,0,0,1,45.185,69.079ZM7.408,67.793H44.542V65.786a.683.683,0,0,0-.682-.682H8.09a.683.683,0,0,0-.682.682Z" transform="translate(0 -22.069)" fill="#fff" stroke="#fff" stroke-width="1"/>
    </g>
  </g>
</svg>
