<svg xmlns="http://www.w3.org/2000/svg" xmlns:xlink="http://www.w3.org/1999/xlink" width="130" height="130" viewBox="0 0 130 130">
  <defs>
    <linearGradient id="linear-gradient" x1="0.5" x2="0.5" y2="1" gradientUnits="objectBoundingBox">
      <stop offset="0" stop-color="#e31f25"/>
      <stop offset="1" stop-color="#ff1f26"/>
    </linearGradient>
    <filter id="Area_SIZE:LARGE_STATE:DEFAULT_STYLE:STYLE2_" x="0" y="0" width="130" height="130" filterUnits="userSpaceOnUse">
      <feOffset dy="3" input="SourceAlpha"/>
      <feGaussianBlur stdDeviation="10" result="blur"/>
      <feFlood flood-opacity="0.082"/>
      <feComposite operator="in" in2="blur"/>
      <feComposite in="SourceGraphic"/>
    </filter>
  </defs>
  <g id="Group_635" data-name="Group 635" transform="translate(-1322 -3992)">
    <g transform="matrix(1, 0, 0, 1, 1322, 3992)" filter="url(#Area_SIZE:LARGE_STATE:DEFAULT_STYLE:STYLE2_)">
      <rect id="Area_SIZE:LARGE_STATE:DEFAULT_STYLE:STYLE2_2" data-name="Area [SIZE:LARGE][STATE:DEFAULT][STYLE:STYLE2]" width="70" height="70" rx="35" transform="translate(30 27)" fill="url(#linear-gradient)"/>
    </g>
    <path id="XMLID_83_" d="M74.726,24.3c-.016-.86-.027-1.481-.027-1.793,0-2.59-.661-17.4-.737-19.085-.053-1.179-.1-2.2-.819-2.843A3.188,3.188,0,0,0,70.665.02C68.694.148,65.188.6,62.1,1c-1.022.132-2.021.26-2.885.366l-.025,0c-1.243.153-2.2.258-2.54.258H56.27c-.575,0-2.941-.3-5.447-.628C47.752.6,44.27.154,42.291.023A3.327,3.327,0,0,0,39.783.57a3.288,3.288,0,0,0-.813,2.453c-.031.684-.754,16.781-.754,19.483,0,.312-.011.934-.027,1.794-.078,4.338-.241,13.365.335,17.332C38.87,44.017,39.833,45,41.9,45q.259,0,.541-.02c1.567-.112,3.986-.4,6.4-.71l.021,0,1.961-.252c2.506-.323,4.873-.628,5.448-.628h.376c.575,0,2.943.3,5.449.628,2.9.373,6.186.8,8.2.951,2.6.2,3.711-.705,4.092-3.337C74.968,37.661,74.8,28.637,74.726,24.3ZM72.884,41.411c-.268,1.851-.661,2.174-2.467,2.036-1.98-.152-5.245-.572-8.126-.943-3.082-.4-5-.64-5.644-.64H56.27q-.213,0-.615.035c.57-.241,1.09-.468,1.554-.671a16.176,16.176,0,0,1,2.095-.835.762.762,0,0,0-.013-1.524,8.845,8.845,0,0,0-2.692.962,54.748,54.748,0,0,1-7.988,2.931c-2.378.3-4.752.588-6.275.7-1.632.117-2.041-.247-2.3-2.046-.558-3.844-.391-13.123-.319-17.085.016-.868.027-1.5.027-1.821,0-2.669.722-18.732.753-19.415.022-.5.078-1.182.306-1.386a1.5,1.5,0,0,1,.906-.18q.219,0,.485.018c1.931.128,5.388.573,8.438.966,1.507.194,2.736.351,3.673.461-1.352.53-2.528,1.053-3.47,1.472a15.73,15.73,0,0,1-2.048.83A.762.762,0,0,0,48.8,6.8a8.53,8.53,0,0,0,2.653-.962,52.521,52.521,0,0,1,7.985-2.964q1.2-.148,2.855-.363c3.07-.4,6.55-.844,8.473-.968.9-.058,1.241.062,1.364.172.243.218.279,1.01.313,1.776.273,6.086.735,16.94.735,19.017,0,.326.011.953.027,1.821C73.274,28.289,73.441,37.565,72.884,41.411Zm-11.79-20.7-3.111,1.8,3.111,1.8,3.375-.983a.762.762,0,0,1,.426,1.464l-1.973.575,1.958,1.131a.762.762,0,1,1-.762,1.32l-1.958-1.131.489,2a.762.762,0,1,1-1.48.363l-.836-3.414-3.112-1.8v3.593l2.539,2.431a.762.762,0,1,1-1.054,1.1L57.22,29.534V31.8a.762.762,0,0,1-1.524,0V29.535l-1.484,1.421a.762.762,0,0,1-1.054-1.1L55.7,27.424V23.831l-3.112,1.8-.836,3.414a.762.762,0,1,1-1.48-.363l.489-2L48.8,27.813a.762.762,0,0,1-.762-1.32l1.958-1.13-1.973-.575a.762.762,0,0,1,.426-1.464l3.374.983,3.112-1.8-3.112-1.8-3.374.983a.762.762,0,0,1-.426-1.464l1.973-.575-1.958-1.131a.762.762,0,0,1,.762-1.32l1.958,1.131-.489-2a.762.762,0,1,1,1.48-.363l.836,3.414,3.112,1.8V17.6l-2.539-2.431a.762.762,0,1,1,1.054-1.1L55.7,15.486V13.225a.762.762,0,0,1,1.524,0v2.261L58.7,14.065a.762.762,0,1,1,1.054,1.1L57.22,17.6V21.19l3.112-1.8.836-3.414a.762.762,0,0,1,1.481.363l-.489,2,1.958-1.131a.762.762,0,0,1,.762,1.32l-1.958,1.131,1.973.575a.762.762,0,0,1-.426,1.464Z" transform="translate(1330.894 4032)" fill="#fff"/>
  </g>
</svg>
