<svg xmlns="http://www.w3.org/2000/svg" xmlns:xlink="http://www.w3.org/1999/xlink" width="130" height="130" viewBox="0 0 130 130">
  <defs>
    <linearGradient id="linear-gradient" x1="0.5" x2="0.5" y2="1" gradientUnits="objectBoundingBox">
      <stop offset="0" stop-color="#e31f25"/>
      <stop offset="1" stop-color="#ff1f26"/>
    </linearGradient>
    <filter id="Area_SIZE:LARGE_STATE:DEFAULT_STYLE:STYLE2_" x="0" y="0" width="130" height="130" filterUnits="userSpaceOnUse">
      <feOffset dy="3" input="SourceAlpha"/>
      <feGaussianBlur stdDeviation="10" result="blur"/>
      <feFlood flood-opacity="0.082"/>
      <feComposite operator="in" in2="blur"/>
      <feComposite in="SourceGraphic"/>
    </filter>
  </defs>
  <g id="Group_636" data-name="Group 636" transform="translate(-1608 -3992)">
    <g transform="matrix(1, 0, 0, 1, 1608, 3992)" filter="url(#Area_SIZE:LARGE_STATE:DEFAULT_STYLE:STYLE2_)">
      <rect id="Area_SIZE:LARGE_STATE:DEFAULT_STYLE:STYLE2_2" data-name="Area [SIZE:LARGE][STATE:DEFAULT][STYLE:STYLE2]" width="70" height="70" rx="35" transform="translate(30 27)" fill="url(#linear-gradient)"/>
    </g>
    <g id="baking" transform="translate(1651 4031.984)">
      <g id="Group_505" data-name="Group 505" transform="translate(0 0.016)">
        <g id="Group_504" data-name="Group 504" transform="translate(0 0)">
          <path id="Path_170" data-name="Path 170" d="M32.749,4.374a6.085,6.085,0,0,1-4.672-1.936,7.635,7.635,0,0,0-10.791-.366q-.189.177-.366.366a6.121,6.121,0,0,1-4.672,1.935,7.636,7.636,0,0,0-7.89,7.374q-.009.259,0,.517a6.114,6.114,0,0,1-1.935,4.671,7.636,7.636,0,0,0-.365,10.792q.176.189.365.365a6.114,6.114,0,0,1,1.935,4.671,7.617,7.617,0,0,0,4.479,7.215l.631-1.388a6.1,6.1,0,0,1-3.584-5.775,7.638,7.638,0,0,0-2.418-5.838,6.11,6.11,0,0,1-.293-8.636q.141-.151.293-.293a7.637,7.637,0,0,0,2.418-5.837,6.111,6.111,0,0,1,5.9-6.315q.207-.007.414,0a7.64,7.64,0,0,0,5.837-2.418,6.111,6.111,0,0,1,8.928,0A7.627,7.627,0,0,0,32.8,5.9a6.1,6.1,0,0,1,5.776,3.585l1.389-.63A7.62,7.62,0,0,0,32.749,4.374Z" transform="translate(0 -0.016)" fill="#fff"/>
        </g>
      </g>
      <g id="Group_507" data-name="Group 507" transform="translate(17.699 17.715)">
        <g id="Group_506" data-name="Group 506">
          <path id="Path_171" data-name="Path 171" d="M211.258,185.677l-1.185.961a6.126,6.126,0,0,1-.583,8.3,7.638,7.638,0,0,0-2.418,5.838,6.111,6.111,0,0,1-5.9,6.314q-.207.007-.413,0a7.636,7.636,0,0,0-5.837,2.418,6.126,6.126,0,0,1-8.3.583l-.96,1.185a7.656,7.656,0,0,0,10.378-.728,6.1,6.1,0,0,1,4.672-1.935,7.636,7.636,0,0,0,7.89-7.374q.009-.258,0-.517a6.114,6.114,0,0,1,1.935-4.671A7.658,7.658,0,0,0,211.258,185.677Z" transform="translate(-185.656 -185.677)" fill="#fff"/>
        </g>
      </g>
      <g id="Group_509" data-name="Group 509" transform="translate(9.912 9.931)">
        <g id="Group_508" data-name="Group 508">
          <path id="Path_172" data-name="Path 172" d="M138.571,105.531a3.219,3.219,0,0,0-5.458,0l-2.585,4.133-1.61-1.61a.763.763,0,0,0-1.078,0l-19.829,19.829a.763.763,0,0,0,0,1.078l1.607,1.613-4.135,2.585a3.216,3.216,0,1,0,4.432,4.433l2.588-4.133,1.61,1.61a.763.763,0,0,0,1.078,0l19.829-19.829a.763.763,0,0,0,0-1.078l-1.607-1.613,4.135-2.585A3.216,3.216,0,0,0,138.571,105.531Zm-29.944,31.251a1.691,1.691,0,1,1-2.332-2.332l4.433-2.771.667.667Zm6.025-3.334-5.023-5.023,18.751-18.75L133.4,114.7Zm22.613-25.3a1.691,1.691,0,0,1-.528.528l-4.433,2.771-.667-.667,2.768-4.436a1.691,1.691,0,1,1,2.86,1.8Z" transform="translate(-103.972 -104.02)" fill="#fff"/>
        </g>
      </g>
      <g id="Group_511" data-name="Group 511" transform="translate(14.332 14.348)">
        <g id="Group_510" data-name="Group 510">
          <rect id="Rectangle_206" data-name="Rectangle 206" width="1.525" height="10.246" transform="translate(0 1.079) rotate(-45)" fill="#fff"/>
        </g>
      </g>
      <g id="Group_513" data-name="Group 513" transform="translate(20.052 12.442)">
        <g id="Group_512" data-name="Group 512">
          <rect id="Rectangle_207" data-name="Rectangle 207" width="1.525" height="7.549" transform="translate(0 1.079) rotate(-45)" fill="#fff"/>
        </g>
      </g>
      <g id="Group_515" data-name="Group 515" transform="translate(12.425 20.068)">
        <g id="Group_514" data-name="Group 514">
          <rect id="Rectangle_208" data-name="Rectangle 208" width="1.525" height="7.549" transform="translate(0 1.079) rotate(-45)" fill="#fff"/>
        </g>
      </g>
      <g id="Group_517" data-name="Group 517" transform="translate(10.9 26.169)">
        <g id="Group_516" data-name="Group 516">
          <rect id="Rectangle_209" data-name="Rectangle 209" width="1.525" height="4.314" transform="translate(0 1.079) rotate(-45)" fill="#fff"/>
        </g>
      </g>
      <g id="Group_519" data-name="Group 519" transform="translate(26.153 10.914)">
        <g id="Group_518" data-name="Group 518">
          <rect id="Rectangle_210" data-name="Rectangle 210" width="1.525" height="4.314" transform="translate(0 1.079) rotate(-45)" fill="#fff"/>
        </g>
      </g>
    </g>
  </g>
</svg>
