<svg xmlns="http://www.w3.org/2000/svg" xmlns:xlink="http://www.w3.org/1999/xlink" width="130" height="130" viewBox="0 0 130 130">
  <defs>
    <linearGradient id="linear-gradient" x1="0.5" x2="0.5" y2="1" gradientUnits="objectBoundingBox">
      <stop offset="0" stop-color="#e31f25"/>
      <stop offset="1" stop-color="#ff1f26"/>
    </linearGradient>
    <filter id="Area_SIZE:LARGE_STATE:DEFAULT_STYLE:STYLE2_" x="0" y="0" width="130" height="130" filterUnits="userSpaceOnUse">
      <feOffset dy="3" input="SourceAlpha"/>
      <feGaussianBlur stdDeviation="10" result="blur"/>
      <feFlood flood-opacity="0.082"/>
      <feComposite operator="in" in2="blur"/>
      <feComposite in="SourceGraphic"/>
    </filter>
  </defs>
  <g id="Group_624" data-name="Group 624" transform="translate(-250 -1977)">
    <g id="Circle_Button_" data-name="Circle Button " transform="translate(280.16 2004.179)">
      <g transform="matrix(1, 0, 0, 1, -30.16, -27.18)" filter="url(#Area_SIZE:LARGE_STATE:DEFAULT_STYLE:STYLE2_)">
        <rect id="Area_SIZE:LARGE_STATE:DEFAULT_STYLE:STYLE2_2" data-name="Area [SIZE:LARGE][STATE:DEFAULT][STYLE:STYLE2]" width="70" height="70" rx="35" transform="translate(30 27)" fill="url(#linear-gradient)"/>
      </g>
    </g>
    <g id="chemistry_1_" data-name="chemistry (1)" transform="translate(293 2016.984)">
      <g id="Group_521" data-name="Group 521" transform="translate(0 0.016)">
        <g id="Group_520" data-name="Group 520" transform="translate(0 0)">
          <path id="Path_199" data-name="Path 199" d="M36.473,16.346c4.439-2.563,7.507-5.068,8.295-6.954a2.31,2.31,0,0,0,.071-1.849c-.656-1.532-3.146-2.042-7.395-1.525a2.887,2.887,0,0,0-5.487,1.028c-1.4.337-2.867.737-4.377,1.195V5.822h1.452V.016H15.968V5.822h1.452V8.238C8.907,5.647,1.362,4.741.161,7.544c-1.016,2.37,3,5.728,8.335,8.8-4.49,2.587-7.51,5.088-8.281,7a2.292,2.292,0,0,0-.054,1.809c.548,1.279,2.323,1.726,4.538,1.726a26.483,26.483,0,0,0,3.844-.333,14.515,14.515,0,1,0,27.913-.005,26.689,26.689,0,0,0,3.876.339c2.5,0,4.015-.577,4.508-1.727a2.31,2.31,0,0,0-.071-1.849C43.98,21.414,40.911,18.909,36.473,16.346ZM34.838,5.822a1.452,1.452,0,1,1-1.452,1.452A1.453,1.453,0,0,1,34.838,5.822ZM27.581,9.76c1.6-.494,3.149-.922,4.625-1.279a2.89,2.89,0,0,0,5.517-1.034c3.841-.455,5.521.06,5.782.668a.948.948,0,0,1-.077.717c-.629,1.506-3.6,3.982-8.43,6.686-2.22-1.208-4.723-2.413-7.417-3.563Zm5.895,6.585c-1.086.573-2.253,1.153-3.492,1.732a14.607,14.607,0,0,0-2.4-1.168V13.535C29.736,14.47,31.715,15.416,33.475,16.345ZM17.419,1.468H27.58v2.9h-2.9V5.822h1.452v5.527c-.427-.174-.853-.35-1.287-.521-1.982-.779-3.993-1.5-5.97-2.135V5.822h4.355V4.371H17.419v-2.9Zm.955,16.643.5-.166V10.215q2.58.848,5.439,1.964c.621.244,1.224.49,1.819.737v5.028l.5.166a13.078,13.078,0,0,1,1.716.716q-1.914.85-4.031,1.684c-1.947.766-3.894,1.454-5.806,2.071a2.893,2.893,0,0,0-5.439,1.384c0,.06.014.115.017.173-.8.2-1.561.374-2.267.521A13.044,13.044,0,0,1,18.374,18.111Zm-.955,5.855a1.452,1.452,0,1,1-1.452-1.452A1.453,1.453,0,0,1,17.419,23.966Zm-2.4-5.89q-1.9-.886-3.51-1.735c1.742-.914,3.721-1.857,5.912-2.807v3.373A14.563,14.563,0,0,0,15.017,18.077ZM1.495,8.115C2.1,6.692,8.183,6.887,17.419,9.75v2.2c-2.725,1.161-5.231,2.364-7.441,3.562C3.593,11.955,1.064,9.12,1.495,8.115Zm0,16.46a.926.926,0,0,1,.067-.692c.589-1.459,3.406-3.917,8.417-6.713,1.181.64,2.405,1.261,3.64,1.853a14.492,14.492,0,0,0-4.545,5.961C4.1,25.823,1.805,25.3,1.495,24.576ZM9.436,30.5a13.045,13.045,0,0,1,.708-4.23c1.2-.226,2.354-.486,3.384-.742a2.9,2.9,0,0,0,5.341-1.536c1.965-.633,3.969-1.341,5.972-2.128,1.747-.687,3.425-1.4,5.026-2.137a13.026,13.026,0,0,1,5.186,7.184,27.815,27.815,0,0,0-9.873,2.529A36.416,36.416,0,0,1,9.633,32.672,13.01,13.01,0,0,1,9.436,30.5Zm21.773-1.452a2.9,2.9,0,0,1-5.28,1.656,35.792,35.792,0,0,1,5.265-1.8C31.2,28.951,31.209,29,31.209,29.046ZM22.5,43.562A13.078,13.078,0,0,1,9.958,34.119a37.1,37.1,0,0,0,14.6-2.866,4.35,4.35,0,0,0,8.1-2.207,4.276,4.276,0,0,0-.022-.431,21.9,21.9,0,0,1,2.746-.266A13.056,13.056,0,0,1,22.5,43.562Zm21-18.986c-.253.59-2.142,1.323-7.58.408a14.491,14.491,0,0,0-4.551-5.964c1.273-.61,2.486-1.228,3.622-1.846,4.828,2.7,7.8,5.18,8.43,6.686A.941.941,0,0,1,43.5,24.576Z" transform="translate(0 -0.016)" fill="#fff"/>
          <path id="Path_200" data-name="Path 200" d="M178.915,384.016a2.9,2.9,0,1,0,2.9,2.9A2.906,2.906,0,0,0,178.915,384.016Zm0,4.355a1.452,1.452,0,1,1,1.452-1.452A1.453,1.453,0,0,1,178.915,388.371Z" transform="translate(-160.044 -349.179)" fill="#fff"/>
        </g>
      </g>
    </g>
  </g>
</svg>
