<svg xmlns="http://www.w3.org/2000/svg" xmlns:xlink="http://www.w3.org/1999/xlink" width="130" height="130" viewBox="0 0 130 130">
  <defs>
    <linearGradient id="linear-gradient" x1="0.5" x2="0.5" y2="1" gradientUnits="objectBoundingBox">
      <stop offset="0" stop-color="#e31f25"/>
      <stop offset="1" stop-color="#ff1f26"/>
    </linearGradient>
    <filter id="Area_SIZE:LARGE_STATE:DEFAULT_STYLE:STYLE2_" x="0" y="0" width="130" height="130" filterUnits="userSpaceOnUse">
      <feOffset dy="3" input="SourceAlpha"/>
      <feGaussianBlur stdDeviation="10" result="blur"/>
      <feFlood flood-opacity="0.082"/>
      <feComposite operator="in" in2="blur"/>
      <feComposite in="SourceGraphic"/>
    </filter>
  </defs>
  <g id="Group_630" data-name="Group 630" transform="translate(-1115 -1977)">
    <g id="Circle_Button_" data-name="Circle Button " transform="translate(1145.098 2004.179)">
      <g transform="matrix(1, 0, 0, 1, -30.1, -27.18)" filter="url(#Area_SIZE:LARGE_STATE:DEFAULT_STYLE:STYLE2_)">
        <rect id="Area_SIZE:LARGE_STATE:DEFAULT_STYLE:STYLE2_2" data-name="Area [SIZE:LARGE][STATE:DEFAULT][STYLE:STYLE2]" width="70" height="70" rx="35" transform="translate(30 27)" fill="url(#linear-gradient)"/>
      </g>
    </g>
    <g id="vape-liquid" transform="translate(1162.5 2017)">
      <path id="Path_229" data-name="Path 229" d="M61.178,313.231v-1.353a.659.659,0,0,0-1.318,0v1.353a2.3,2.3,0,1,0-1.56,4.313,2.3,2.3,0,1,0,4.438,0,2.3,2.3,0,1,0-1.56-4.313Zm-3.289,2.082a.986.986,0,1,1,.986.985A.987.987,0,0,1,57.889,315.313Zm2.63,3.835a.986.986,0,1,1,.986-.985A.986.986,0,0,1,60.519,319.147Zm1.645-2.849a.985.985,0,1,1,.985-.985A.987.987,0,0,1,62.164,316.3Zm0,0" transform="translate(-51.142 -283.866)" fill="#fff"/>
      <path id="Path_230" data-name="Path 230" d="M31.58,18.686a.849.849,0,0,1-.539-.793v-.858h.813a.659.659,0,0,0,.659-.659V13.583a.658.658,0,0,0-.612-.657V9.684a1.478,1.478,0,0,0-1.477-1.477h-.871a5.736,5.736,0,0,1-.781-2.894V2.959a2.959,2.959,0,0,0-5.919,0V5.314a5.736,5.736,0,0,1-.781,2.894H21.2a1.478,1.478,0,0,0-1.477,1.477v3.242a.659.659,0,0,0-.613.657v2.793a.659.659,0,0,0,.659.659h.813v.858a.849.849,0,0,1-.539.793,4.91,4.91,0,0,0-2.449,2.106,4.908,4.908,0,0,0-2.449-2.106.849.849,0,0,1-.539-.793v-.858h.813a.659.659,0,0,0,.659-.659V13.583a.658.658,0,0,0-.613-.657V9.684a1.478,1.478,0,0,0-1.477-1.477h-.871a5.736,5.736,0,0,1-.781-2.894V2.959a2.959,2.959,0,1,0-5.919,0V5.314a5.736,5.736,0,0,1-.781,2.894H4.765A1.478,1.478,0,0,0,3.288,9.684v3.242a.659.659,0,0,0-.613.657v2.793a.659.659,0,0,0,.659.659h.813v.858a.848.848,0,0,1-.539.793A4.9,4.9,0,0,0,.5,23.264V42.645A2.358,2.358,0,0,0,2.855,45H15.9a2.348,2.348,0,0,0,1.7-.723,2.349,2.349,0,0,0,1.7.723H32.333a2.358,2.358,0,0,0,2.355-2.355V23.264A4.9,4.9,0,0,0,31.58,18.686Zm-10.539-9a.159.159,0,0,1,.159-.159h3.592a.659.659,0,0,0,0-1.318h-1.24c.751-1.672.619-2.831.619-5.248a1.641,1.641,0,0,1,3.283,0V5.314a7.051,7.051,0,0,0,.619,2.894h-.2a.659.659,0,0,0,0,1.318h2.556a.159.159,0,0,1,.159.158v3.239h-1.4v-1.56a.659.659,0,1,0-1.318,0v1.56h-1.4v-1.56a.659.659,0,1,0-1.318,0v1.56h-1.4v-1.56a.659.659,0,1,0-1.318,0v1.56h-1.4Zm-.613,4.558H31.195v1.475H20.428Zm.1,5.67A2.16,2.16,0,0,0,21.9,17.893v-.858h7.822v.858a2.16,2.16,0,0,0,1.371,2.019,3.587,3.587,0,0,1,2.276,3.352v2.06H24.55a.659.659,0,1,0,0,1.318h8.82V37.454H18.253V26.642h3.221a.659.659,0,1,0,0-1.318H18.253v-2.06A3.588,3.588,0,0,1,20.529,19.912ZM1.818,26.642H16.935V37.454H1.818ZM7.736,2.959a1.641,1.641,0,0,1,3.283,0V5.314a7.051,7.051,0,0,0,.619,2.894H7.116C7.867,6.535,7.736,5.375,7.736,2.959ZM4.606,9.684a.159.159,0,0,1,.159-.159h9.224a.159.159,0,0,1,.159.159v3.239h-1.4v-1.56a.659.659,0,0,0-1.318,0v1.56h-1.4v-1.56a.659.659,0,0,0-1.318,0v1.56h-1.4v-1.56a.659.659,0,0,0-1.318,0v1.56h-1.4ZM4.095,19.912a2.16,2.16,0,0,0,1.371-2.019v-.858H8.378a.659.659,0,1,0,0-1.318H3.993V14.242H14.76v1.475H11.454a.659.659,0,1,0,0,1.318h1.833v.858a2.16,2.16,0,0,0,1.371,2.019,3.587,3.587,0,0,1,2.276,3.352v2.06H1.818v-2.06A3.587,3.587,0,0,1,4.095,19.912Zm11.8,23.77H2.855a1.038,1.038,0,0,1-1.037-1.037V38.773H16.935v3.872A1.038,1.038,0,0,1,15.9,43.682Zm16.435,0H19.29a1.038,1.038,0,0,1-1.037-1.037V38.773H33.37v3.872A1.038,1.038,0,0,1,32.333,43.682Zm0,0" fill="#fff"/>
      <path id="Path_231" data-name="Path 231" d="M246.569,316.305l1.345,3.005a2.333,2.333,0,0,0,4.255,0l1.344-3.005a2.634,2.634,0,0,0-2.4-3.709H250.7v-.718a.659.659,0,0,0-1.318,0v.718h-.409A2.634,2.634,0,0,0,246.569,316.305Zm2.4-2.391h2.137a1.314,1.314,0,0,1,1.2,1.853l-1.344,3a1.014,1.014,0,0,1-1.849,0l-1.345-3A1.315,1.315,0,0,1,248.973,313.914Zm0,0" transform="translate(-224.23 -283.866)" fill="#fff"/>
      <path id="Path_232" data-name="Path 232" d="M292.916,354.749a.659.659,0,1,1-.659-.659A.659.659,0,0,1,292.916,354.749Zm0,0" transform="translate(-265.513 -322.969)" fill="#fff"/>
      <path id="Path_233" data-name="Path 233" d="M282.307,375.589a.659.659,0,1,1-.659-.659A.659.659,0,0,1,282.307,375.589Zm0,0" transform="translate(-255.836 -341.977)" fill="#fff"/>
      <path id="Path_234" data-name="Path 234" d="M270.244,354.749a.659.659,0,1,1-.659-.659A.659.659,0,0,1,270.244,354.749Zm0,0" transform="translate(-244.834 -322.969)" fill="#fff"/>
    </g>
  </g>
</svg>
